{
  "title":"Dragon",
  "original-title":"RPG Enemies: 11 Dragons",
  "author":"Redshrike",
  "author-url":"http://opengameart.org/users/redshrike",
  "source":"http://opengameart.org/content/rpg-enemies-11-dragons",
  "licence":"cc-by-3.0",
  "notice":"Credit to: Stephen \"Redshrike\" Challener, MrBeast, Surt, Blarumyrran, Sharm, Zabin",
  "difficulty":"hard",
  "grid":[
    ["b3e9fb","b3e9fb","b3e9fb","b3e9fb","b3e9fb","b3e9fb","b3e9fb","b3e9fb","b3e9fb","b3e9fb","b3e9fb","b3e9fb","b3e9fb","b3e9fb","b3e9fb","b3e9fb","b3e9fb","b3e9fb","b3e9fb","b3e9fb","b3e9fb","b3e9fb","b3e9fb","b3e9fb","b3e9fb","b3e9fb","b3e9fb","b3e9fb","b3e9fb","b3e9fb","b3e9fb","b3e9fb","b3e9fb","b3e9fb","b3e9fb","b3e9fb","b3e9fb","b3e9fb","b3e9fb","b3e9fb","b3e9fb","b3e9fb","b3e9fb","b3e9fb","b3e9fb","b3e9fb","b3e9fb","b3e9fb","b3e9fb","b3e9fb","b3e9fb","b3e9fb","b3e9fb","b3e9fb","b3e9fb","b3e9fb","b3e9fb","b3e9fb","b3e9fb","b3e9fb","b3e9fb","b3e9fb","b3e9fb","b3e9fb","b3e9fb","b3e9fb","b3e9fb","b3e9fb","b3e9fb","b3e9fb","b3e9fb","b3e9fb","b3e9fb","b3e9fb","b3e9fb","b3e9fb"],
    ["b3e9fb","b3e9fb","b3e9fb","b3e9fb","b3e9fb","b3e9fb","b3e9fb","b3e9fb","b3e9fb","b3e9fb","b3e9fb","b3e9fb","b3e9fb","b3e9fb","b3e9fb","b3e9fb","b3e9fb","b3e9fb","b3e9fb","b3e9fb","b3e9fb","b3e9fb","b3e9fb","b3e9fb","b3e9fb","b3e9fb","b3e9fb","b3e9fb","b3e9fb","b3e9fb","b3e9fb","b3e9fb","b3e9fb","b3e9fb","b3e9fb","b3e9fb","b3e9fb","b3e9fb","b3e9fb","b3e9fb","b3e9fb","b3e9fb","b3e9fb","b3e9fb","b3e9fb","b3e9fb","b3e9fb","b3e9fb","b3e9fb","b3e9fb","b3e9fb","b3e9fb","b3e9fb","b3e9fb","b3e9fb","b3e9fb","b3e9fb","b3e9fb","b3e9fb","b3e9fb","b3e9fb","b3e9fb","b3e9fb","b3e9fb","b3e9fb","b3e9fb","b3e9fb","b3e9fb","b3e9fb","b3e9fb","b3e9fb","b3e9fb","b3e9fb","b3e9fb","b3e9fb","b3e9fb"],
    ["b3e9fb","b3e9fb","b3e9fb","b3e9fb","b3e9fb","b3e9fb","b3e9fb","b3e9fb","b3e9fb","b3e9fb","b3e9fb","b3e9fb","b3e9fb","b3e9fb","b3e9fb","b3e9fb","b3e9fb","b3e9fb","b3e9fb","b3e9fb","b3e9fb","b3e9fb","b3e9fb","b3e9fb","b3e9fb","b3e9fb","b3e9fb","b3e9fb","b3e9fb","b3e9fb","b3e9fb","b3e9fb","b3e9fb","b3e9fb","b3e9fb","b3e9fb","b3e9fb","b3e9fb","b3e9fb","b3e9fb","b3e9fb","b3e9fb","b3e9fb","b3e9fb","b3e9fb","b3e9fb","b3e9fb","b3e9fb","b3e9fb","b3e9fb","b3e9fb","b3e9fb","b3e9fb","b3e9fb","b3e9fb","b3e9fb","b3e9fb","b3e9fb","b3e9fb","b3e9fb","b3e9fb","b3e9fb","b3e9fb","b3e9fb","b3e9fb","b3e9fb","b3e9fb","b3e9fb","b3e9fb","b3e9fb","b3e9fb","b3e9fb","b3e9fb","b3e9fb","b3e9fb","b3e9fb"],
    ["b3e9fb","b3e9fb","b3e9fb","b3e9fb","b3e9fb","b3e9fb","b3e9fb","b3e9fb","b3e9fb","b3e9fb","b3e9fb","b3e9fb","b3e9fb","b3e9fb","b3e9fb","b3e9fb","b3e9fb","b3e9fb","b3e9fb","b3e9fb","b3e9fb","b3e9fb","b3e9fb","b3e9fb","b3e9fb","b3e9fb","0a0c08","b3e9fb","b3e9fb","b3e9fb","b3e9fb","b3e9fb","b3e9fb","b3e9fb","b3e9fb","b3e9fb","b3e9fb","b3e9fb","b3e9fb","b3e9fb","b3e9fb","b3e9fb","b3e9fb","b3e9fb","b3e9fb","b3e9fb","b3e9fb","b3e9fb","b3e9fb","b3e9fb","b3e9fb","b3e9fb","b3e9fb","b3e9fb","b3e9fb","b3e9fb","b3e9fb","b3e9fb","b3e9fb","b3e9fb","b3e9fb","b3e9fb","b3e9fb","b3e9fb","b3e9fb","b3e9fb","b3e9fb","b3e9fb","b3e9fb","b3e9fb","b3e9fb","b3e9fb","b3e9fb","b3e9fb","b3e9fb","b3e9fb"],
    ["b3e9fb","b3e9fb","b3e9fb","b3e9fb","b3e9fb","b3e9fb","b3e9fb","b3e9fb","b3e9fb","b3e9fb","b3e9fb","b3e9fb","b3e9fb","b3e9fb","b3e9fb","b3e9fb","b3e9fb","b3e9fb","b3e9fb","b3e9fb","b3e9fb","b3e9fb","b3e9fb","b3e9fb","b3e9fb","0a0c08","b3e9fb","0a0c08","b3e9fb","b3e9fb","b3e9fb","b3e9fb","b3e9fb","b3e9fb","b3e9fb","b3e9fb","b3e9fb","b3e9fb","b3e9fb","b3e9fb","b3e9fb","b3e9fb","b3e9fb","b3e9fb","b3e9fb","b3e9fb","b3e9fb","b3e9fb","b3e9fb","b3e9fb","b3e9fb","b3e9fb","b3e9fb","b3e9fb","b3e9fb","b3e9fb","b3e9fb","b3e9fb","b3e9fb","b3e9fb","b3e9fb","b3e9fb","b3e9fb","b3e9fb","b3e9fb","b3e9fb","b3e9fb","b3e9fb","b3e9fb","b3e9fb","b3e9fb","b3e9fb","b3e9fb","b3e9fb","b3e9fb","b3e9fb"],
    ["b3e9fb","b3e9fb","b3e9fb","b3e9fb","b3e9fb","b3e9fb","b3e9fb","b3e9fb","b3e9fb","b3e9fb","b3e9fb","b3e9fb","b3e9fb","b3e9fb","b3e9fb","b3e9fb","b3e9fb","b3e9fb","b3e9fb","b3e9fb","b3e9fb","b3e9fb","b3e9fb","b3e9fb","b3e9fb","b3e9fb","b3e9fb","0a0c08","b3e9fb","b3e9fb","b3e9fb","b3e9fb","b3e9fb","b3e9fb","b3e9fb","b3e9fb","b3e9fb","b3e9fb","b3e9fb","b3e9fb","b3e9fb","b3e9fb","b3e9fb","b3e9fb","b3e9fb","b3e9fb","b3e9fb","b3e9fb","b3e9fb","b3e9fb","b3e9fb","b3e9fb","b3e9fb","b3e9fb","b3e9fb","b3e9fb","b3e9fb","b3e9fb","b3e9fb","b3e9fb","b3e9fb","b3e9fb","b3e9fb","b3e9fb","b3e9fb","b3e9fb","b3e9fb","b3e9fb","b3e9fb","b3e9fb","b3e9fb","b3e9fb","b3e9fb","b3e9fb","b3e9fb","b3e9fb"],
    ["b3e9fb","b3e9fb","b3e9fb","b3e9fb","b3e9fb","b3e9fb","b3e9fb","b3e9fb","b3e9fb","b3e9fb","b3e9fb","b3e9fb","b3e9fb","b3e9fb","b3e9fb","b3e9fb","b3e9fb","b3e9fb","b3e9fb","b3e9fb","b3e9fb","b3e9fb","b3e9fb","b3e9fb","b3e9fb","b3e9fb","0a0c08","b3e9fb","b3e9fb","b3e9fb","b3e9fb","b3e9fb","b3e9fb","b3e9fb","b3e9fb","b3e9fb","b3e9fb","b3e9fb","b3e9fb","b3e9fb","b3e9fb","b3e9fb","b3e9fb","b3e9fb","b3e9fb","b3e9fb","b3e9fb","b3e9fb","b3e9fb","b3e9fb","b3e9fb","b3e9fb","b3e9fb","b3e9fb","b3e9fb","0a0c08","b3e9fb","b3e9fb","b3e9fb","b3e9fb","b3e9fb","b3e9fb","b3e9fb","b3e9fb","b3e9fb","b3e9fb","b3e9fb","b3e9fb","b3e9fb","b3e9fb","b3e9fb","b3e9fb","b3e9fb","b3e9fb","b3e9fb","b3e9fb"],
    ["b3e9fb","b3e9fb","b3e9fb","b3e9fb","b3e9fb","b3e9fb","b3e9fb","b3e9fb","b3e9fb","b3e9fb","b3e9fb","b3e9fb","b3e9fb","b3e9fb","b3e9fb","b3e9fb","b3e9fb","b3e9fb","b3e9fb","b3e9fb","b3e9fb","b3e9fb","b3e9fb","b3e9fb","b3e9fb","0a0c08","b3e9fb","b3e9fb","0a0c08","0a0c08","0a0c08","0a0c08","b3e9fb","b3e9fb","b3e9fb","b3e9fb","b3e9fb","b3e9fb","b3e9fb","b3e9fb","b3e9fb","b3e9fb","b3e9fb","b3e9fb","b3e9fb","b3e9fb","b3e9fb","b3e9fb","b3e9fb","b3e9fb","b3e9fb","b3e9fb","b3e9fb","b3e9fb","b3e9fb","0a0c08","0a0c08","b3e9fb","b3e9fb","b3e9fb","b3e9fb","b3e9fb","b3e9fb","b3e9fb","b3e9fb","b3e9fb","b3e9fb","b3e9fb","b3e9fb","b3e9fb","b3e9fb","b3e9fb","b3e9fb","b3e9fb","b3e9fb","b3e9fb"],
    ["b3e9fb","b3e9fb","b3e9fb","b3e9fb","b3e9fb","b3e9fb","b3e9fb","b3e9fb","b3e9fb","b3e9fb","b3e9fb","b3e9fb","b3e9fb","b3e9fb","b3e9fb","b3e9fb","b3e9fb","b3e9fb","b3e9fb","b3e9fb","b3e9fb","b3e9fb","b3e9fb","b3e9fb","b3e9fb","0a0c08","b3e9fb","0a0c08","0a0c08","0a0c08","5c3837","5c3837","0a0c08","b3e9fb","b3e9fb","b3e9fb","b3e9fb","b3e9fb","b3e9fb","b3e9fb","b3e9fb","b3e9fb","b3e9fb","b3e9fb","b3e9fb","b3e9fb","b3e9fb","b3e9fb","b3e9fb","b3e9fb","b3e9fb","b3e9fb","b3e9fb","b3e9fb","b3e9fb","0a0c08","976c65","0a0c08","b3e9fb","b3e9fb","b3e9fb","b3e9fb","b3e9fb","b3e9fb","b3e9fb","b3e9fb","b3e9fb","b3e9fb","b3e9fb","b3e9fb","b3e9fb","b3e9fb","b3e9fb","b3e9fb","b3e9fb","b3e9fb"],
    ["b3e9fb","b3e9fb","b3e9fb","b3e9fb","b3e9fb","b3e9fb","b3e9fb","b3e9fb","b3e9fb","b3e9fb","b3e9fb","b3e9fb","b3e9fb","b3e9fb","b3e9fb","b3e9fb","b3e9fb","b3e9fb","b3e9fb","b3e9fb","b3e9fb","0a0c08","b3e9fb","b3e9fb","b3e9fb","b3e9fb","0a0c08","0a0c08","b3e9fb","b3e9fb","0a0c08","bf2b2c","5c3837","0a0c08","b3e9fb","b3e9fb","b3e9fb","b3e9fb","b3e9fb","b3e9fb","b3e9fb","b3e9fb","b3e9fb","b3e9fb","b3e9fb","b3e9fb","b3e9fb","b3e9fb","b3e9fb","b3e9fb","b3e9fb","b3e9fb","b3e9fb","b3e9fb","b3e9fb","0a0c08","976c65","0a0c08","b3e9fb","b3e9fb","b3e9fb","b3e9fb","b3e9fb","b3e9fb","b3e9fb","b3e9fb","b3e9fb","b3e9fb","b3e9fb","b3e9fb","b3e9fb","b3e9fb","b3e9fb","b3e9fb","b3e9fb","b3e9fb"],
    ["b3e9fb","b3e9fb","b3e9fb","b3e9fb","b3e9fb","b3e9fb","b3e9fb","b3e9fb","b3e9fb","b3e9fb","b3e9fb","b3e9fb","b3e9fb","b3e9fb","b3e9fb","b3e9fb","b3e9fb","b3e9fb","b3e9fb","b3e9fb","0a0c08","0a0c08","b3e9fb","b3e9fb","b3e9fb","b3e9fb","b3e9fb","b3e9fb","b3e9fb","b3e9fb","0a0c08","bf2b2c","5c3837","0a0c08","b3e9fb","b3e9fb","b3e9fb","b3e9fb","b3e9fb","b3e9fb","b3e9fb","b3e9fb","b3e9fb","b3e9fb","b3e9fb","b3e9fb","b3e9fb","b3e9fb","b3e9fb","b3e9fb","b3e9fb","b3e9fb","b3e9fb","b3e9fb","b3e9fb","0a0c08","976c65","976c65","0a0c08","b3e9fb","b3e9fb","b3e9fb","b3e9fb","b3e9fb","b3e9fb","b3e9fb","b3e9fb","b3e9fb","b3e9fb","b3e9fb","b3e9fb","b3e9fb","b3e9fb","b3e9fb","b3e9fb","b3e9fb"],
    ["b3e9fb","b3e9fb","b3e9fb","b3e9fb","b3e9fb","b3e9fb","b3e9fb","b3e9fb","b3e9fb","b3e9fb","b3e9fb","b3e9fb","b3e9fb","b3e9fb","b3e9fb","b3e9fb","b3e9fb","b3e9fb","b3e9fb","0a0c08","976c65","0a0c08","b3e9fb","b3e9fb","b3e9fb","b3e9fb","b3e9fb","b3e9fb","b3e9fb","b3e9fb","0a0c08","5c3837","5c3837","0a0c08","b3e9fb","b3e9fb","b3e9fb","b3e9fb","b3e9fb","b3e9fb","b3e9fb","b3e9fb","b3e9fb","b3e9fb","b3e9fb","b3e9fb","b3e9fb","b3e9fb","b3e9fb","b3e9fb","b3e9fb","b3e9fb","b3e9fb","b3e9fb","b3e9fb","0a0c08","976c65","976c65","0a0c08","b3e9fb","b3e9fb","b3e9fb","b3e9fb","b3e9fb","b3e9fb","b3e9fb","b3e9fb","b3e9fb","b3e9fb","b3e9fb","b3e9fb","b3e9fb","b3e9fb","b3e9fb","b3e9fb","b3e9fb"],
    ["b3e9fb","b3e9fb","b3e9fb","b3e9fb","b3e9fb","b3e9fb","b3e9fb","b3e9fb","b3e9fb","b3e9fb","b3e9fb","b3e9fb","b3e9fb","b3e9fb","b3e9fb","b3e9fb","b3e9fb","b3e9fb","b3e9fb","0a0c08","976c65","0a0c08","b3e9fb","b3e9fb","b3e9fb","b3e9fb","b3e9fb","b3e9fb","b3e9fb","0a0c08","5c3837","5c3837","5c3837","0a0c08","b3e9fb","b3e9fb","b3e9fb","b3e9fb","b3e9fb","b3e9fb","b3e9fb","b3e9fb","b3e9fb","b3e9fb","b3e9fb","b3e9fb","b3e9fb","b3e9fb","b3e9fb","b3e9fb","b3e9fb","b3e9fb","b3e9fb","b3e9fb","b3e9fb","0a0c08","976c65","976c65","0a0c08","b3e9fb","b3e9fb","b3e9fb","b3e9fb","b3e9fb","b3e9fb","b3e9fb","b3e9fb","b3e9fb","b3e9fb","b3e9fb","b3e9fb","b3e9fb","b3e9fb","b3e9fb","b3e9fb","b3e9fb"],
    ["b3e9fb","b3e9fb","b3e9fb","b3e9fb","b3e9fb","b3e9fb","b3e9fb","b3e9fb","b3e9fb","b3e9fb","b3e9fb","b3e9fb","b3e9fb","b3e9fb","b3e9fb","b3e9fb","b3e9fb","b3e9fb","0a0c08","976c65","976c65","0a0c08","b3e9fb","b3e9fb","b3e9fb","b3e9fb","b3e9fb","0a0c08","0a0c08","5c3837","5c3837","5c3837","5c3837","0a0c08","b3e9fb","b3e9fb","b3e9fb","b3e9fb","b3e9fb","b3e9fb","b3e9fb","b3e9fb","b3e9fb","b3e9fb","b3e9fb","b3e9fb","b3e9fb","b3e9fb","b3e9fb","b3e9fb","b3e9fb","b3e9fb","b3e9fb","b3e9fb","b3e9fb","0a0c08","976c65","976c65","0a0c08","b3e9fb","b3e9fb","b3e9fb","b3e9fb","b3e9fb","b3e9fb","b3e9fb","b3e9fb","b3e9fb","b3e9fb","b3e9fb","b3e9fb","b3e9fb","b3e9fb","b3e9fb","b3e9fb","b3e9fb"],
    ["b3e9fb","b3e9fb","b3e9fb","b3e9fb","b3e9fb","b3e9fb","b3e9fb","b3e9fb","b3e9fb","b3e9fb","b3e9fb","b3e9fb","b3e9fb","b3e9fb","b3e9fb","b3e9fb","b3e9fb","b3e9fb","0a0c08","976c65","976c65","0a0c08","b3e9fb","b3e9fb","b3e9fb","b3e9fb","0a0c08","5c3837","5c3837","fe6346","fe6346","5c3837","0a0c08","b3e9fb","b3e9fb","b3e9fb","b3e9fb","b3e9fb","b3e9fb","b3e9fb","b3e9fb","b3e9fb","b3e9fb","b3e9fb","b3e9fb","b3e9fb","b3e9fb","b3e9fb","b3e9fb","b3e9fb","b3e9fb","b3e9fb","b3e9fb","b3e9fb","b3e9fb","b3e9fb","0a0c08","976c65","bf2b2c","0a0c08","b3e9fb","b3e9fb","b3e9fb","b3e9fb","b3e9fb","b3e9fb","b3e9fb","b3e9fb","b3e9fb","b3e9fb","b3e9fb","b3e9fb","b3e9fb","b3e9fb","b3e9fb","b3e9fb"],
    ["b3e9fb","b3e9fb","b3e9fb","b3e9fb","b3e9fb","b3e9fb","b3e9fb","b3e9fb","b3e9fb","b3e9fb","b3e9fb","b3e9fb","b3e9fb","b3e9fb","b3e9fb","b3e9fb","b3e9fb","b3e9fb","0a0c08","976c65","976c65","0a0c08","b3e9fb","b3e9fb","b3e9fb","0a0c08","5c3837","5c3837","fe6346","fe6346","5c3837","0a0c08","b3e9fb","b3e9fb","b3e9fb","b3e9fb","b3e9fb","b3e9fb","b3e9fb","b3e9fb","b3e9fb","b3e9fb","b3e9fb","b3e9fb","b3e9fb","b3e9fb","b3e9fb","b3e9fb","b3e9fb","b3e9fb","b3e9fb","b3e9fb","b3e9fb","b3e9fb","b3e9fb","0a0c08","fe6346","fe6346","bf2b2c","0a0c08","b3e9fb","b3e9fb","b3e9fb","b3e9fb","b3e9fb","b3e9fb","b3e9fb","b3e9fb","b3e9fb","b3e9fb","b3e9fb","b3e9fb","b3e9fb","b3e9fb","b3e9fb","b3e9fb"],
    ["b3e9fb","b3e9fb","b3e9fb","b3e9fb","b3e9fb","b3e9fb","b3e9fb","b3e9fb","b3e9fb","b3e9fb","b3e9fb","b3e9fb","b3e9fb","b3e9fb","b3e9fb","b3e9fb","b3e9fb","b3e9fb","0a0c08","976c65","976c65","0a0c08","b3e9fb","b3e9fb","0a0c08","5c3837","5c3837","fe6346","fe6346","fe6346","0a0c08","b3e9fb","b3e9fb","b3e9fb","b3e9fb","b3e9fb","b3e9fb","b3e9fb","b3e9fb","b3e9fb","b3e9fb","b3e9fb","b3e9fb","b3e9fb","b3e9fb","b3e9fb","b3e9fb","b3e9fb","b3e9fb","b3e9fb","b3e9fb","b3e9fb","b3e9fb","b3e9fb","b3e9fb","0a0c08","fe6346","fe6346","fe6346","0a0c08","0a0c08","b3e9fb","b3e9fb","b3e9fb","b3e9fb","b3e9fb","b3e9fb","b3e9fb","b3e9fb","b3e9fb","b3e9fb","b3e9fb","b3e9fb","b3e9fb","b3e9fb","b3e9fb"],
    ["b3e9fb","b3e9fb","b3e9fb","b3e9fb","b3e9fb","b3e9fb","b3e9fb","b3e9fb","b3e9fb","b3e9fb","b3e9fb","b3e9fb","b3e9fb","b3e9fb","b3e9fb","b3e9fb","b3e9fb","b3e9fb","0a0c08","fe6346","fe6346","0a0c08","0a0c08","b3e9fb","0a0c08","5c3837","5c3837","fe6346","fe6346","fe6346","0a0c08","b3e9fb","b3e9fb","b3e9fb","b3e9fb","b3e9fb","b3e9fb","b3e9fb","b3e9fb","b3e9fb","b3e9fb","b3e9fb","b3e9fb","b3e9fb","b3e9fb","b3e9fb","b3e9fb","b3e9fb","b3e9fb","b3e9fb","b3e9fb","b3e9fb","b3e9fb","b3e9fb","b3e9fb","b3e9fb","0a0c08","bf2b2c","bf2b2c","0a0c08","0a0c08","b3e9fb","b3e9fb","b3e9fb","b3e9fb","b3e9fb","b3e9fb","b3e9fb","b3e9fb","b3e9fb","b3e9fb","b3e9fb","b3e9fb","b3e9fb","b3e9fb","b3e9fb"],
    ["b3e9fb","b3e9fb","b3e9fb","b3e9fb","b3e9fb","b3e9fb","b3e9fb","b3e9fb","b3e9fb","b3e9fb","b3e9fb","b3e9fb","b3e9fb","b3e9fb","b3e9fb","b3e9fb","b3e9fb","0a0c08","5c3837","fe6346","fe6346","0a0c08","0a0c08","b3e9fb","0a0c08","5c3837","5c3837","fe6346","fe6346","bf2b2c","0a0c08","b3e9fb","b3e9fb","b3e9fb","b3e9fb","b3e9fb","b3e9fb","b3e9fb","b3e9fb","b3e9fb","b3e9fb","b3e9fb","b3e9fb","b3e9fb","b3e9fb","b3e9fb","b3e9fb","b3e9fb","b3e9fb","b3e9fb","b3e9fb","b3e9fb","b3e9fb","b3e9fb","b3e9fb","b3e9fb","0a0c08","bf2b2c","bf2b2c","bf2b2c","0a0c08","b3e9fb","b3e9fb","b3e9fb","b3e9fb","b3e9fb","b3e9fb","b3e9fb","b3e9fb","b3e9fb","b3e9fb","b3e9fb","b3e9fb","b3e9fb","b3e9fb","b3e9fb"],
    ["b3e9fb","b3e9fb","b3e9fb","b3e9fb","b3e9fb","b3e9fb","b3e9fb","b3e9fb","b3e9fb","b3e9fb","b3e9fb","b3e9fb","b3e9fb","b3e9fb","b3e9fb","b3e9fb","0a0c08","5c3837","5c3837","fe6346","fe6346","bf2b2c","0a0c08","b3e9fb","0a0c08","5c3837","5c3837","fe6346","fe6346","bf2b2c","bf2b2c","0a0c08","b3e9fb","b3e9fb","b3e9fb","b3e9fb","b3e9fb","b3e9fb","b3e9fb","b3e9fb","b3e9fb","b3e9fb","b3e9fb","b3e9fb","b3e9fb","b3e9fb","b3e9fb","b3e9fb","b3e9fb","b3e9fb","b3e9fb","b3e9fb","b3e9fb","b3e9fb","b3e9fb","b3e9fb","0a0c08","bf2b2c","bf2b2c","bf2b2c","0a0c08","b3e9fb","b3e9fb","b3e9fb","b3e9fb","b3e9fb","b3e9fb","b3e9fb","b3e9fb","b3e9fb","b3e9fb","b3e9fb","b3e9fb","b3e9fb","b3e9fb","b3e9fb"],
    ["b3e9fb","b3e9fb","b3e9fb","b3e9fb","b3e9fb","b3e9fb","b3e9fb","b3e9fb","b3e9fb","b3e9fb","b3e9fb","b3e9fb","b3e9fb","b3e9fb","b3e9fb","b3e9fb","0a0c08","5c3837","2a2625","bf2b2c","fe6346","bf2b2c","0a0c08","b3e9fb","0a0c08","5c3837","5c3837","bf2b2c","fe6346","bf2b2c","bf2b2c","bf2b2c","0a0c08","b3e9fb","b3e9fb","b3e9fb","b3e9fb","b3e9fb","b3e9fb","b3e9fb","b3e9fb","b3e9fb","b3e9fb","b3e9fb","b3e9fb","b3e9fb","b3e9fb","b3e9fb","b3e9fb","b3e9fb","b3e9fb","b3e9fb","b3e9fb","b3e9fb","b3e9fb","b3e9fb","0a0c08","bf2b2c","bf2b2c","bf2b2c","0a0c08","0a0c08","b3e9fb","b3e9fb","b3e9fb","b3e9fb","b3e9fb","b3e9fb","b3e9fb","b3e9fb","b3e9fb","b3e9fb","b3e9fb","b3e9fb","b3e9fb","b3e9fb"],
    ["b3e9fb","b3e9fb","b3e9fb","b3e9fb","b3e9fb","b3e9fb","b3e9fb","b3e9fb","b3e9fb","b3e9fb","b3e9fb","b3e9fb","b3e9fb","b3e9fb","b3e9fb","b3e9fb","0a0c08","2a2625","2a2625","bf2b2c","fe6346","bf2b2c","0a0c08","b3e9fb","0a0c08","5c3837","5c3837","5c3837","bf2b2c","fe6346","bf2b2c","bf2b2c","bf2b2c","0a0c08","b3e9fb","b3e9fb","b3e9fb","b3e9fb","b3e9fb","b3e9fb","b3e9fb","b3e9fb","b3e9fb","b3e9fb","b3e9fb","b3e9fb","b3e9fb","b3e9fb","b3e9fb","b3e9fb","b3e9fb","b3e9fb","b3e9fb","b3e9fb","b3e9fb","b3e9fb","b3e9fb","0a0c08","bf2b2c","bf2b2c","0a0c08","0a0c08","b3e9fb","b3e9fb","b3e9fb","b3e9fb","b3e9fb","b3e9fb","b3e9fb","b3e9fb","b3e9fb","b3e9fb","b3e9fb","b3e9fb","b3e9fb","b3e9fb"],
    ["b3e9fb","b3e9fb","b3e9fb","b3e9fb","b3e9fb","b3e9fb","b3e9fb","b3e9fb","b3e9fb","b3e9fb","b3e9fb","b3e9fb","b3e9fb","b3e9fb","b3e9fb","0a0c08","2a2625","2a2625","2a2625","bf2b2c","fe6346","bf2b2c","0a0c08","b3e9fb","b3e9fb","0a0c08","5c3837","5c3837","5c3837","bf2b2c","fe6346","bf2b2c","bf2b2c","bf2b2c","0a0c08","b3e9fb","b3e9fb","b3e9fb","b3e9fb","b3e9fb","b3e9fb","b3e9fb","b3e9fb","b3e9fb","b3e9fb","b3e9fb","b3e9fb","b3e9fb","b3e9fb","b3e9fb","b3e9fb","b3e9fb","b3e9fb","b3e9fb","b3e9fb","b3e9fb","b3e9fb","0a0c08","bf2b2c","bf2b2c","0a0c08","0a0c08","b3e9fb","b3e9fb","b3e9fb","b3e9fb","b3e9fb","b3e9fb","b3e9fb","b3e9fb","b3e9fb","b3e9fb","b3e9fb","b3e9fb","b3e9fb","b3e9fb"],
    ["b3e9fb","b3e9fb","b3e9fb","b3e9fb","b3e9fb","b3e9fb","b3e9fb","b3e9fb","b3e9fb","b3e9fb","b3e9fb","b3e9fb","b3e9fb","b3e9fb","b3e9fb","0a0c08","0a0c08","2a2625","2a2625","bf2b2c","fe6346","fe6346","0a0c08","b3e9fb","b3e9fb","0a0c08","5c3837","5c3837","5c3837","5c3837","bf2b2c","fe6346","bf2b2c","bf2b2c","bf2b2c","0a0c08","b3e9fb","b3e9fb","b3e9fb","b3e9fb","b3e9fb","b3e9fb","b3e9fb","b3e9fb","b3e9fb","b3e9fb","b3e9fb","b3e9fb","b3e9fb","b3e9fb","b3e9fb","b3e9fb","b3e9fb","b3e9fb","b3e9fb","b3e9fb","b3e9fb","0a0c08","bf2b2c","bf2b2c","0a0c08","0a0c08","b3e9fb","b3e9fb","b3e9fb","b3e9fb","b3e9fb","b3e9fb","b3e9fb","b3e9fb","b3e9fb","b3e9fb","b3e9fb","b3e9fb","b3e9fb","b3e9fb"],
    ["b3e9fb","b3e9fb","b3e9fb","b3e9fb","b3e9fb","b3e9fb","b3e9fb","b3e9fb","b3e9fb","b3e9fb","b3e9fb","b3e9fb","b3e9fb","b3e9fb","b3e9fb","0a0c08","0a0c08","2a2625","2a2625","bf2b2c","fe6346","fe6346","0a0c08","b3e9fb","b3e9fb","b3e9fb","0a0c08","5c3837","5c3837","5c3837","0a0c08","bf2b2c","fe6346","bf2b2c","5c3837","5c3837","0a0c08","b3e9fb","b3e9fb","b3e9fb","b3e9fb","b3e9fb","b3e9fb","b3e9fb","b3e9fb","b3e9fb","b3e9fb","b3e9fb","b3e9fb","b3e9fb","b3e9fb","b3e9fb","b3e9fb","b3e9fb","b3e9fb","b3e9fb","b3e9fb","0a0c08","fe6346","bf2b2c","0a0c08","0a0c08","b3e9fb","b3e9fb","b3e9fb","b3e9fb","b3e9fb","b3e9fb","b3e9fb","b3e9fb","b3e9fb","b3e9fb","b3e9fb","b3e9fb","b3e9fb","b3e9fb"],
    ["b3e9fb","b3e9fb","b3e9fb","b3e9fb","b3e9fb","b3e9fb","b3e9fb","b3e9fb","b3e9fb","b3e9fb","b3e9fb","b3e9fb","b3e9fb","b3e9fb","0a0c08","0a0c08","2a2625","2a2625","2a2625","bf2b2c","bf2b2c","fe6346","bf2b2c","0a0c08","b3e9fb","b3e9fb","0a0c08","5c3837","5c3837","0a0c08","0a0c08","0a0c08","bf2b2c","fe6346","5c3837","5c3837","5c3837","0a0c08","b3e9fb","b3e9fb","b3e9fb","b3e9fb","b3e9fb","b3e9fb","b3e9fb","b3e9fb","b3e9fb","b3e9fb","b3e9fb","b3e9fb","b3e9fb","b3e9fb","b3e9fb","b3e9fb","b3e9fb","b3e9fb","b3e9fb","0a0c08","fe6346","fe6346","0a0c08","0a0c08","b3e9fb","b3e9fb","b3e9fb","b3e9fb","b3e9fb","b3e9fb","b3e9fb","b3e9fb","b3e9fb","b3e9fb","b3e9fb","b3e9fb","b3e9fb","b3e9fb"],
    ["b3e9fb","b3e9fb","b3e9fb","b3e9fb","b3e9fb","b3e9fb","b3e9fb","b3e9fb","b3e9fb","b3e9fb","b3e9fb","b3e9fb","b3e9fb","b3e9fb","0a0c08","0a0c08","2a2625","2a2625","2a2625","2a2625","bf2b2c","fe6346","bf2b2c","0a0c08","b3e9fb","b3e9fb","b3e9fb","0a0c08","5c3837","5c3837","0a0c08","0a0c08","bf2b2c","bf2b2c","5c3837","5c3837","5c3837","0a0c08","b3e9fb","b3e9fb","b3e9fb","b3e9fb","b3e9fb","b3e9fb","b3e9fb","b3e9fb","b3e9fb","b3e9fb","b3e9fb","b3e9fb","b3e9fb","b3e9fb","b3e9fb","b3e9fb","b3e9fb","b3e9fb","b3e9fb","0a0c08","fe6346","fe6346","0a0c08","0a0c08","0a0c08","b3e9fb","b3e9fb","b3e9fb","b3e9fb","b3e9fb","b3e9fb","b3e9fb","b3e9fb","b3e9fb","b3e9fb","b3e9fb","b3e9fb","b3e9fb"],
    ["b3e9fb","b3e9fb","b3e9fb","b3e9fb","b3e9fb","b3e9fb","b3e9fb","b3e9fb","b3e9fb","b3e9fb","b3e9fb","b3e9fb","b3e9fb","b3e9fb","0a0c08","0a0c08","2a2625","2a2625","2a2625","2a2625","2a2625","fe6346","fe6346","bf2b2c","0a0c08","b3e9fb","b3e9fb","0a0c08","5c3837","5c3837","5c3837","0a0c08","0a0c08","5c3837","5c3837","5c3837","5c3837","5c3837","0a0c08","b3e9fb","b3e9fb","b3e9fb","b3e9fb","b3e9fb","b3e9fb","b3e9fb","b3e9fb","b3e9fb","b3e9fb","b3e9fb","b3e9fb","b3e9fb","b3e9fb","b3e9fb","b3e9fb","b3e9fb","b3e9fb","0a0c08","fe6346","fe6346","0a0c08","0a0c08","0a0c08","b3e9fb","b3e9fb","b3e9fb","b3e9fb","b3e9fb","b3e9fb","b3e9fb","b3e9fb","b3e9fb","b3e9fb","b3e9fb","b3e9fb","b3e9fb"],
    ["b3e9fb","b3e9fb","b3e9fb","b3e9fb","b3e9fb","b3e9fb","b3e9fb","b3e9fb","b3e9fb","b3e9fb","b3e9fb","b3e9fb","b3e9fb","0a0c08","0a0c08","0a0c08","2a2625","2a2625","2a2625","2a2625","2a2625","bf2b2c","fe6346","fe6346","0a0c08","b3e9fb","b3e9fb","0a0c08","0a0c08","5c3837","5c3837","0a0c08","0a0c08","5c3837","0a0c08","0a0c08","5c3837","5c3837","0a0c08","b3e9fb","b3e9fb","b3e9fb","b3e9fb","b3e9fb","b3e9fb","b3e9fb","b3e9fb","b3e9fb","b3e9fb","b3e9fb","b3e9fb","b3e9fb","b3e9fb","b3e9fb","b3e9fb","b3e9fb","0a0c08","fe6346","fe6346","fe6346","0a0c08","0a0c08","0a0c08","b3e9fb","b3e9fb","b3e9fb","b3e9fb","b3e9fb","b3e9fb","b3e9fb","b3e9fb","b3e9fb","b3e9fb","b3e9fb","b3e9fb","b3e9fb"],
    ["b3e9fb","b3e9fb","b3e9fb","b3e9fb","b3e9fb","b3e9fb","b3e9fb","b3e9fb","b3e9fb","b3e9fb","b3e9fb","b3e9fb","b3e9fb","0a0c08","0a0c08","2a2625","2a2625","5c3837","5c3837","2a2625","2a2625","bf2b2c","fe6346","fe6346","fe6346","0a0c08","b3e9fb","b3e9fb","0a0c08","5c3837","5c3837","0a0c08","0a0c08","5c3837","0a0c08","0a0c08","0a0c08","0a0c08","5c3837","0a0c08","b3e9fb","b3e9fb","b3e9fb","b3e9fb","b3e9fb","b3e9fb","b3e9fb","b3e9fb","b3e9fb","b3e9fb","b3e9fb","b3e9fb","b3e9fb","b3e9fb","b3e9fb","b3e9fb","0a0c08","fe6346","fe6346","2a2625","0a0c08","0a0c08","0a0c08","b3e9fb","b3e9fb","b3e9fb","b3e9fb","b3e9fb","b3e9fb","b3e9fb","b3e9fb","b3e9fb","b3e9fb","b3e9fb","b3e9fb","b3e9fb"],
    ["b3e9fb","b3e9fb","b3e9fb","b3e9fb","b3e9fb","b3e9fb","b3e9fb","b3e9fb","b3e9fb","b3e9fb","b3e9fb","b3e9fb","b3e9fb","0a0c08","0a0c08","2a2625","2a2625","5c3837","5c3837","2a2625","2a2625","2a2625","bf2b2c","fe6346","fe6346","fe6346","0a0c08","b3e9fb","0a0c08","0a0c08","5c3837","0a0c08","0a0c08","0a0c08","0a0c08","5c3837","5c3837","0a0c08","5c3837","5c3837","0a0c08","0a0c08","b3e9fb","b3e9fb","b3e9fb","b3e9fb","b3e9fb","b3e9fb","b3e9fb","b3e9fb","b3e9fb","b3e9fb","b3e9fb","b3e9fb","b3e9fb","0a0c08","fe6346","fe6346","fe6346","2a2625","0a0c08","0a0c08","0a0c08","b3e9fb","b3e9fb","b3e9fb","b3e9fb","b3e9fb","b3e9fb","b3e9fb","b3e9fb","b3e9fb","b3e9fb","b3e9fb","b3e9fb","b3e9fb"],
    ["b3e9fb","b3e9fb","b3e9fb","b3e9fb","b3e9fb","b3e9fb","b3e9fb","b3e9fb","b3e9fb","b3e9fb","b3e9fb","b3e9fb","0a0c08","2a2625","0a0c08","2a2625","2a2625","5c3837","5c3837","2a2625","2a2625","2a2625","bf2b2c","bf2b2c","fe6346","fe6346","fe6346","0a0c08","0a0c08","0a0c08","0a0c08","0a0c08","0a0c08","0a0c08","5c3837","5c3837","5c3837","0a0c08","0a0c08","0a0c08","5c3837","0a0c08","0a0c08","b3e9fb","b3e9fb","b3e9fb","b3e9fb","b3e9fb","b3e9fb","b3e9fb","b3e9fb","b3e9fb","b3e9fb","b3e9fb","b3e9fb","0a0c08","fe6346","fe6346","5c3837","2a2625","0a0c08","0a0c08","0a0c08","b3e9fb","b3e9fb","b3e9fb","b3e9fb","b3e9fb","b3e9fb","b3e9fb","b3e9fb","b3e9fb","b3e9fb","b3e9fb","b3e9fb","b3e9fb"],
    ["b3e9fb","b3e9fb","b3e9fb","b3e9fb","b3e9fb","b3e9fb","b3e9fb","b3e9fb","b3e9fb","b3e9fb","b3e9fb","b3e9fb","0a0c08","2a2625","0a0c08","2a2625","2a2625","5c3837","5c3837","2a2625","2a2625","2a2625","2a2625","bf2b2c","bf2b2c","fe6346","fe6346","fe6346","0a0c08","0a0c08","0a0c08","0a0c08","0a0c08","0a0c08","5c3837","0a0c08","0a0c08","0a0c08","0a0c08","5c3837","0a0c08","0a0c08","0a0c08","b3e9fb","b3e9fb","b3e9fb","b3e9fb","b3e9fb","b3e9fb","b3e9fb","b3e9fb","b3e9fb","b3e9fb","b3e9fb","0a0c08","fe6346","fe6346","5c3837","5c3837","0a0c08","2a2625","0a0c08","0a0c08","b3e9fb","b3e9fb","b3e9fb","b3e9fb","b3e9fb","b3e9fb","b3e9fb","b3e9fb","b3e9fb","b3e9fb","b3e9fb","b3e9fb","b3e9fb"],
    ["b3e9fb","b3e9fb","b3e9fb","b3e9fb","b3e9fb","b3e9fb","b3e9fb","b3e9fb","b3e9fb","b3e9fb","b3e9fb","b3e9fb","0a0c08","0a0c08","2a2625","2a2625","2a2625","5c3837","2a2625","5c3837","2a2625","2a2625","2a2625","5c3837","bf2b2c","bf2b2c","bf2b2c","bf2b2c","bf2b2c","0a0c08","0a0c08","0a0c08","0a0c08","0a0c08","0a0c08","0a0c08","0a0c08","5c3837","5c3837","0a0c08","5c3837","5c3837","5c3837","0a0c08","0a0c08","b3e9fb","b3e9fb","b3e9fb","b3e9fb","b3e9fb","b3e9fb","b3e9fb","b3e9fb","0a0c08","fe6346","fe6346","fe6346","5c3837","2a2625","0a0c08","2a2625","0a0c08","0a0c08","b3e9fb","b3e9fb","b3e9fb","b3e9fb","b3e9fb","b3e9fb","b3e9fb","b3e9fb","b3e9fb","b3e9fb","b3e9fb","b3e9fb","b3e9fb"],
    ["b3e9fb","b3e9fb","b3e9fb","b3e9fb","b3e9fb","b3e9fb","b3e9fb","b3e9fb","b3e9fb","b3e9fb","b3e9fb","0a0c08","0a0c08","0a0c08","2a2625","2a2625","2a2625","2a2625","2a2625","5c3837","2a2625","2a2625","2a2625","2a2625","5c3837","bf2b2c","bf2b2c","bf2b2c","bf2b2c","bf2b2c","5c3837","0a0c08","0a0c08","0a0c08","0a0c08","5c3837","5c3837","5c3837","5c3837","0a0c08","5c3837","5c3837","0a0c08","0a0c08","0a0c08","0a0c08","b3e9fb","b3e9fb","b3e9fb","b3e9fb","b3e9fb","b3e9fb","0a0c08","fe6346","fe6346","fe6346","5c3837","5c3837","2a2625","0a0c08","2a2625","0a0c08","0a0c08","0a0c08","b3e9fb","b3e9fb","b3e9fb","b3e9fb","b3e9fb","b3e9fb","b3e9fb","b3e9fb","b3e9fb","b3e9fb","b3e9fb","b3e9fb"],
    ["b3e9fb","b3e9fb","b3e9fb","b3e9fb","b3e9fb","b3e9fb","b3e9fb","b3e9fb","b3e9fb","b3e9fb","b3e9fb","0a0c08","2a2625","0a0c08","2a2625","2a2625","2a2625","2a2625","2a2625","5c3837","2a2625","2a2625","2a2625","0a0c08","2a2625","5c3837","bf2b2c","5c3837","5c3837","5c3837","bf2b2c","bf2b2c","5c3837","0a0c08","0a0c08","5c3837","5c3837","0a0c08","0a0c08","0a0c08","5c3837","5c3837","0a0c08","0a0c08","0a0c08","0a0c08","0a0c08","b3e9fb","b3e9fb","b3e9fb","b3e9fb","0a0c08","fe6346","fe6346","fe6346","0a0c08","5c3837","5c3837","0a0c08","2a2625","0a0c08","0a0c08","0a0c08","0a0c08","b3e9fb","b3e9fb","b3e9fb","b3e9fb","b3e9fb","b3e9fb","b3e9fb","b3e9fb","b3e9fb","b3e9fb","b3e9fb","b3e9fb"],
    ["b3e9fb","b3e9fb","b3e9fb","b3e9fb","b3e9fb","b3e9fb","b3e9fb","b3e9fb","b3e9fb","b3e9fb","b3e9fb","0a0c08","2a2625","2a2625","2a2625","2a2625","2a2625","2a2625","2a2625","5c3837","2a2625","2a2625","2a2625","0a0c08","0a0c08","2a2625","bf2b2c","bf2b2c","5c3837","5c3837","5c3837","5c3837","5c3837","5c3837","5c3837","0a0c08","0a0c08","0a0c08","5c3837","5c3837","5c3837","0a0c08","0a0c08","fe6346","0a0c08","0a0c08","0a0c08","0a0c08","b3e9fb","b3e9fb","0a0c08","2a2625","fe6346","fe6346","0a0c08","5c3837","5c3837","5c3837","0a0c08","2a2625","0a0c08","0a0c08","0a0c08","0a0c08","b3e9fb","b3e9fb","b3e9fb","b3e9fb","b3e9fb","b3e9fb","b3e9fb","b3e9fb","b3e9fb","b3e9fb","b3e9fb","b3e9fb"],
    ["b3e9fb","b3e9fb","b3e9fb","b3e9fb","b3e9fb","b3e9fb","b3e9fb","b3e9fb","b3e9fb","b3e9fb","0a0c08","0a0c08","2a2625","2a2625","2a2625","2a2625","2a2625","2a2625","2a2625","5c3837","2a2625","2a2625","2a2625","2a2625","0a0c08","0a0c08","5c3837","bf2b2c","5c3837","5c3837","5c3837","5c3837","5c3837","5c3837","bf2b2c","bf2b2c","bf2b2c","0a0c08","5c3837","5c3837","5c3837","0a0c08","fe6346","fe6346","0a0c08","0a0c08","0a0c08","0a0c08","0a0c08","0a0c08","0a0c08","2a2625","fe6346","fe6346","0a0c08","5c3837","5c3837","0a0c08","0a0c08","2a2625","0a0c08","0a0c08","0a0c08","0a0c08","b3e9fb","b3e9fb","b3e9fb","b3e9fb","b3e9fb","b3e9fb","b3e9fb","b3e9fb","b3e9fb","b3e9fb","b3e9fb","b3e9fb"],
    ["b3e9fb","b3e9fb","b3e9fb","b3e9fb","b3e9fb","b3e9fb","b3e9fb","b3e9fb","b3e9fb","b3e9fb","0a0c08","2a2625","2a2625","2a2625","2a2625","2a2625","2a2625","2a2625","0a0c08","5c3837","2a2625","2a2625","2a2625","2a2625","0a0c08","0a0c08","0a0c08","2a2625","5c3837","5c3837","5c3837","5c3837","5c3837","bf2b2c","bf2b2c","bf2b2c","bf2b2c","bf2b2c","0a0c08","0a0c08","0a0c08","fe6346","fe6346","fe6346","bf2b2c","fe6346","bf2b2c","0a0c08","0a0c08","0a0c08","0a0c08","2a2625","fe6346","5c3837","0a0c08","5c3837","0a0c08","0a0c08","0a0c08","2a2625","0a0c08","0a0c08","0a0c08","0a0c08","b3e9fb","b3e9fb","b3e9fb","b3e9fb","b3e9fb","b3e9fb","b3e9fb","b3e9fb","b3e9fb","b3e9fb","b3e9fb","b3e9fb"],
    ["b3e9fb","b3e9fb","b3e9fb","b3e9fb","b3e9fb","b3e9fb","b3e9fb","b3e9fb","b3e9fb","b3e9fb","0a0c08","5c3837","2a2625","2a2625","2a2625","2a2625","2a2625","2a2625","0a0c08","5c3837","2a2625","2a2625","2a2625","2a2625","2a2625","0a0c08","0a0c08","0a0c08","2a2625","5c3837","5c3837","5c3837","0a0c08","0a0c08","bf2b2c","bf2b2c","bf2b2c","fe6346","bf2b2c","bf2b2c","fe6346","bf2b2c","bf2b2c","bf2b2c","bf2b2c","fe6346","bf2b2c","fe6346","fe6346","0a0c08","0a0c08","0a0c08","5c3837","5c3837","0a0c08","0a0c08","0a0c08","0a0c08","0a0c08","2a2625","0a0c08","0a0c08","0a0c08","0a0c08","b3e9fb","b3e9fb","b3e9fb","b3e9fb","b3e9fb","b3e9fb","b3e9fb","b3e9fb","b3e9fb","b3e9fb","b3e9fb","b3e9fb"],
    ["b3e9fb","b3e9fb","b3e9fb","b3e9fb","b3e9fb","b3e9fb","b3e9fb","b3e9fb","b3e9fb","0a0c08","0a0c08","5c3837","2a2625","5c3837","2a2625","2a2625","5c3837","0a0c08","0a0c08","5c3837","2a2625","2a2625","2a2625","2a2625","2a2625","0a0c08","0a0c08","0a0c08","0a0c08","2a2625","5c3837","5c3837","0a0c08","0a0c08","5c3837","bf2b2c","bf2b2c","fe6346","bf2b2c","bf2b2c","fe6346","fe6346","bf2b2c","bf2b2c","bf2b2c","bf2b2c","bf2b2c","fe6346","fe6346","0a0c08","0a0c08","0a0c08","0a0c08","5c3837","5c3837","0a0c08","0a0c08","0a0c08","2a2625","2a2625","0a0c08","0a0c08","0a0c08","0a0c08","b3e9fb","b3e9fb","b3e9fb","b3e9fb","b3e9fb","b3e9fb","b3e9fb","b3e9fb","b3e9fb","b3e9fb","b3e9fb","b3e9fb"],
    ["b3e9fb","b3e9fb","b3e9fb","b3e9fb","b3e9fb","b3e9fb","b3e9fb","b3e9fb","b3e9fb","0a0c08","5c3837","5c3837","2a2625","5c3837","2a2625","2a2625","5c3837","0a0c08","0a0c08","5c3837","5c3837","2a2625","2a2625","2a2625","2a2625","2a2625","0a0c08","0a0c08","0a0c08","0a0c08","0a0c08","2a2625","2a2625","0a0c08","2a2625","5c3837","5c3837","bf2b2c","bf2b2c","bf2b2c","bf2b2c","bf2b2c","bf2b2c","fe6346","bf2b2c","bf2b2c","bf2b2c","fe6346","fe6346","0a0c08","0a0c08","0a0c08","0a0c08","0a0c08","5c3837","0a0c08","0a0c08","0a0c08","2a2625","0a0c08","0a0c08","0a0c08","0a0c08","0a0c08","b3e9fb","b3e9fb","b3e9fb","b3e9fb","b3e9fb","b3e9fb","b3e9fb","b3e9fb","b3e9fb","b3e9fb","b3e9fb","b3e9fb"],
    ["b3e9fb","b3e9fb","b3e9fb","b3e9fb","b3e9fb","b3e9fb","b3e9fb","b3e9fb","b3e9fb","0a0c08","5c3837","5c3837","5c3837","5c3837","2a2625","2a2625","5c3837","0a0c08","0a0c08","5c3837","5c3837","2a2625","2a2625","2a2625","2a2625","2a2625","0a0c08","0a0c08","0a0c08","0a0c08","0a0c08","0a0c08","0a0c08","0a0c08","2a2625","5c3837","5c3837","bf2b2c","bf2b2c","bf2b2c","fe6346","bf2b2c","bf2b2c","fe6346","fe6346","bf2b2c","bf2b2c","bf2b2c","fe6346","bf2b2c","fe6346","0a0c08","0a0c08","0a0c08","0a0c08","0a0c08","0a0c08","0a0c08","0a0c08","0a0c08","0a0c08","0a0c08","0a0c08","0a0c08","b3e9fb","b3e9fb","b3e9fb","b3e9fb","b3e9fb","b3e9fb","b3e9fb","b3e9fb","b3e9fb","b3e9fb","b3e9fb","b3e9fb"],
    ["b3e9fb","b3e9fb","b3e9fb","b3e9fb","b3e9fb","b3e9fb","b3e9fb","b3e9fb","0a0c08","0a0c08","976c65","5c3837","5c3837","5c3837","2a2625","2a2625","5c3837","0a0c08","0a0c08","5c3837","5c3837","2a2625","2a2625","2a2625","2a2625","2a2625","2a2625","0a0c08","0a0c08","0a0c08","0a0c08","0a0c08","0a0c08","2a2625","5c3837","5c3837","bf2b2c","0a0c08","bf2b2c","bf2b2c","bf2b2c","bf2b2c","bf2b2c","bf2b2c","bf2b2c","bf2b2c","bf2b2c","bf2b2c","bf2b2c","bf2b2c","fe6346","fe6346","0a0c08","0a0c08","0a0c08","0a0c08","0a0c08","0a0c08","0a0c08","0a0c08","0a0c08","0a0c08","0a0c08","0a0c08","b3e9fb","b3e9fb","b3e9fb","b3e9fb","b3e9fb","b3e9fb","b3e9fb","b3e9fb","b3e9fb","b3e9fb","b3e9fb","b3e9fb"],
    ["b3e9fb","b3e9fb","b3e9fb","b3e9fb","b3e9fb","b3e9fb","b3e9fb","b3e9fb","0a0c08","5c3837","976c65","5c3837","976c65","5c3837","2a2625","5c3837","5c3837","0a0c08","0a0c08","5c3837","5c3837","2a2625","5c3837","2a2625","5c3837","2a2625","2a2625","0a0c08","0a0c08","0a0c08","0a0c08","0a0c08","0a0c08","2a2625","5c3837","2a2625","0a0c08","0a0c08","bf2b2c","bf2b2c","bf2b2c","bf2b2c","bf2b2c","bf2b2c","bf2b2c","fe6346","fe6346","bf2b2c","bf2b2c","bf2b2c","bf2b2c","fe6346","0a0c08","0a0c08","0a0c08","0a0c08","0a0c08","0a0c08","0a0c08","0a0c08","0a0c08","0a0c08","0a0c08","0a0c08","b3e9fb","b3e9fb","b3e9fb","b3e9fb","b3e9fb","b3e9fb","b3e9fb","b3e9fb","b3e9fb","b3e9fb","b3e9fb","b3e9fb"],
    ["b3e9fb","b3e9fb","b3e9fb","b3e9fb","b3e9fb","b3e9fb","b3e9fb","b3e9fb","0a0c08","976c65","5c3837","5c3837","976c65","2a2625","2a2625","2a2625","5c3837","0a0c08","0a0c08","5c3837","5c3837","2a2625","5c3837","2a2625","5c3837","5c3837","2a2625","2a2625","0a0c08","0a0c08","0a0c08","0a0c08","0a0c08","0a0c08","2a2625","bf2b2c","bf2b2c","0a0c08","0a0c08","bf2b2c","bf2b2c","bf2b2c","fe6346","fe6346","bf2b2c","fe6346","fe6346","bf2b2c","bf2b2c","bf2b2c","bf2b2c","fe6346","5c3837","0a0c08","0a0c08","0a0c08","0a0c08","0a0c08","0a0c08","0a0c08","0a0c08","0a0c08","0a0c08","0a0c08","b3e9fb","b3e9fb","b3e9fb","b3e9fb","b3e9fb","b3e9fb","b3e9fb","b3e9fb","b3e9fb","b3e9fb","b3e9fb","b3e9fb"],
    ["b3e9fb","b3e9fb","b3e9fb","b3e9fb","b3e9fb","b3e9fb","b3e9fb","0a0c08","0a0c08","976c65","5c3837","5c3837","976c65","2a2625","2a2625","5c3837","5c3837","0a0c08","0a0c08","5c3837","5c3837","2a2625","5c3837","2a2625","2a2625","5c3837","2a2625","2a2625","2a2625","0a0c08","0a0c08","0a0c08","0a0c08","0a0c08","0a0c08","5c3837","fe6346","fe6346","0a0c08","0a0c08","bf2b2c","bf2b2c","fe6346","fe6346","bf2b2c","bf2b2c","bf2b2c","bf2b2c","bf2b2c","bf2b2c","fe6346","fe6346","5c3837","5c3837","0a0c08","0a0c08","0a0c08","0a0c08","0a0c08","0a0c08","0a0c08","0a0c08","0a0c08","0a0c08","0a0c08","0a0c08","b3e9fb","b3e9fb","b3e9fb","b3e9fb","b3e9fb","b3e9fb","b3e9fb","b3e9fb","b3e9fb","b3e9fb"],
    ["b3e9fb","b3e9fb","b3e9fb","b3e9fb","b3e9fb","b3e9fb","b3e9fb","0a0c08","5c3837","976c65","5c3837","976c65","976c65","2a2625","2a2625","5c3837","5c3837","0a0c08","0a0c08","2a2625","5c3837","2a2625","2a2625","2a2625","2a2625","5c3837","5c3837","2a2625","5c3837","2a2625","0a0c08","0a0c08","0a0c08","2a2625","2a2625","0a0c08","bf2b2c","fe6346","fe6346","0a0c08","0a0c08","bf2b2c","bf2b2c","bf2b2c","bf2b2c","fe6346","bf2b2c","fe6346","bf2b2c","bf2b2c","bf2b2c","fe6346","bf2b2c","5c3837","5c3837","0a0c08","0a0c08","0a0c08","0a0c08","0a0c08","0a0c08","0a0c08","0a0c08","5c3837","5c3837","5c3837","5c3837","b3e9fb","b3e9fb","b3e9fb","b3e9fb","b3e9fb","b3e9fb","b3e9fb","b3e9fb","b3e9fb"],
    ["b3e9fb","b3e9fb","b3e9fb","b3e9fb","b3e9fb","b3e9fb","b3e9fb","0a0c08","976c65","5c3837","5c3837","976c65","976c65","2a2625","2a2625","5c3837","5c3837","0a0c08","0a0c08","5c3837","5c3837","5c3837","2a2625","5c3837","0a0c08","5c3837","5c3837","5c3837","5c3837","5c3837","0a0c08","0a0c08","0a0c08","2a2625","2a2625","5c3837","0a0c08","fe6346","fe6346","fe6346","0a0c08","fe6346","fe6346","bf2b2c","fe6346","fe6346","fe6346","fe6346","0a0c08","0a0c08","0a0c08","0a0c08","bf2b2c","bf2b2c","5c3837","5c3837","5c3837","0a0c08","5c3837","5c3837","0a0c08","0a0c08","0a0c08","976c65","976c65","976c65","5c3837","0a0c08","b3e9fb","b3e9fb","b3e9fb","b3e9fb","b3e9fb","b3e9fb","b3e9fb","b3e9fb"],
    ["b3e9fb","b3e9fb","b3e9fb","b3e9fb","b3e9fb","b3e9fb","0a0c08","0a0c08","5c3837","5c3837","5c3837","976c65","5c3837","2a2625","2a2625","5c3837","5c3837","0a0c08","2a2625","5c3837","5c3837","5c3837","2a2625","5c3837","0a0c08","0a0c08","5c3837","5c3837","5c3837","5c3837","0a0c08","0a0c08","0a0c08","0a0c08","5c3837","5c3837","0a0c08","bf2b2c","fe6346","fe6346","0a0c08","fe6346","fe6346","bf2b2c","fe6346","fe6346","fe6346","0a0c08","976c65","976c65","976c65","0a0c08","0a0c08","bf2b2c","bf2b2c","5c3837","5c3837","5c3837","5c3837","bf2b2c","0a0c08","bf2b2c","0a0c08","976c65","976c65","0a0c08","0a0c08","0a0c08","b3e9fb","b3e9fb","b3e9fb","b3e9fb","b3e9fb","b3e9fb","b3e9fb","b3e9fb"],
    ["b3e9fb","b3e9fb","b3e9fb","b3e9fb","b3e9fb","b3e9fb","0a0c08","5c3837","5c3837","5c3837","5c3837","976c65","5c3837","2a2625","2a2625","976c65","0a0c08","0a0c08","2a2625","2a2625","5c3837","5c3837","5c3837","5c3837","0a0c08","0a0c08","5c3837","976c65","976c65","0a0c08","0a0c08","2a2625","5c3837","5c3837","0a0c08","0a0c08","bf2b2c","bf2b2c","fe6346","fe6346","fe6346","fe6346","fe6346","fe6346","bf2b2c","fe6346","0a0c08","976c65","976c65","976c65","976c65","976c65","0a0c08","bf2b2c","bf2b2c","bf2b2c","bf2b2c","bf2b2c","bf2b2c","bf2b2c","0a0c08","bf2b2c","0a0c08","5c3837","5c3837","0a0c08","0a0c08","b3e9fb","b3e9fb","b3e9fb","b3e9fb","b3e9fb","b3e9fb","b3e9fb","b3e9fb","b3e9fb"],
    ["b3e9fb","b3e9fb","b3e9fb","b3e9fb","b3e9fb","b3e9fb","0a0c08","5c3837","5c3837","0a0c08","5c3837","976c65","2a2625","2a2625","5c3837","976c65","0a0c08","0a0c08","2a2625","2a2625","976c65","976c65","5c3837","5c3837","5c3837","5c3837","0a0c08","976c65","976c65","0a0c08","0a0c08","2a2625","5c3837","5c3837","0a0c08","bf2b2c","bf2b2c","bf2b2c","fe6346","bf2b2c","bf2b2c","fe6346","fe6346","fe6346","fe6346","bf2b2c","0a0c08","976c65","0a0c08","0a0c08","5c3837","976c65","0a0c08","bf2b2c","bf2b2c","bf2b2c","bf2b2c","bf2b2c","bf2b2c","0a0c08","0a0c08","bf2b2c","bf2b2c","0a0c08","5c3837","5c3837","0a0c08","0a0c08","b3e9fb","b3e9fb","b3e9fb","b3e9fb","b3e9fb","b3e9fb","b3e9fb","b3e9fb"],
    ["b3e9fb","b3e9fb","b3e9fb","b3e9fb","b3e9fb","0a0c08","0a0c08","5c3837","0a0c08","0a0c08","976c65","976c65","2a2625","2a2625","5c3837","5c3837","0a0c08","0a0c08","2a2625","2a2625","976c65","976c65","5c3837","2a2625","5c3837","5c3837","0a0c08","0a0c08","976c65","0a0c08","0a0c08","0a0c08","0a0c08","0a0c08","0a0c08","bf2b2c","bf2b2c","fe6346","bf2b2c","bf2b2c","bf2b2c","fe6346","bf2b2c","fe6346","fe6346","bf2b2c","0a0c08","976c65","0a0c08","5c3837","5c3837","5c3837","0a0c08","bf2b2c","bf2b2c","bf2b2c","bf2b2c","bf2b2c","bf2b2c","0a0c08","0a0c08","bf2b2c","0a0c08","0a0c08","0a0c08","5c3837","5c3837","0a0c08","b3e9fb","b3e9fb","b3e9fb","b3e9fb","b3e9fb","b3e9fb","b3e9fb","b3e9fb"],
    ["b3e9fb","b3e9fb","b3e9fb","b3e9fb","b3e9fb","0a0c08","0a0c08","0a0c08","0a0c08","5c3837","976c65","976c65","2a2625","2a2625","5c3837","976c65","0a0c08","0a0c08","2a2625","2a2625","976c65","976c65","2a2625","2a2625","976c65","976c65","5c3837","0a0c08","0a0c08","0a0c08","0a0c08","0a0c08","0a0c08","bf2b2c","0a0c08","0a0c08","bf2b2c","bf2b2c","bf2b2c","fe6346","fe6346","bf2b2c","bf2b2c","bf2b2c","bf2b2c","5c3837","5c3837","5c3837","5c3837","5c3837","976c65","5c3837","0a0c08","0a0c08","0a0c08","0a0c08","0a0c08","0a0c08","0a0c08","0a0c08","0a0c08","0a0c08","5c3837","5c3837","0a0c08","0a0c08","5c3837","5c3837","0a0c08","b3e9fb","b3e9fb","b3e9fb","b3e9fb","b3e9fb","b3e9fb","b3e9fb"],
    ["b3e9fb","b3e9fb","b3e9fb","b3e9fb","0a0c08","0a0c08","0a0c08","0a0c08","0a0c08","5c3837","976c65","976c65","2a2625","2a2625","5c3837","976c65","0a0c08","0a0c08","0a0c08","2a2625","976c65","976c65","2a2625","2a2625","976c65","976c65","976c65","0a0c08","0a0c08","0a0c08","0a0c08","5c3837","0a0c08","0a0c08","bf2b2c","bf2b2c","bf2b2c","bf2b2c","bf2b2c","fe6346","fe6346","bf2b2c","bf2b2c","fe6346","bf2b2c","5c3837","5c3837","5c3837","0a0c08","5c3837","976c65","5c3837","0a0c08","0a0c08","976c65","976c65","5c3837","5c3837","0a0c08","0a0c08","0a0c08","5c3837","5c3837","5c3837","5c3837","0a0c08","5c3837","976c65","0a0c08","b3e9fb","b3e9fb","b3e9fb","b3e9fb","b3e9fb","b3e9fb","b3e9fb"],
    ["b3e9fb","b3e9fb","b3e9fb","b3e9fb","0a0c08","0a0c08","0a0c08","0a0c08","0a0c08","976c65","976c65","976c65","2a2625","2a2625","5c3837","976c65","0a0c08","0a0c08","2a2625","2a2625","5c3837","976c65","5c3837","2a2625","5c3837","976c65","976c65","0a0c08","0a0c08","0a0c08","0a0c08","5c3837","5c3837","0a0c08","bf2b2c","bf2b2c","bf2b2c","bf2b2c","bf2b2c","fe6346","bf2b2c","bf2b2c","fe6346","bf2b2c","bf2b2c","5c3837","5c3837","5c3837","0a0c08","976c65","976c65","0a0c08","0a0c08","976c65","976c65","5c3837","5c3837","5c3837","0a0c08","0a0c08","5c3837","5c3837","5c3837","5c3837","0a0c08","0a0c08","5c3837","976c65","0a0c08","b3e9fb","b3e9fb","b3e9fb","b3e9fb","b3e9fb","b3e9fb","b3e9fb"],
    ["b3e9fb","b3e9fb","b3e9fb","b3e9fb","0a0c08","b3e9fb","b3e9fb","0a0c08","5c3837","976c65","976c65","5c3837","0a0c08","2a2625","5c3837","976c65","0a0c08","0a0c08","0a0c08","2a2625","5c3837","976c65","5c3837","2a2625","5c3837","5c3837","976c65","0a0c08","0a0c08","0a0c08","0a0c08","5c3837","0a0c08","0a0c08","fe6346","bf2b2c","bf2b2c","fe6346","bf2b2c","bf2b2c","bf2b2c","bf2b2c","fe6346","bf2b2c","bf2b2c","5c3837","5c3837","0a0c08","976c65","976c65","5c3837","0a0c08","976c65","976c65","5c3837","5c3837","5c3837","976c65","5c3837","5c3837","5c3837","5c3837","5c3837","0a0c08","0a0c08","0a0c08","976c65","976c65","0a0c08","b3e9fb","b3e9fb","b3e9fb","b3e9fb","b3e9fb","b3e9fb","b3e9fb"],
    ["b3e9fb","b3e9fb","b3e9fb","b3e9fb","b3e9fb","b3e9fb","b3e9fb","0a0c08","5c3837","976c65","976c65","5c3837","0a0c08","0a0c08","976c65","976c65","0a0c08","0a0c08","0a0c08","0a0c08","5c3837","5c3837","5c3837","5c3837","0a0c08","0a0c08","0a0c08","0a0c08","0a0c08","0a0c08","0a0c08","0a0c08","0a0c08","fe6346","fe6346","fe6346","fe6346","bf2b2c","fe6346","bf2b2c","bf2b2c","0a0c08","bf2b2c","bf2b2c","5c3837","5c3837","0a0c08","976c65","976c65","976c65","5c3837","976c65","976c65","5c3837","5c3837","0a0c08","976c65","976c65","5c3837","5c3837","5c3837","5c3837","5c3837","5c3837","0a0c08","0a0c08","976c65","976c65","0a0c08","b3e9fb","b3e9fb","b3e9fb","b3e9fb","b3e9fb","b3e9fb","b3e9fb"],
    ["b3e9fb","b3e9fb","b3e9fb","b3e9fb","b3e9fb","b3e9fb","b3e9fb","0a0c08","976c65","976c65","0a0c08","0a0c08","0a0c08","0a0c08","976c65","5c3837","0a0c08","b3e9fb","b3e9fb","b3e9fb","0a0c08","5c3837","5c3837","0a0c08","0a0c08","0a0c08","fe6346","fe6346","0a0c08","0a0c08","0a0c08","0a0c08","0a0c08","fe6346","fe6346","fe6346","fe6346","bf2b2c","fe6346","fe6346","bf2b2c","0a0c08","5c3837","5c3837","5c3837","5c3837","0a0c08","976c65","976c65","976c65","976c65","976c65","0a0c08","0a0c08","0a0c08","0a0c08","0a0c08","0a0c08","5c3837","bf2b2c","bf2b2c","fe6346","fe6346","bf2b2c","bf2b2c","bf2b2c","976c65","2a2625","0a0c08","b3e9fb","b3e9fb","b3e9fb","b3e9fb","b3e9fb","b3e9fb","b3e9fb"],
    ["b3e9fb","b3e9fb","b3e9fb","b3e9fb","b3e9fb","b3e9fb","b3e9fb","0a0c08","0a0c08","0a0c08","b3e9fb","b3e9fb","b3e9fb","0a0c08","976c65","0a0c08","b3e9fb","b3e9fb","b3e9fb","b3e9fb","0a0c08","0a0c08","0a0c08","0a0c08","fe6346","fe6346","fe6346","fe6346","fe6346","0a0c08","0a0c08","0a0c08","fe6346","fe6346","fe6346","fe6346","bf2b2c","0a0c08","0a0c08","0a0c08","0a0c08","bf2b2c","bf2b2c","bf2b2c","5c3837","5c3837","0a0c08","976c65","976c65","976c65","976c65","0a0c08","976c65","976c65","976c65","976c65","5c3837","bf2b2c","bf2b2c","bf2b2c","bf2b2c","bf2b2c","bf2b2c","bf2b2c","bf2b2c","bf2b2c","976c65","2a2625","0a0c08","b3e9fb","b3e9fb","b3e9fb","b3e9fb","b3e9fb","b3e9fb","b3e9fb"],
    ["b3e9fb","b3e9fb","b3e9fb","b3e9fb","b3e9fb","b3e9fb","b3e9fb","0a0c08","0a0c08","b3e9fb","b3e9fb","b3e9fb","b3e9fb","0a0c08","0a0c08","b3e9fb","b3e9fb","b3e9fb","b3e9fb","b3e9fb","b3e9fb","b3e9fb","0a0c08","fe6346","fe6346","fe6346","0a0c08","0a0c08","fe6346","0a0c08","0a0c08","fe6346","fe6346","fe6346","fe6346","fe6346","fe6346","bf2b2c","bf2b2c","bf2b2c","0a0c08","0a0c08","5c3837","5c3837","0a0c08","0a0c08","0a0c08","0a0c08","0a0c08","0a0c08","0a0c08","976c65","976c65","976c65","976c65","976c65","976c65","bf2b2c","bf2b2c","bf2b2c","fe6346","fe6346","bf2b2c","bf2b2c","fe6346","bf2b2c","bf2b2c","2a2625","0a0c08","b3e9fb","b3e9fb","b3e9fb","b3e9fb","b3e9fb","b3e9fb","b3e9fb"],
    ["b3e9fb","b3e9fb","b3e9fb","b3e9fb","b3e9fb","b3e9fb","b3e9fb","b3e9fb","b3e9fb","b3e9fb","b3e9fb","b3e9fb","b3e9fb","b3e9fb","0a0c08","b3e9fb","b3e9fb","b3e9fb","b3e9fb","b3e9fb","b3e9fb","b3e9fb","0a0c08","0a0c08","fe6346","0a0c08","b3e9fb","b3e9fb","0a0c08","0a0c08","fe6346","fe6346","fe6346","fe6346","bf2b2c","fe6346","bf2b2c","bf2b2c","0a0c08","0a0c08","0a0c08","0a0c08","0a0c08","5c3837","0a0c08","0a0c08","0a0c08","0a0c08","0a0c08","0a0c08","976c65","976c65","976c65","976c65","976c65","976c65","976c65","fe6346","bf2b2c","bf2b2c","fe6346","fe6346","bf2b2c","fe6346","fe6346","bf2b2c","bf2b2c","2a2625","2a2625","2a2625","b3e9fb","b3e9fb","b3e9fb","b3e9fb","b3e9fb","b3e9fb"],
    ["b3e9fb","b3e9fb","b3e9fb","b3e9fb","b3e9fb","b3e9fb","b3e9fb","b3e9fb","b3e9fb","b3e9fb","b3e9fb","b3e9fb","b3e9fb","b3e9fb","b3e9fb","b3e9fb","b3e9fb","b3e9fb","b3e9fb","b3e9fb","b3e9fb","b3e9fb","b3e9fb","0a0c08","0a0c08","b3e9fb","b3e9fb","b3e9fb","b3e9fb","0a0c08","fe6346","fe6346","fe6346","fe6346","bf2b2c","bf2b2c","fe6346","0a0c08","0a0c08","0a0c08","0a0c08","0a0c08","5c3837","5c3837","5c3837","0a0c08","0a0c08","0a0c08","0a0c08","0a0c08","976c65","976c65","976c65","0a0c08","0a0c08","5c3837","5c3837","fe6346","fe6346","fe6346","bf2b2c","bf2b2c","bf2b2c","fe6346","bf2b2c","bf2b2c","bf2b2c","5c3837","5c3837","0a0c08","b3e9fb","b3e9fb","b3e9fb","b3e9fb","b3e9fb","b3e9fb"],
    ["b3e9fb","b3e9fb","b3e9fb","b3e9fb","b3e9fb","b3e9fb","b3e9fb","b3e9fb","b3e9fb","b3e9fb","b3e9fb","b3e9fb","b3e9fb","b3e9fb","b3e9fb","b3e9fb","b3e9fb","b3e9fb","b3e9fb","b3e9fb","b3e9fb","b3e9fb","b3e9fb","b3e9fb","b3e9fb","b3e9fb","b3e9fb","b3e9fb","b3e9fb","0a0c08","fe6346","fe6346","fe6346","bf2b2c","fe6346","fe6346","0a0c08","0a0c08","b3e9fb","0a0c08","0a0c08","0a0c08","5c3837","5c3837","5c3837","0a0c08","0a0c08","0a0c08","0a0c08","0a0c08","976c65","976c65","0a0c08","0a0c08","0a0c08","5c3837","5c3837","5c3837","fe6346","fe6346","bf2b2c","fe6346","bf2b2c","bf2b2c","bf2b2c","bf2b2c","bf2b2c","5c3837","0a0c08","0a0c08","b3e9fb","b3e9fb","b3e9fb","b3e9fb","b3e9fb","b3e9fb"],
    ["b3e9fb","b3e9fb","b3e9fb","b3e9fb","b3e9fb","b3e9fb","b3e9fb","b3e9fb","b3e9fb","b3e9fb","b3e9fb","b3e9fb","b3e9fb","b3e9fb","b3e9fb","b3e9fb","b3e9fb","b3e9fb","b3e9fb","b3e9fb","b3e9fb","b3e9fb","b3e9fb","b3e9fb","b3e9fb","b3e9fb","b3e9fb","b3e9fb","b3e9fb","0a0c08","0a0c08","fe6346","fe6346","bf2b2c","fe6346","0a0c08","0a0c08","b3e9fb","b3e9fb","b3e9fb","b3e9fb","0a0c08","0a0c08","0a0c08","5c3837","5c3837","0a0c08","0a0c08","0a0c08","0a0c08","976c65","976c65","0a0c08","0a0c08","0a0c08","0a0c08","5c3837","5c3837","0a0c08","0a0c08","bf2b2c","fe6346","fe6346","bf2b2c","bf2b2c","bf2b2c","fe6346","5c3837","5c3837","5c3837","b3e9fb","b3e9fb","b3e9fb","b3e9fb","b3e9fb","b3e9fb"],
    ["b3e9fb","b3e9fb","b3e9fb","b3e9fb","b3e9fb","b3e9fb","b3e9fb","b3e9fb","b3e9fb","b3e9fb","b3e9fb","b3e9fb","b3e9fb","b3e9fb","b3e9fb","b3e9fb","b3e9fb","b3e9fb","b3e9fb","b3e9fb","b3e9fb","b3e9fb","b3e9fb","b3e9fb","b3e9fb","b3e9fb","b3e9fb","b3e9fb","b3e9fb","0a0c08","0a0c08","fe6346","fe6346","bf2b2c","bf2b2c","0a0c08","b3e9fb","b3e9fb","b3e9fb","b3e9fb","b3e9fb","b3e9fb","b3e9fb","0a0c08","0a0c08","0a0c08","0a0c08","0a0c08","0a0c08","0a0c08","976c65","976c65","0a0c08","0a0c08","0a0c08","0a0c08","5c3837","0a0c08","b3e9fb","b3e9fb","0a0c08","0a0c08","bf2b2c","fe6346","fe6346","fe6346","fe6346","bf2b2c","5c3837","0a0c08","b3e9fb","b3e9fb","b3e9fb","b3e9fb","b3e9fb","b3e9fb"],
    ["b3e9fb","b3e9fb","b3e9fb","b3e9fb","b3e9fb","b3e9fb","b3e9fb","b3e9fb","b3e9fb","b3e9fb","b3e9fb","b3e9fb","b3e9fb","b3e9fb","b3e9fb","b3e9fb","b3e9fb","b3e9fb","b3e9fb","b3e9fb","b3e9fb","b3e9fb","b3e9fb","b3e9fb","b3e9fb","b3e9fb","b3e9fb","b3e9fb","b3e9fb","0a0c08","0a0c08","fe6346","fe6346","bf2b2c","bf2b2c","0a0c08","b3e9fb","b3e9fb","b3e9fb","b3e9fb","b3e9fb","b3e9fb","b3e9fb","b3e9fb","b3e9fb","b3e9fb","b3e9fb","b3e9fb","0a0c08","0a0c08","976c65","976c65","0a0c08","0a0c08","0a0c08","2a2625","bf2b2c","bf2b2c","0a0c08","0a0c08","0a0c08","0a0c08","0a0c08","bf2b2c","fe6346","fe6346","fe6346","bf2b2c","fe6346","0a0c08","0a0c08","b3e9fb","b3e9fb","b3e9fb","b3e9fb","b3e9fb"],
    ["b3e9fb","b3e9fb","b3e9fb","b3e9fb","b3e9fb","b3e9fb","b3e9fb","b3e9fb","b3e9fb","b3e9fb","b3e9fb","b3e9fb","b3e9fb","b3e9fb","b3e9fb","b3e9fb","b3e9fb","b3e9fb","b3e9fb","b3e9fb","b3e9fb","b3e9fb","b3e9fb","b3e9fb","b3e9fb","b3e9fb","b3e9fb","b3e9fb","b3e9fb","b3e9fb","0a0c08","fe6346","fe6346","bf2b2c","0a0c08","b3e9fb","b3e9fb","b3e9fb","b3e9fb","b3e9fb","b3e9fb","b3e9fb","b3e9fb","b3e9fb","b3e9fb","b3e9fb","b3e9fb","b3e9fb","b3e9fb","0a0c08","976c65","976c65","976c65","0a0c08","2a2625","2a2625","bf2b2c","bf2b2c","bf2b2c","bf2b2c","bf2b2c","bf2b2c","bf2b2c","bf2b2c","0a0c08","fe6346","fe6346","fe6346","fe6346","bf2b2c","0a0c08","0a0c08","b3e9fb","b3e9fb","b3e9fb","b3e9fb"],
    ["b3e9fb","b3e9fb","b3e9fb","b3e9fb","b3e9fb","b3e9fb","b3e9fb","b3e9fb","b3e9fb","b3e9fb","b3e9fb","b3e9fb","b3e9fb","b3e9fb","b3e9fb","b3e9fb","b3e9fb","b3e9fb","b3e9fb","b3e9fb","b3e9fb","b3e9fb","b3e9fb","b3e9fb","b3e9fb","b3e9fb","b3e9fb","b3e9fb","b3e9fb","b3e9fb","0a0c08","fe6346","fe6346","bf2b2c","0a0c08","b3e9fb","b3e9fb","b3e9fb","b3e9fb","b3e9fb","b3e9fb","b3e9fb","b3e9fb","b3e9fb","b3e9fb","b3e9fb","b3e9fb","b3e9fb","b3e9fb","0a0c08","0a0c08","976c65","976c65","0a0c08","2a2625","2a2625","2a2625","2a2625","2a2625","bf2b2c","bf2b2c","fe6346","fe6346","fe6346","0a0c08","0a0c08","fe6346","fe6346","fe6346","fe6346","0a0c08","0a0c08","b3e9fb","b3e9fb","b3e9fb","b3e9fb"],
    ["b3e9fb","b3e9fb","b3e9fb","b3e9fb","b3e9fb","b3e9fb","b3e9fb","b3e9fb","b3e9fb","b3e9fb","b3e9fb","b3e9fb","b3e9fb","b3e9fb","b3e9fb","b3e9fb","b3e9fb","b3e9fb","b3e9fb","b3e9fb","b3e9fb","b3e9fb","b3e9fb","b3e9fb","b3e9fb","b3e9fb","b3e9fb","b3e9fb","b3e9fb","b3e9fb","0a0c08","fe6346","fe6346","bf2b2c","0a0c08","b3e9fb","b3e9fb","b3e9fb","b3e9fb","b3e9fb","b3e9fb","b3e9fb","b3e9fb","b3e9fb","b3e9fb","b3e9fb","b3e9fb","b3e9fb","b3e9fb","b3e9fb","0a0c08","0a0c08","976c65","976c65","0a0c08","2a2625","2a2625","2a2625","2a2625","0a0c08","0a0c08","0a0c08","0a0c08","0a0c08","fe6346","fe6346","fe6346","fe6346","fe6346","fe6346","bf2b2c","0a0c08","b3e9fb","b3e9fb","b3e9fb","b3e9fb"],
    ["b3e9fb","b3e9fb","b3e9fb","b3e9fb","b3e9fb","b3e9fb","b3e9fb","b3e9fb","b3e9fb","b3e9fb","b3e9fb","b3e9fb","b3e9fb","b3e9fb","b3e9fb","b3e9fb","b3e9fb","b3e9fb","b3e9fb","b3e9fb","b3e9fb","b3e9fb","b3e9fb","b3e9fb","b3e9fb","b3e9fb","b3e9fb","b3e9fb","b3e9fb","b3e9fb","0a0c08","fe6346","fe6346","bf2b2c","bf2b2c","0a0c08","b3e9fb","b3e9fb","b3e9fb","b3e9fb","b3e9fb","b3e9fb","b3e9fb","b3e9fb","b3e9fb","b3e9fb","b3e9fb","b3e9fb","b3e9fb","b3e9fb","b3e9fb","b3e9fb","0a0c08","0a0c08","0a0c08","0a0c08","0a0c08","2a2625","2a2625","2a2625","0a0c08","0a0c08","0a0c08","0a0c08","0a0c08","5c3837","5c3837","5c3837","fe6346","fe6346","bf2b2c","0a0c08","b3e9fb","b3e9fb","b3e9fb","b3e9fb"],
    ["b3e9fb","b3e9fb","b3e9fb","b3e9fb","b3e9fb","b3e9fb","b3e9fb","b3e9fb","b3e9fb","b3e9fb","b3e9fb","b3e9fb","b3e9fb","b3e9fb","b3e9fb","b3e9fb","b3e9fb","b3e9fb","b3e9fb","b3e9fb","b3e9fb","b3e9fb","b3e9fb","b3e9fb","b3e9fb","b3e9fb","b3e9fb","b3e9fb","b3e9fb","0a0c08","fe6346","fe6346","fe6346","fe6346","bf2b2c","bf2b2c","0a0c08","b3e9fb","b3e9fb","b3e9fb","b3e9fb","b3e9fb","b3e9fb","b3e9fb","b3e9fb","b3e9fb","b3e9fb","b3e9fb","b3e9fb","b3e9fb","b3e9fb","b3e9fb","b3e9fb","b3e9fb","b3e9fb","b3e9fb","0a0c08","0a0c08","2a2625","2a2625","2a2625","5c3837","5c3837","5c3837","5c3837","5c3837","5c3837","5c3837","bf2b2c","bf2b2c","bf2b2c","0a0c08","b3e9fb","b3e9fb","b3e9fb","b3e9fb"],
    ["b3e9fb","b3e9fb","b3e9fb","b3e9fb","b3e9fb","b3e9fb","b3e9fb","b3e9fb","b3e9fb","b3e9fb","b3e9fb","b3e9fb","b3e9fb","b3e9fb","b3e9fb","b3e9fb","b3e9fb","b3e9fb","b3e9fb","b3e9fb","b3e9fb","b3e9fb","b3e9fb","b3e9fb","b3e9fb","b3e9fb","b3e9fb","b3e9fb","0a0c08","fe6346","fe6346","fe6346","fe6346","fe6346","fe6346","bf2b2c","bf2b2c","0a0c08","b3e9fb","b3e9fb","b3e9fb","b3e9fb","b3e9fb","b3e9fb","b3e9fb","b3e9fb","b3e9fb","b3e9fb","b3e9fb","b3e9fb","b3e9fb","b3e9fb","b3e9fb","b3e9fb","b3e9fb","b3e9fb","b3e9fb","b3e9fb","0a0c08","0a0c08","0a0c08","2a2625","2a2625","5c3837","bf2b2c","bf2b2c","bf2b2c","bf2b2c","0a0c08","0a0c08","0a0c08","0a0c08","b3e9fb","b3e9fb","b3e9fb","b3e9fb"],
    ["b3e9fb","b3e9fb","b3e9fb","b3e9fb","b3e9fb","b3e9fb","b3e9fb","b3e9fb","b3e9fb","b3e9fb","b3e9fb","b3e9fb","b3e9fb","b3e9fb","b3e9fb","b3e9fb","b3e9fb","b3e9fb","b3e9fb","b3e9fb","b3e9fb","b3e9fb","b3e9fb","b3e9fb","b3e9fb","b3e9fb","b3e9fb","b3e9fb","0a0c08","0a0c08","fe6346","fe6346","fe6346","0a0c08","0a0c08","bf2b2c","bf2b2c","0a0c08","b3e9fb","b3e9fb","b3e9fb","b3e9fb","b3e9fb","b3e9fb","b3e9fb","b3e9fb","b3e9fb","b3e9fb","b3e9fb","b3e9fb","b3e9fb","b3e9fb","b3e9fb","b3e9fb","b3e9fb","b3e9fb","b3e9fb","b3e9fb","b3e9fb","b3e9fb","b3e9fb","0a0c08","0a0c08","0a0c08","0a0c08","0a0c08","0a0c08","0a0c08","0a0c08","0a0c08","0a0c08","b3e9fb","b3e9fb","b3e9fb","b3e9fb","b3e9fb"],
    ["b3e9fb","b3e9fb","b3e9fb","b3e9fb","b3e9fb","b3e9fb","b3e9fb","b3e9fb","b3e9fb","b3e9fb","b3e9fb","b3e9fb","b3e9fb","b3e9fb","b3e9fb","b3e9fb","b3e9fb","b3e9fb","b3e9fb","b3e9fb","b3e9fb","b3e9fb","b3e9fb","b3e9fb","b3e9fb","b3e9fb","b3e9fb","b3e9fb","b3e9fb","b3e9fb","0a0c08","fe6346","0a0c08","b3e9fb","b3e9fb","b3e9fb","0a0c08","0a0c08","b3e9fb","b3e9fb","b3e9fb","b3e9fb","b3e9fb","b3e9fb","b3e9fb","b3e9fb","b3e9fb","b3e9fb","b3e9fb","b3e9fb","b3e9fb","b3e9fb","b3e9fb","b3e9fb","b3e9fb","b3e9fb","b3e9fb","b3e9fb","b3e9fb","b3e9fb","b3e9fb","b3e9fb","b3e9fb","b3e9fb","b3e9fb","b3e9fb","b3e9fb","b3e9fb","b3e9fb","b3e9fb","b3e9fb","b3e9fb","b3e9fb","b3e9fb","b3e9fb","b3e9fb"],
    ["b3e9fb","b3e9fb","b3e9fb","b3e9fb","b3e9fb","b3e9fb","b3e9fb","b3e9fb","b3e9fb","b3e9fb","b3e9fb","b3e9fb","b3e9fb","b3e9fb","b3e9fb","b3e9fb","b3e9fb","b3e9fb","b3e9fb","b3e9fb","b3e9fb","b3e9fb","b3e9fb","b3e9fb","b3e9fb","b3e9fb","b3e9fb","b3e9fb","b3e9fb","b3e9fb","0a0c08","0a0c08","b3e9fb","b3e9fb","b3e9fb","b3e9fb","b3e9fb","b3e9fb","b3e9fb","b3e9fb","b3e9fb","b3e9fb","b3e9fb","b3e9fb","b3e9fb","b3e9fb","b3e9fb","b3e9fb","b3e9fb","b3e9fb","b3e9fb","b3e9fb","b3e9fb","b3e9fb","b3e9fb","b3e9fb","b3e9fb","b3e9fb","b3e9fb","b3e9fb","b3e9fb","b3e9fb","b3e9fb","b3e9fb","b3e9fb","b3e9fb","b3e9fb","b3e9fb","b3e9fb","b3e9fb","b3e9fb","b3e9fb","b3e9fb","b3e9fb","b3e9fb","b3e9fb"],
    ["b3e9fb","b3e9fb","b3e9fb","b3e9fb","b3e9fb","b3e9fb","b3e9fb","b3e9fb","b3e9fb","b3e9fb","b3e9fb","b3e9fb","b3e9fb","b3e9fb","b3e9fb","b3e9fb","b3e9fb","b3e9fb","b3e9fb","b3e9fb","b3e9fb","b3e9fb","b3e9fb","b3e9fb","b3e9fb","b3e9fb","b3e9fb","b3e9fb","b3e9fb","b3e9fb","b3e9fb","b3e9fb","b3e9fb","b3e9fb","b3e9fb","b3e9fb","b3e9fb","b3e9fb","b3e9fb","b3e9fb","b3e9fb","b3e9fb","b3e9fb","b3e9fb","b3e9fb","b3e9fb","b3e9fb","b3e9fb","b3e9fb","b3e9fb","b3e9fb","b3e9fb","b3e9fb","b3e9fb","b3e9fb","b3e9fb","b3e9fb","b3e9fb","b3e9fb","b3e9fb","b3e9fb","b3e9fb","b3e9fb","b3e9fb","b3e9fb","b3e9fb","b3e9fb","b3e9fb","b3e9fb","b3e9fb","b3e9fb","b3e9fb","b3e9fb","b3e9fb","b3e9fb","b3e9fb"],
    ["b3e9fb","b3e9fb","b3e9fb","b3e9fb","b3e9fb","b3e9fb","b3e9fb","b3e9fb","b3e9fb","b3e9fb","b3e9fb","b3e9fb","b3e9fb","b3e9fb","b3e9fb","b3e9fb","b3e9fb","b3e9fb","b3e9fb","b3e9fb","b3e9fb","b3e9fb","b3e9fb","b3e9fb","b3e9fb","b3e9fb","b3e9fb","b3e9fb","b3e9fb","b3e9fb","b3e9fb","b3e9fb","b3e9fb","b3e9fb","b3e9fb","b3e9fb","b3e9fb","b3e9fb","b3e9fb","b3e9fb","b3e9fb","b3e9fb","b3e9fb","b3e9fb","b3e9fb","b3e9fb","b3e9fb","b3e9fb","b3e9fb","b3e9fb","b3e9fb","b3e9fb","b3e9fb","b3e9fb","b3e9fb","b3e9fb","b3e9fb","b3e9fb","b3e9fb","b3e9fb","b3e9fb","b3e9fb","b3e9fb","b3e9fb","b3e9fb","b3e9fb","b3e9fb","b3e9fb","b3e9fb","b3e9fb","b3e9fb","b3e9fb","b3e9fb","b3e9fb","b3e9fb","b3e9fb"],
    ["b3e9fb","b3e9fb","b3e9fb","b3e9fb","b3e9fb","b3e9fb","b3e9fb","b3e9fb","b3e9fb","b3e9fb","b3e9fb","b3e9fb","b3e9fb","b3e9fb","b3e9fb","b3e9fb","b3e9fb","b3e9fb","b3e9fb","b3e9fb","b3e9fb","b3e9fb","b3e9fb","b3e9fb","b3e9fb","b3e9fb","b3e9fb","b3e9fb","b3e9fb","b3e9fb","b3e9fb","b3e9fb","b3e9fb","b3e9fb","b3e9fb","b3e9fb","b3e9fb","b3e9fb","b3e9fb","b3e9fb","b3e9fb","b3e9fb","b3e9fb","b3e9fb","b3e9fb","b3e9fb","b3e9fb","b3e9fb","b3e9fb","b3e9fb","b3e9fb","b3e9fb","b3e9fb","b3e9fb","b3e9fb","b3e9fb","b3e9fb","b3e9fb","b3e9fb","b3e9fb","b3e9fb","b3e9fb","b3e9fb","b3e9fb","b3e9fb","b3e9fb","b3e9fb","b3e9fb","b3e9fb","b3e9fb","b3e9fb","b3e9fb","b3e9fb","b3e9fb","b3e9fb","b3e9fb"],
    ["b3e9fb","b3e9fb","b3e9fb","b3e9fb","b3e9fb","b3e9fb","b3e9fb","b3e9fb","b3e9fb","b3e9fb","b3e9fb","b3e9fb","b3e9fb","b3e9fb","b3e9fb","b3e9fb","b3e9fb","b3e9fb","b3e9fb","b3e9fb","b3e9fb","b3e9fb","b3e9fb","b3e9fb","b3e9fb","b3e9fb","b3e9fb","b3e9fb","b3e9fb","b3e9fb","b3e9fb","b3e9fb","b3e9fb","b3e9fb","b3e9fb","b3e9fb","b3e9fb","b3e9fb","b3e9fb","b3e9fb","b3e9fb","b3e9fb","b3e9fb","b3e9fb","b3e9fb","b3e9fb","b3e9fb","b3e9fb","b3e9fb","b3e9fb","b3e9fb","b3e9fb","b3e9fb","b3e9fb","b3e9fb","b3e9fb","b3e9fb","b3e9fb","b3e9fb","b3e9fb","b3e9fb","b3e9fb","b3e9fb","b3e9fb","b3e9fb","b3e9fb","b3e9fb","b3e9fb","b3e9fb","b3e9fb","b3e9fb","b3e9fb","b3e9fb","b3e9fb","b3e9fb","b3e9fb"]
]}