{
  "title":"Boss_Skull_activate",
  "original-title":"Boss Skull",
  "author":"Zakaria Bouhadeb",
  "author-url":"",
  "source":"Shan",
  "licence":"",
  "notice":"",
  "difficulty":"easy",
  "grid":[
    ["ffffff","ffffff","ffffff","ffffff","ffffff","ffffff","ffffff","ffffff","ffffff","ffffff","ffffff","ffffff","ffffff","ffffff","ffffff","ffffff","ffffff","ffffff","ffffff","ffffff","ffffff","ffffff","ffffff","ffffff","ffffff","ffffff","ffffff","ffffff","ffffff","ffffff","ffffff","ffffff","ffffff","ffffff","ffffff","ffffff","ffffff","ffffff","ffffff","3d3e3d","3d3e3d","3d3e3d","3d3e3d","3d3e3d","3d3e3d","3d3e3d","3d3e3d","ffffff","ffffff","ffffff","ffffff","ffffff","ffffff","ffffff","ffffff","ffffff","ffffff","ffffff","ffffff","ffffff","ffffff","ffffff","ffffff","ffffff","ffffff","ffffff","ffffff","ffffff","ffffff","ffffff","ffffff","ffffff","ffffff","ffffff","ffffff","ffffff","ffffff","ffffff","ffffff","ffffff","ffffff","ffffff","ffffff","ffffff"],
    ["ffffff","ffffff","ffffff","ffffff","ffffff","ffffff","ffffff","ffffff","ffffff","ffffff","ffffff","ffffff","ffffff","ffffff","ffffff","ffffff","ffffff","ffffff","ffffff","ffffff","ffffff","ffffff","ffffff","ffffff","ffffff","ffffff","ffffff","ffffff","ffffff","ffffff","ffffff","ffffff","ffffff","ffffff","ffffff","ffffff","ffffff","3d3e3d","3d3e3d","3d3e3d","3d3e3d","3d3e3d","3d3e3d","3d3e3d","3d3e3d","3d3e3d","3d3e3d","3d3e3d","3d3e3d","3d3e3d","3d3e3d","ffffff","ffffff","ffffff","ffffff","ffffff","ffffff","ffffff","ffffff","ffffff","ffffff","ffffff","ffffff","ffffff","ffffff","ffffff","ffffff","ffffff","ffffff","ffffff","ffffff","ffffff","ffffff","ffffff","ffffff","ffffff","ffffff","ffffff","ffffff","ffffff","ffffff","ffffff","ffffff","ffffff"],
    ["ffffff","ffffff","ffffff","ffffff","ffffff","ffffff","ffffff","ffffff","ffffff","ffffff","ffffff","ffffff","ffffff","ffffff","ffffff","ffffff","ffffff","ffffff","ffffff","ffffff","ffffff","ffffff","ffffff","ffffff","ffffff","ffffff","ffffff","ffffff","ffffff","ffffff","ffffff","ffffff","3d3e3d","3d3e3d","3d3e3d","3d3e3d","3d3e3d","3d3e3d","3d3e3d","4c4d4b","4c4d4b","4c4d4b","4c4d4b","4c4d4b","4c4d4b","3d3e3d","4c4d4b","3d3e3d","3d3e3d","3d3e3d","3d3e3d","3d3e3d","3d3e3d","ffffff","ffffff","ffffff","ffffff","ffffff","ffffff","ffffff","ffffff","ffffff","ffffff","ffffff","ffffff","ffffff","ffffff","ffffff","ffffff","ffffff","ffffff","ffffff","ffffff","ffffff","ffffff","ffffff","ffffff","ffffff","ffffff","ffffff","ffffff","ffffff","ffffff","ffffff"],
    ["ffffff","ffffff","ffffff","ffffff","ffffff","ffffff","ffffff","ffffff","ffffff","ffffff","ffffff","ffffff","ffffff","ffffff","ffffff","ffffff","ffffff","ffffff","ffffff","ffffff","ffffff","ffffff","ffffff","ffffff","ffffff","ffffff","ffffff","ffffff","ffffff","ffffff","3d3e3d","3d3e3d","3d3e3d","3d3e3d","4c4d4b","4c4d4b","4c4d4b","3d3e3d","4c4d4b","4c4d4b","4c4d4b","4c4d4b","4c4d4b","4c4d4b","4c4d4b","4c4d4b","4c4d4b","4c4d4b","4c4d4b","3d3e3d","3d3e3d","3d3e3d","3d3e3d","3d3e3d","3d3e3d","ffffff","ffffff","ffffff","ffffff","ffffff","ffffff","ffffff","ffffff","ffffff","ffffff","ffffff","ffffff","ffffff","ffffff","ffffff","ffffff","ffffff","ffffff","ffffff","ffffff","ffffff","ffffff","ffffff","ffffff","ffffff","ffffff","ffffff","ffffff","ffffff"],
    ["ffffff","ffffff","ffffff","ffffff","ffffff","ffffff","ffffff","ffffff","ffffff","ffffff","ffffff","ffffff","ffffff","ffffff","ffffff","ffffff","ffffff","ffffff","ffffff","ffffff","ffffff","ffffff","ffffff","ffffff","ffffff","ffffff","ffffff","ffffff","3d3e3d","3d3e3d","3d3e3d","3d3e3d","3d3e3d","4c4d4b","4c4d4b","4c4d4b","4c4d4b","4c4d4b","4c4d4b","4c4d4b","4c4d4b","4c4d4b","4c4d4b","4c4d4b","4c4d4b","4c4d4b","4c4d4b","4c4d4b","4c4d4b","4c4d4b","4c4d4b","4c4d4b","3d3e3d","3d3e3d","3d3e3d","3d3e3d","3d3e3d","ffffff","ffffff","ffffff","ffffff","ffffff","ffffff","ffffff","ffffff","ffffff","ffffff","ffffff","ffffff","ffffff","ffffff","ffffff","ffffff","ffffff","ffffff","ffffff","ffffff","ffffff","ffffff","ffffff","ffffff","ffffff","ffffff","ffffff"],
    ["ffffff","ffffff","ffffff","ffffff","ffffff","ffffff","ffffff","ffffff","ffffff","ffffff","ffffff","ffffff","ffffff","ffffff","ffffff","ffffff","ffffff","ffffff","ffffff","ffffff","ffffff","ffffff","ffffff","ffffff","ffffff","ffffff","3d3e3d","3d3e3d","3d3e3d","3d3e3d","3d3e3d","4c4d4b","4c4d4b","4c4d4b","4c4d4b","4c4d4b","4c4d4b","4c4d4b","4c4d4b","4c4d4b","4c4d4b","4c4d4b","4c4d4b","4c4d4b","4c4d4b","4c4d4b","4c4d4b","4c4d4b","4c4d4b","4c4d4b","4c4d4b","4c4d4b","4c4d4b","3d3e3d","3d3e3d","3d3e3d","3d3e3d","3d3e3d","ffffff","ffffff","ffffff","ffffff","ffffff","ffffff","ffffff","ffffff","ffffff","ffffff","ffffff","ffffff","ffffff","ffffff","ffffff","ffffff","ffffff","ffffff","ffffff","ffffff","ffffff","ffffff","ffffff","ffffff","ffffff","ffffff"],
    ["ffffff","ffffff","ffffff","ffffff","ffffff","ffffff","ffffff","ffffff","ffffff","ffffff","ffffff","ffffff","ffffff","ffffff","ffffff","ffffff","ffffff","ffffff","ffffff","ffffff","ffffff","ffffff","ffffff","ffffff","ffffff","3d3e3d","3d3e3d","3d3e3d","3d3e3d","3d3e3d","4c4d4b","4c4d4b","4c4d4b","4c4d4b","4c4d4b","4c4d4b","4c4d4b","4c4d4b","4c4d4b","4c4d4b","4c4d4b","4c4d4b","4c4d4b","4c4d4b","4c4d4b","4c4d4b","4c4d4b","4c4d4b","4c4d4b","4c4d4b","4c4d4b","4c4d4b","4c4d4b","4c4d4b","3d3e3d","3d3e3d","3d3e3d","3d3e3d","3d3e3d","ffffff","ffffff","ffffff","ffffff","ffffff","ffffff","ffffff","ffffff","ffffff","ffffff","ffffff","ffffff","ffffff","ffffff","ffffff","ffffff","ffffff","ffffff","ffffff","ffffff","ffffff","ffffff","ffffff","ffffff","ffffff"],
    ["ffffff","ffffff","ffffff","ffffff","ffffff","ffffff","ffffff","ffffff","ffffff","ffffff","ffffff","ffffff","ffffff","ffffff","ffffff","ffffff","ffffff","ffffff","ffffff","ffffff","ffffff","ffffff","ffffff","3d3e3d","3d3e3d","3d3e3d","3d3e3d","3d3e3d","3d3e3d","4c4d4b","4c4d4b","4c4d4b","4c4d4b","4c4d4b","4c4d4b","4c4d4b","4c4d4b","4c4d4b","4c4d4b","4c4d4b","4c4d4b","4c4d4b","4c4d4b","4c4d4b","4c4d4b","4c4d4b","4c4d4b","4c4d4b","4c4d4b","4c4d4b","4c4d4b","4c4d4b","4c4d4b","4c4d4b","4c4d4b","3d3e3d","3d3e3d","3d3e3d","3d3e3d","3d3e3d","ffffff","ffffff","ffffff","ffffff","ffffff","ffffff","ffffff","ffffff","ffffff","ffffff","ffffff","ffffff","ffffff","ffffff","ffffff","ffffff","ffffff","ffffff","ffffff","ffffff","ffffff","ffffff","ffffff","ffffff"],
    ["ffffff","ffffff","ffffff","ffffff","ffffff","ffffff","ffffff","ffffff","ffffff","ffffff","ffffff","ffffff","ffffff","ffffff","ffffff","ffffff","ffffff","ffffff","ffffff","ffffff","ffffff","ffffff","3d3e3d","3d3e3d","3d3e3d","3d3e3d","3d3e3d","3d3e3d","4c4d4b","4c4d4b","4c4d4b","4c4d4b","4c4d4b","4c4d4b","4c4d4b","4c4d4b","4c4d4b","4c4d4b","4c4d4b","4c4d4b","4c4d4b","4c4d4b","4c4d4b","4c4d4b","4c4d4b","4c4d4b","4c4d4b","4c4d4b","4c4d4b","4c4d4b","4c4d4b","4c4d4b","4c4d4b","4c4d4b","4c4d4b","4c4d4b","3d3e3d","3d3e3d","3d3e3d","3d3e3d","3d3e3d","ffffff","ffffff","ffffff","ffffff","ffffff","ffffff","ffffff","ffffff","ffffff","ffffff","ffffff","ffffff","ffffff","ffffff","ffffff","ffffff","ffffff","ffffff","ffffff","ffffff","ffffff","ffffff","ffffff"],
    ["ffffff","ffffff","ffffff","ffffff","ffffff","ffffff","ffffff","ffffff","ffffff","ffffff","ffffff","ffffff","ffffff","ffffff","ffffff","ffffff","ffffff","ffffff","ffffff","ffffff","ffffff","3d3e3d","3d3e3d","3d3e3d","3d3e3d","3d3e3d","3d3e3d","4c4d4b","4c4d4b","4c4d4b","4c4d4b","4c4d4b","4c4d4b","4c4d4b","4c4d4b","4c4d4b","4c4d4b","4c4d4b","4c4d4b","4c4d4b","4c4d4b","4c4d4b","4c4d4b","4c4d4b","4c4d4b","4c4d4b","4c4d4b","4c4d4b","4c4d4b","4c4d4b","4c4d4b","4c4d4b","4c4d4b","4c4d4b","4c4d4b","4c4d4b","4c4d4b","3d3e3d","3d3e3d","3d3e3d","3d3e3d","3d3e3d","3d3e3d","ffffff","ffffff","ffffff","ffffff","ffffff","ffffff","ffffff","ffffff","ffffff","ffffff","ffffff","ffffff","ffffff","ffffff","ffffff","ffffff","ffffff","ffffff","ffffff","ffffff","ffffff"],
    ["ffffff","ffffff","ffffff","ffffff","ffffff","ffffff","ffffff","ffffff","ffffff","ffffff","ffffff","ffffff","ffffff","ffffff","ffffff","ffffff","ffffff","ffffff","ffffff","3d3e3d","3d3e3d","3d3e3d","3d3e3d","3d3e3d","3d3e3d","3d3e3d","4c4d4b","4c4d4b","4c4d4b","4c4d4b","4c4d4b","4c4d4b","4c4d4b","4c4d4b","4c4d4b","4c4d4b","4c4d4b","4c4d4b","4c4d4b","4c4d4b","4c4d4b","4c4d4b","4c4d4b","4c4d4b","4c4d4b","4c4d4b","4c4d4b","4c4d4b","4c4d4b","4c4d4b","4c4d4b","4c4d4b","4c4d4b","4c4d4b","4c4d4b","3d3e3d","4c4d4b","3d3e3d","3d3e3d","3d3e3d","3d3e3d","3d3e3d","3d3e3d","3d3e3d","ffffff","ffffff","ffffff","ffffff","ffffff","ffffff","ffffff","ffffff","ffffff","ffffff","ffffff","ffffff","ffffff","ffffff","ffffff","ffffff","ffffff","ffffff","ffffff","ffffff"],
    ["ffffff","ffffff","ffffff","ffffff","ffffff","ffffff","ffffff","ffffff","ffffff","ffffff","ffffff","ffffff","ffffff","ffffff","ffffff","ffffff","ffffff","ffffff","3d3e3d","3d3e3d","3d3e3d","3d3e3d","3d3e3d","3d3e3d","3d3e3d","3d3e3d","4c4d4b","4c4d4b","3d3e3d","4c4d4b","4c4d4b","4c4d4b","4c4d4b","4c4d4b","4c4d4b","4c4d4b","4c4d4b","4c4d4b","4c4d4b","4c4d4b","4c4d4b","4c4d4b","4c4d4b","4c4d4b","4c4d4b","4c4d4b","4c4d4b","4c4d4b","4c4d4b","4c4d4b","4c4d4b","4c4d4b","4c4d4b","4c4d4b","4c4d4b","3d3e3d","3d3e3d","3d3e3d","3d3e3d","3d3e3d","3d3e3d","3d3e3d","3d3e3d","2e2f2e","3d3e3d","ffffff","ffffff","ffffff","ffffff","ffffff","ffffff","ffffff","ffffff","ffffff","ffffff","ffffff","ffffff","ffffff","ffffff","ffffff","ffffff","ffffff","ffffff","ffffff"],
    ["ffffff","ffffff","ffffff","ffffff","ffffff","ffffff","ffffff","ffffff","ffffff","ffffff","ffffff","ffffff","ffffff","ffffff","ffffff","ffffff","ffffff","3d3e3d","3d3e3d","3d3e3d","3d3e3d","3d3e3d","3d3e3d","3d3e3d","3d3e3d","3d3e3d","3d3e3d","3d3e3d","4c4d4b","4c4d4b","4c4d4b","4c4d4b","4c4d4b","4c4d4b","4c4d4b","4c4d4b","4c4d4b","4c4d4b","4c4d4b","4c4d4b","4c4d4b","4c4d4b","4c4d4b","4c4d4b","4c4d4b","4c4d4b","4c4d4b","4c4d4b","4c4d4b","4c4d4b","4c4d4b","4c4d4b","4c4d4b","4c4d4b","4c4d4b","4c4d4b","4c4d4b","3d3e3d","3d3e3d","3d3e3d","3d3e3d","2e2f2e","3d3e3d","3d3e3d","3d3e3d","3d3e3d","3d3e3d","ffffff","ffffff","ffffff","ffffff","ffffff","ffffff","ffffff","ffffff","ffffff","ffffff","ffffff","ffffff","ffffff","ffffff","ffffff","ffffff","ffffff"],
    ["ffffff","ffffff","ffffff","ffffff","ffffff","ffffff","ffffff","ffffff","ffffff","ffffff","ffffff","ffffff","ffffff","ffffff","ffffff","ffffff","3d3e3d","3d3e3d","3d3e3d","3d3e3d","3d3e3d","3d3e3d","3d3e3d","3d3e3d","3d3e3d","3d3e3d","4c4d4b","4c4d4b","4c4d4b","4c4d4b","4c4d4b","4c4d4b","4c4d4b","4c4d4b","4c4d4b","4c4d4b","4c4d4b","4c4d4b","4c4d4b","4c4d4b","4c4d4b","4c4d4b","4c4d4b","4c4d4b","4c4d4b","4c4d4b","4c4d4b","4c4d4b","4c4d4b","4c4d4b","4c4d4b","4c4d4b","4c4d4b","4c4d4b","4c4d4b","4c4d4b","4c4d4b","4c4d4b","3d3e3d","3d3e3d","3d3e3d","3d3e3d","3d3e3d","3d3e3d","3d3e3d","3d3e3d","3d3e3d","3d3e3d","ffffff","ffffff","ffffff","ffffff","ffffff","ffffff","ffffff","ffffff","ffffff","ffffff","ffffff","ffffff","ffffff","ffffff","ffffff","ffffff"],
    ["ffffff","ffffff","ffffff","ffffff","ffffff","ffffff","ffffff","ffffff","ffffff","ffffff","ffffff","ffffff","ffffff","ffffff","ffffff","3d3e3d","3d3e3d","3d3e3d","3d3e3d","3d3e3d","2e2f2e","3d3e3d","3d3e3d","3d3e3d","3d3e3d","4c4d4b","4c4d4b","4c4d4b","4c4d4b","4c4d4b","4c4d4b","4c4d4b","4c4d4b","4c4d4b","4c4d4b","4c4d4b","4c4d4b","4c4d4b","4c4d4b","4c4d4b","4c4d4b","4c4d4b","4c4d4b","4c4d4b","4c4d4b","4c4d4b","4c4d4b","4c4d4b","4c4d4b","4c4d4b","4c4d4b","4c4d4b","4c4d4b","4c4d4b","4c4d4b","4c4d4b","4c4d4b","4c4d4b","4c4d4b","3d3e3d","3d3e3d","3d3e3d","2e2f2e","3d3e3d","3d3e3d","3d3e3d","3d3e3d","3d3e3d","ffffff","ffffff","ffffff","ffffff","ffffff","ffffff","ffffff","ffffff","ffffff","ffffff","ffffff","ffffff","ffffff","ffffff","ffffff","ffffff"],
    ["ffffff","ffffff","ffffff","ffffff","ffffff","ffffff","ffffff","ffffff","ffffff","ffffff","ffffff","ffffff","ffffff","ffffff","3d3e3d","3d3e3d","3d3e3d","3d3e3d","2e2f2e","2e2f2e","3d3e3d","3d3e3d","3d3e3d","3d3e3d","3d3e3d","4c4d4b","4c4d4b","4c4d4b","4c4d4b","4c4d4b","4c4d4b","4c4d4b","4c4d4b","4c4d4b","4c4d4b","4c4d4b","4c4d4b","4c4d4b","4c4d4b","4c4d4b","4c4d4b","4c4d4b","4c4d4b","4c4d4b","4c4d4b","4c4d4b","4c4d4b","4c4d4b","4c4d4b","4c4d4b","4c4d4b","4c4d4b","4c4d4b","4c4d4b","4c4d4b","4c4d4b","4c4d4b","4c4d4b","4c4d4b","4c4d4b","3d3e3d","3d3e3d","2e2f2e","3d3e3d","3d3e3d","3d3e3d","3d3e3d","3d3e3d","3d3e3d","ffffff","ffffff","ffffff","ffffff","ffffff","ffffff","ffffff","ffffff","ffffff","ffffff","ffffff","ffffff","ffffff","ffffff","ffffff"],
    ["ffffff","ffffff","ffffff","ffffff","ffffff","ffffff","ffffff","ffffff","ffffff","ffffff","ffffff","ffffff","ffffff","ffffff","3d3e3d","3d3e3d","2e2f2e","2e2f2e","2e2f2e","3d3e3d","3d3e3d","3d3e3d","3d3e3d","3d3e3d","4c4d4b","4c4d4b","4c4d4b","4c4d4b","4c4d4b","4c4d4b","4c4d4b","4c4d4b","4c4d4b","4c4d4b","4c4d4b","4c4d4b","4c4d4b","4c4d4b","4c4d4b","4c4d4b","4c4d4b","4c4d4b","4c4d4b","4c4d4b","4c4d4b","4c4d4b","4c4d4b","4c4d4b","4c4d4b","4c4d4b","4c4d4b","4c4d4b","4c4d4b","4c4d4b","4c4d4b","4c4d4b","4c4d4b","4c4d4b","4c4d4b","4c4d4b","3d3e3d","3d3e3d","2e2f2e","3d3e3d","3d3e3d","3d3e3d","3d3e3d","3d3e3d","3d3e3d","ffffff","ffffff","ffffff","ffffff","ffffff","ffffff","ffffff","ffffff","ffffff","ffffff","ffffff","ffffff","ffffff","ffffff","ffffff"],
    ["ffffff","ffffff","ffffff","ffffff","ffffff","ffffff","ffffff","ffffff","ffffff","ffffff","ffffff","ffffff","ffffff","2e2f2e","3d3e3d","3d3e3d","2e2f2e","2e2f2e","3d3e3d","3d3e3d","3d3e3d","3d3e3d","3d3e3d","3d3e3d","4c4d4b","4c4d4b","4c4d4b","4c4d4b","4c4d4b","4c4d4b","4c4d4b","4c4d4b","4c4d4b","4c4d4b","4c4d4b","4c4d4b","4c4d4b","4c4d4b","4c4d4b","4c4d4b","4c4d4b","4c4d4b","4c4d4b","4c4d4b","4c4d4b","4c4d4b","4c4d4b","4c4d4b","4c4d4b","4c4d4b","4c4d4b","4c4d4b","4c4d4b","4c4d4b","4c4d4b","4c4d4b","4c4d4b","4c4d4b","4c4d4b","4c4d4b","4c4d4b","3d3e3d","3d3e3d","2e2f2e","3d3e3d","3d3e3d","3d3e3d","3d3e3d","3d3e3d","2e2f2e","ffffff","ffffff","ffffff","ffffff","ffffff","ffffff","ffffff","ffffff","ffffff","ffffff","ffffff","ffffff","ffffff","ffffff"],
    ["ffffff","ffffff","ffffff","ffffff","ffffff","ffffff","ffffff","ffffff","ffffff","ffffff","ffffff","ffffff","ffffff","2e2f2e","3d3e3d","2e2f2e","2e2f2e","2e2f2e","3d3e3d","3d3e3d","3d3e3d","3d3e3d","3d3e3d","3d3e3d","4c4d4b","4c4d4b","4c4d4b","4c4d4b","4c4d4b","4c4d4b","4c4d4b","4c4d4b","4c4d4b","4c4d4b","4c4d4b","4c4d4b","4c4d4b","4c4d4b","4c4d4b","4c4d4b","4c4d4b","4c4d4b","4c4d4b","4c4d4b","4c4d4b","4c4d4b","4c4d4b","4c4d4b","4c4d4b","4c4d4b","4c4d4b","4c4d4b","4c4d4b","4c4d4b","4c4d4b","4c4d4b","4c4d4b","4c4d4b","4c4d4b","4c4d4b","4c4d4b","3d3e3d","3d3e3d","2e2f2e","3d3e3d","3d3e3d","3d3e3d","3d3e3d","3d3e3d","2e2f2e","ffffff","ffffff","ffffff","ffffff","ffffff","ffffff","ffffff","ffffff","ffffff","ffffff","ffffff","ffffff","ffffff","ffffff"],
    ["ffffff","ffffff","ffffff","ffffff","ffffff","ffffff","ffffff","ffffff","ffffff","ffffff","ffffff","ffffff","ffffff","2e2f2e","2e2f2e","2e2f2e","2e2f2e","3d3e3d","3d3e3d","3d3e3d","3d3e3d","3d3e3d","3d3e3d","3d3e3d","4c4d4b","4c4d4b","4c4d4b","4c4d4b","4c4d4b","4c4d4b","4c4d4b","4c4d4b","4c4d4b","4c4d4b","4c4d4b","4c4d4b","4c4d4b","4c4d4b","4c4d4b","4c4d4b","4c4d4b","4c4d4b","4c4d4b","4c4d4b","4c4d4b","4c4d4b","4c4d4b","4c4d4b","4c4d4b","4c4d4b","4c4d4b","4c4d4b","4c4d4b","4c4d4b","4c4d4b","4c4d4b","4c4d4b","4c4d4b","4c4d4b","4c4d4b","4c4d4b","3d3e3d","3d3e3d","2e2f2e","3d3e3d","3d3e3d","3d3e3d","3d3e3d","2e2f2e","2e2f2e","2e2f2e","ffffff","ffffff","ffffff","ffffff","ffffff","ffffff","ffffff","ffffff","ffffff","ffffff","ffffff","ffffff","ffffff"],
    ["ffffff","ffffff","ffffff","ffffff","ffffff","ffffff","ffffff","ffffff","ffffff","ffffff","ffffff","ffffff","2e2f2e","2e2f2e","2e2f2e","2e2f2e","3d3e3d","3d3e3d","3d3e3d","3d3e3d","3d3e3d","3d3e3d","3d3e3d","3d3e3d","3d3e3d","4c4d4b","4c4d4b","4c4d4b","4c4d4b","4c4d4b","4c4d4b","4c4d4b","4c4d4b","4c4d4b","4c4d4b","4c4d4b","4c4d4b","4c4d4b","4c4d4b","4c4d4b","4c4d4b","4c4d4b","4c4d4b","4c4d4b","4c4d4b","4c4d4b","4c4d4b","4c4d4b","4c4d4b","4c4d4b","4c4d4b","4c4d4b","4c4d4b","4c4d4b","4c4d4b","4c4d4b","4c4d4b","4c4d4b","4c4d4b","4c4d4b","4c4d4b","3d3e3d","3d3e3d","2e2f2e","3d3e3d","3d3e3d","3d3e3d","3d3e3d","2e2f2e","2e2f2e","2e2f2e","ffffff","ffffff","ffffff","ffffff","ffffff","ffffff","ffffff","ffffff","ffffff","ffffff","ffffff","ffffff","ffffff"],
    ["ffffff","ffffff","ffffff","ffffff","ffffff","ffffff","ffffff","ffffff","ffffff","ffffff","ffffff","ffffff","2e2f2e","2e2f2e","2e2f2e","2e2f2e","3d3e3d","3d3e3d","3d3e3d","3d3e3d","3d3e3d","3d3e3d","3d3e3d","3d3e3d","4c4d4b","4c4d4b","4c4d4b","4c4d4b","4c4d4b","4c4d4b","4c4d4b","4c4d4b","4c4d4b","4c4d4b","4c4d4b","4c4d4b","4c4d4b","4c4d4b","4c4d4b","4c4d4b","4c4d4b","4c4d4b","4c4d4b","4c4d4b","4c4d4b","4c4d4b","4c4d4b","4c4d4b","4c4d4b","4c4d4b","4c4d4b","4c4d4b","4c4d4b","4c4d4b","4c4d4b","4c4d4b","4c4d4b","4c4d4b","4c4d4b","4c4d4b","4c4d4b","3d3e3d","3d3e3d","3d3e3d","2e2f2e","3d3e3d","3d3e3d","2e2f2e","2e2f2e","2e2f2e","2e2f2e","ff005e","ffffff","ffffff","ffffff","ffffff","ffffff","ffffff","ffffff","ffffff","ffffff","ffffff","ffffff","ffffff"],
    ["ffffff","ffffff","ffffff","ffffff","ffffff","ffffff","ffffff","ffffff","ffffff","ffffff","ffffff","ffffff","2e2f2e","2e2f2e","2e2f2e","2e2f2e","3d3e3d","4c4d4b","3d3e3d","3d3e3d","3d3e3d","3d3e3d","3d3e3d","3d3e3d","3d3e3d","4c4d4b","4c4d4b","4c4d4b","4c4d4b","4c4d4b","4c4d4b","4c4d4b","4c4d4b","4c4d4b","4c4d4b","4c4d4b","4c4d4b","4c4d4b","4c4d4b","4c4d4b","4c4d4b","4c4d4b","4c4d4b","4c4d4b","4c4d4b","4c4d4b","4c4d4b","4c4d4b","4c4d4b","4c4d4b","4c4d4b","4c4d4b","4c4d4b","4c4d4b","4c4d4b","4c4d4b","4c4d4b","4c4d4b","4c4d4b","4c4d4b","4c4d4b","3d3e3d","3d3e3d","3d3e3d","2e2f2e","3d3e3d","3d3e3d","2e2f2e","2e2f2e","2e2f2e","2e2f2e","ff005e","ff005e","ff005e","ffffff","ffffff","ffffff","ffffff","ffffff","ffffff","ffffff","ffffff","ffffff","ffffff"],
    ["ffffff","ffffff","ffffff","ffffff","ffffff","ffffff","ffffff","ffffff","ffffff","ffffff","ffffff","ffffff","2e2f2e","2e2f2e","2e2f2e","3d3e3d","3d3e3d","4c4d4b","3d3e3d","3d3e3d","3d3e3d","3d3e3d","3d3e3d","3d3e3d","3d3e3d","4c4d4b","4c4d4b","4c4d4b","4c4d4b","63434d","4c4d4b","4c4d4b","4c4d4b","4c4d4b","4c4d4b","4c4d4b","4c4d4b","4c4d4b","4c4d4b","4c4d4b","4c4d4b","4c4d4b","4c4d4b","4c4d4b","4c4d4b","4c4d4b","4c4d4b","4c4d4b","4c4d4b","4c4d4b","63434d","63434d","63434d","63434d","63434d","63434d","63434d","63434d","63434d","63434d","4d393f","4d393f","4d393f","3d3e3d","3d3e3d","2e2f2e","3d3e3d","2e2f2e","2e2f2e","2e2f2e","2e2f2e","2e2f2e","ff005e","ff005e","ff005e","ffffff","ffffff","ffffff","ffffff","ffffff","ffffff","ffffff","ffffff","ffffff"],
    ["ffffff","ffffff","ffffff","ffffff","ffffff","ffffff","ffffff","ffffff","ffffff","ffffff","ffffff","ff005e","2e2f2e","2e2f2e","2e2f2e","3d3e3d","3d3e3d","4c4d4b","4c4d4b","3d3e3d","3d3e3d","3d3e3d","4d393f","4d393f","4d393f","4d393f","63434d","63434d","63434d","63434d","63434d","63434d","63434d","63434d","63434d","63434d","63434d","63434d","63434d","63434d","63434d","63434d","63434d","63434d","63434d","63434d","63434d","63434d","63434d","63434d","63434d","63434d","63434d","63434d","63434d","63434d","63434d","63434d","63434d","63434d","4d393f","4d393f","4d393f","4d393f","4d393f","402b32","402b32","2e2f2e","2e2f2e","2e2f2e","2e2f2e","2e2f2e","ff005e","ff005e","ff005e","ff005e","ffffff","ffffff","ffffff","ffffff","ffffff","ffffff","ffffff","ffffff"],
    ["ffffff","ffffff","ffffff","ffffff","ffffff","ffffff","ffffff","ffffff","ffffff","ffffff","ff005e","2e2f2e","2e2f2e","2e2f2e","2e2f2e","3d3e3d","3d3e3d","3d3e3d","4c4d4b","4c4d4b","4d393f","4d393f","4d393f","4d393f","4d393f","4d393f","63434d","4d393f","63434d","63434d","63434d","63434d","63434d","63434d","63434d","63434d","63434d","63434d","63434d","63434d","63434d","63434d","63434d","63434d","63434d","63434d","63434d","63434d","63434d","63434d","63434d","63434d","63434d","63434d","63434d","63434d","63434d","63434d","63434d","4d393f","4d393f","4d393f","63434d","4d393f","4d393f","402b32","402b32","402b32","402b32","2e2f2e","2e2f2e","2e2f2e","ff005e","ff005e","ff005e","ff005e","ff005e","ffffff","ffffff","ffffff","ffffff","ffffff","ffffff","ffffff"],
    ["ffffff","ffffff","ffffff","ffffff","ffffff","ffffff","ffffff","ffffff","ffffff","ff005e","ff005e","2e2f2e","2e2f2e","2e2f2e","2e2f2e","3d3e3d","3d3e3d","3d3e3d","63434d","63434d","4d393f","4d393f","4d393f","4d393f","4d393f","4d393f","4d393f","4d393f","63434d","63434d","63434d","63434d","63434d","63434d","63434d","63434d","63434d","63434d","63434d","63434d","63434d","63434d","63434d","63434d","63434d","63434d","63434d","63434d","63434d","63434d","63434d","63434d","63434d","63434d","63434d","63434d","4d393f","63434d","4d393f","4d393f","4d393f","63434d","63434d","4d393f","4d393f","402b32","402b32","402b32","402b32","402b32","2e2f2e","2e2f2e","ff005e","ff005e","ff005e","ff005e","ff005e","ff005e","ffffff","ffffff","ffffff","ffffff","ffffff","ffffff"],
    ["ffffff","ffffff","ffffff","ffffff","ffffff","ffffff","ffffff","ffffff","ff005e","ff005e","ff005e","2e2f2e","2e2f2e","2e2f2e","2e2f2e","2e2f2e","4d393f","4d393f","4d393f","63434d","63434d","4d393f","4d393f","4d393f","4d393f","4d393f","4d393f","4d393f","63434d","63434d","63434d","63434d","63434d","63434d","63434d","63434d","63434d","63434d","63434d","63434d","63434d","63434d","63434d","63434d","63434d","63434d","63434d","63434d","63434d","63434d","63434d","63434d","63434d","63434d","63434d","63434d","4d393f","4d393f","4d393f","4d393f","4d393f","63434d","63434d","4d393f","4d393f","402b32","402b32","402b32","402b32","402b32","402b32","402b32","ff005e","ff005e","ff005e","ff005e","ff005e","ff005e","ff005e","ffffff","ffffff","ffffff","ffffff","ffffff"],
    ["ffffff","ffffff","ffffff","ffffff","ffffff","ffffff","ffffff","ff005e","ff005e","ff005e","ff005e","2e2f2e","2e2f2e","2e2f2e","2e2f2e","402b32","4d393f","4d393f","4d393f","63434d","63434d","4d393f","4d393f","4d393f","4d393f","4d393f","762c46","762c46","762c46","63434d","63434d","63434d","63434d","63434d","63434d","63434d","63434d","63434d","63434d","63434d","63434d","63434d","63434d","63434d","63434d","63434d","63434d","63434d","63434d","762c46","63434d","63434d","63434d","63434d","63434d","63434d","762c46","762c46","762c46","762c46","762c46","63434d","4d393f","4d393f","4d393f","64233a","64233a","402b32","402b32","402b32","402b32","402b32","ff005e","ff005e","ff005e","ff005e","ff005e","ff005e","ff005e","ff005e","ffffff","ffffff","ffffff","ffffff"],
    ["ffffff","ffffff","ffffff","ffffff","ffffff","ffffff","ffffff","ff005e","ff005e","ff005e","ff005e","2e2f2e","2e2f2e","402b32","402b32","402b32","402b32","4d393f","4d393f","63434d","63434d","63434d","4d393f","762c46","762c46","762c46","762c46","762c46","762c46","762c46","63434d","63434d","63434d","63434d","63434d","63434d","63434d","63434d","63434d","63434d","63434d","63434d","63434d","63434d","63434d","63434d","63434d","63434d","63434d","762c46","63434d","63434d","63434d","63434d","63434d","762c46","762c46","762c46","762c46","762c46","63434d","63434d","762c46","762c46","762c46","64233a","64233a","64233a","402b32","402b32","402b32","402b32","ff005e","ff005e","ff005e","ff005e","ff005e","ff005e","ff005e","ff005e","ff005e","ffffff","ffffff","ffffff"],
    ["ffffff","ffffff","ffffff","ffffff","ffffff","ffffff","ff005e","ff005e","ff005e","ff005e","ff005e","2e2f2e","402b32","402b32","402b32","402b32","402b32","4d393f","4d393f","4d393f","63434d","63434d","762c46","762c46","762c46","762c46","762c46","762c46","762c46","762c46","762c46","762c46","733c4f","762c46","733c4f","762c46","733c4f","733c4f","733c4f","733c4f","733c4f","733c4f","733c4f","733c4f","733c4f","733c4f","733c4f","733c4f","762c46","762c46","762c46","733c4f","733c4f","762c46","762c46","762c46","762c46","762c46","762c46","733c4f","733c4f","733c4f","762c46","762c46","64233a","64233a","64233a","64233a","64233a","64233a","402b32","402b32","ff005e","ff005e","ff005e","ff005e","ff005e","ff005e","ff005e","ff005e","ff005e","ffffff","ffffff","ffffff"],
    ["ffffff","ffffff","ffffff","ffffff","ffffff","ff005e","ff005e","ff005e","ff005e","ff005e","ff005e","2e2f2e","402b32","402b32","402b32","402b32","64233a","4d393f","4d393f","762c46","63434d","63434d","63434d","733c4f","762c46","762c46","762c46","762c46","762c46","762c46","762c46","762c46","762c46","762c46","762c46","733c4f","733c4f","733c4f","733c4f","733c4f","733c4f","762c46","733c4f","733c4f","733c4f","733c4f","733c4f","733c4f","762c46","762c46","762c46","762c46","762c46","762c46","762c46","762c46","762c46","762c46","733c4f","733c4f","733c4f","762c46","762c46","762c46","64233a","64233a","64233a","64233a","64233a","64233a","64233a","402b32","ff005e","ff005e","ff005e","ff005e","ff005e","ff005e","ff005e","ff005e","ff005e","ff005e","ffffff","ffffff"],
    ["ffffff","ffffff","ffffff","ffffff","ffffff","ff005e","ff005e","ff005e","ff005e","ff005e","ff005e","402b32","402b32","402b32","402b32","64233a","64233a","4d393f","762c46","762c46","63434d","733c4f","733c4f","733c4f","733c4f","762c46","762c46","762c46","762c46","762c46","762c46","762c46","762c46","762c46","762c46","762c46","733c4f","733c4f","733c4f","733c4f","762c46","762c46","762c46","733c4f","733c4f","733c4f","733c4f","733c4f","762c46","762c46","762c46","762c46","762c46","762c46","762c46","762c46","762c46","733c4f","733c4f","733c4f","762c46","762c46","762c46","64233a","64233a","64233a","64233a","64233a","64233a","64233a","64233a","64233a","ff005e","ff005e","ff005e","ff005e","ff005e","ff005e","ff005e","ff005e","ff005e","ff005e","ff005e","ffffff"],
    ["ffffff","ffffff","ffffff","ffffff","ff005e","ff005e","ff005e","ff005e","ff005e","ff005e","ff005e","ff005e","402b32","402b32","64233a","64233a","64233a","762c46","762c46","762c46","762c46","733c4f","733c4f","733c4f","733c4f","733c4f","762c46","733c4f","733c4f","762c46","762c46","762c46","762c46","762c46","762c46","762c46","762c46","762c46","762c46","762c46","762c46","762c46","762c46","762c46","762c46","762c46","762c46","762c46","762c46","762c46","762c46","762c46","762c46","762c46","762c46","733c4f","733c4f","733c4f","733c4f","733c4f","762c46","762c46","762c46","64233a","64233a","64233a","64233a","64233a","64233a","64233a","4d393f","ff005e","ff005e","ff005e","ff005e","ff005e","ff005e","ff005e","ff005e","ff005e","ff005e","ff005e","ff005e","ffffff"],
    ["ffffff","ffffff","ffffff","ffffff","ff005e","ff005e","ff005e","ff005e","ff005e","ff005e","ff005e","ff005e","402b32","64233a","64233a","64233a","64233a","64233a","762c46","762c46","762c46","733c4f","733c4f","733c4f","733c4f","733c4f","733c4f","862749","862749","862749","862749","862749","862749","862749","862749","862749","862749","862749","862749","862749","762c46","762c46","762c46","762c46","762c46","862749","862749","862749","862749","862749","862749","862749","862749","862749","862749","862749","862749","862749","862749","862749","862749","762c46","64233a","64233a","64233a","64233a","64233a","64233a","64233a","64233a","762c46","ff005e","ff005e","ff005e","ff005e","ff005e","ff005e","ff005e","ff005e","ff005e","ff005e","ff005e","ff005e","ff005e"],
    ["ffffff","ffffff","ffffff","ff005e","ff005e","ff005e","ff005e","ff005e","ff005e","ff005e","ff005e","ff005e","ff005e","64233a","64233a","64233a","64233a","64233a","64233a","762c46","762c46","762c46","733c4f","733c4f","862749","862749","862749","862749","862749","862749","862749","862749","862749","862749","862749","862749","862749","862749","862749","862749","862749","862749","862749","862749","862749","862749","862749","862749","862749","862749","862749","862749","862749","862749","862749","862749","862749","862749","862749","862749","862749","862749","64233a","64233a","64233a","64233a","64233a","64233a","64233a","762c46","ff005e","ff005e","ff005e","ff005e","ff005e","ff005e","ff005e","ff005e","ff005e","ff005e","ff005e","ff005e","ff005e","ff005e"],
    ["ffffff","ffffff","ffffff","ff005e","ff005e","ff005e","ff005e","ff005e","ff005e","ff005e","ff005e","ff005e","ff005e","64233a","64233a","64233a","64233a","64233a","64233a","64233a","762c46","762c46","733c4f","862749","862749","862749","862749","862749","862749","862749","862749","862749","862749","862749","862749","862749","862749","862749","862749","862749","862749","862749","862749","862749","862749","862749","862749","862749","862749","862749","862749","862749","862749","862749","862749","862749","862749","862749","862749","862749","862749","862749","862749","64233a","64233a","64233a","64233a","64233a","762c46","762c46","ff005e","ff005e","ff005e","ff005e","ff005e","ff005e","ff005e","ff005e","ff005e","ff005e","ff005e","ff005e","ff005e","ff005e"],
    ["ffffff","ffffff","ff005e","ff005e","ff005e","ff005e","ff005e","ff005e","ff005e","ff005e","ff005e","ff005e","ff005e","64233a","64233a","64233a","64233a","64233a","64233a","64233a","762c46","862749","862749","862749","862749","862749","862749","862749","862749","862749","862749","862749","862749","862749","862749","862749","862749","862749","862749","862749","862749","862749","862749","862749","862749","862749","862749","862749","862749","862749","862749","862749","862749","862749","862749","862749","862749","862749","862749","862749","862749","862749","862749","762c46","64233a","64233a","64233a","762c46","64233a","ff005e","ff005e","ff005e","ff005e","ff005e","ff005e","ff005e","ff005e","ff005e","ff005e","ff005e","ff005e","ff005e","ff005e","ff005e"],
    ["ffffff","ffffff","ff005e","ff005e","ff005e","ff005e","ff005e","ff005e","ff005e","ff005e","ff005e","ff005e","ff005e","64233a","64233a","64233a","64233a","64233a","64233a","64233a","862749","862749","862749","862749","862749","862749","862749","862749","862749","862749","862749","862749","862749","862749","862749","862749","862749","862749","862749","862749","862749","862749","862749","862749","862749","862749","862749","862749","862749","862749","862749","862749","862749","862749","862749","862749","862749","862749","862749","862749","862749","862749","862749","862749","762c46","862749","762c46","762c46","64233a","ff005e","ff005e","ff005e","ff005e","ff005e","ff005e","ff005e","ff005e","ff005e","ff005e","ff005e","ff005e","ff005e","ff005e","ff005e"],
    ["ffffff","ffffff","ff005e","ff005e","ff005e","ff005e","ff005e","ff005e","ff005e","ff005e","ff005e","ff005e","ff005e","64233a","64233a","64233a","64233a","64233a","64233a","64233a","862749","862749","862749","862749","862749","862749","862749","862749","80133b","80133b","80133b","80133b","862749","862749","862749","862749","862749","862749","862749","862749","862749","862749","862749","862749","862749","862749","862749","862749","862749","862749","862749","80133b","80133b","80133b","80133b","80133b","862749","862749","862749","862749","862749","862749","862749","862749","862749","762c46","862749","64233a","64233a","ff005e","ff005e","ff005e","ff005e","ff005e","ff005e","ff005e","ff005e","ff005e","ff005e","ff005e","ff005e","ff005e","ff005e","ff005e"],
    ["ffffff","ffffff","ff005e","ff005e","ff005e","ff005e","ff005e","ff005e","ff005e","ff005e","ff005e","ff005e","ff005e","64233a","64233a","64233a","64233a","64233a","64233a","862749","862749","862749","862749","80133b","862749","80133b","80133b","80133b","80133b","80133b","80133b","80133b","80133b","862749","862749","862749","862749","862749","862749","862749","862749","862749","862749","862749","862749","862749","862749","862749","862749","862749","80133b","80133b","80133b","80133b","80133b","80133b","80133b","80133b","80133b","80133b","862749","862749","862749","862749","862749","762c46","862749","64233a","64233a","ff005e","ff005e","ff005e","ff005e","ff005e","ff005e","ff005e","ff005e","ff005e","ff005e","ff005e","ff005e","ff005e","ff005e","ff005e"],
    ["ffffff","ff005e","ff005e","ff005e","ff005e","ff005e","ff005e","ff005e","ff005e","ff005e","ff005e","ff005e","ff005e","64233a","64233a","64233a","64233a","64233a","64233a","862749","862749","862749","80133b","80133b","80133b","80133b","80133b","80133b","80133b","80133b","80133b","80133b","80133b","80133b","862749","862749","862749","862749","862749","862749","862749","862749","862749","862749","862749","862749","862749","862749","862749","80133b","80133b","80133b","80133b","80133b","80133b","80133b","80133b","80133b","80133b","80133b","862749","862749","862749","862749","862749","862749","762c46","64233a","762c46","ff005e","ff005e","ff005e","ff005e","ff005e","ff005e","ff005e","ff005e","ff005e","ff005e","ff005e","ff005e","ff005e","ff005e","ff005e"],
    ["ffffff","ff005e","ff005e","ff005e","ff005e","ff005e","ff005e","ff005e","ff005e","ff005e","ff005e","ff005e","ff005e","ff005e","64233a","64233a","64233a","64233a","862749","862749","862749","80133b","80133b","80133b","80133b","80133b","80133b","80133b","80133b","80133b","80133b","80133b","80133b","80133b","80133b","862749","862749","862749","862749","862749","862749","862749","862749","862749","862749","862749","862749","862749","80133b","80133b","80133b","80133b","80133b","80133b","80133b","80133b","80133b","80133b","80133b","80133b","80133b","862749","862749","862749","862749","862749","762c46","762c46","64233a","ff005e","ff005e","ff005e","ff005e","ff005e","ff005e","ff005e","ff005e","ff005e","ff005e","ff005e","ff005e","ff005e","ff005e","ff005e"],
    ["ffffff","ff005e","ff005e","ff005e","ff005e","ff005e","ff005e","ff005e","ff005e","ff005e","ff005e","ff005e","ff005e","ff005e","64233a","64233a","64233a","64233a","862749","862749","862749","862749","862749","80133b","80133b","80133b","80133b","80133b","80133b","80133b","80133b","80133b","80133b","80133b","80133b","80133b","862749","862749","862749","862749","862749","952e53","862749","862749","862749","862749","862749","80133b","80133b","80133b","80133b","80133b","80133b","80133b","80133b","80133b","80133b","80133b","80133b","80133b","80133b","862749","862749","862749","862749","862749","762c46","762c46","64233a","ff005e","ff005e","ff005e","ff005e","ff005e","ff005e","ff005e","ff005e","ff005e","ff005e","ff005e","ff005e","ff005e","ff005e","ff005e"],
    ["ffffff","ff005e","ff005e","ff005e","ff005e","ff005e","ff005e","ff005e","ff005e","ff005e","ff005e","ff005e","ff005e","ff005e","ff005e","64233a","64233a","64233a","862749","862749","862749","862749","862749","80133b","80133b","80133b","80133b","80133b","80133b","80133b","80133b","80133b","80133b","80133b","80133b","80133b","862749","862749","862749","862749","862749","952e53","862749","862749","862749","862749","80133b","80133b","80133b","80133b","80133b","80133b","80133b","a60d45","a60d45","a60d45","90113f","80133b","80133b","80133b","80133b","80133b","862749","862749","862749","862749","762c46","762c46","ff005e","ff005e","ff005e","ff005e","ff005e","ff005e","ff005e","ff005e","ff005e","ff005e","ff005e","ff005e","ff005e","ff005e","ff005e","ff005e"],
    ["ffffff","ff005e","ff005e","ff005e","ff005e","ff005e","ff005e","ff005e","ff005e","ff005e","ff005e","ff005e","ff005e","ff005e","ff005e","64233a","64233a","64233a","862749","862749","862749","862749","862749","80133b","80133b","80133b","80133b","a60d45","a60d45","a60d45","90113f","80133b","80133b","80133b","80133b","80133b","80133b","862749","862749","862749","952e53","952e53","952e53","862749","862749","862749","80133b","80133b","80133b","80133b","80133b","80133b","a60d45","c9084f","dd0554","c9084f","a60d45","80133b","80133b","80133b","80133b","80133b","862749","862749","862749","862749","762c46","862749","ff005e","ff005e","ff005e","ff005e","ff005e","ff005e","ff005e","ff005e","ff005e","ff005e","ff005e","ff005e","ff005e","ff005e","ff005e","ff005e"],
    ["ffffff","ff005e","ff005e","ff005e","ff005e","ff005e","ff005e","ff005e","ff005e","ff005e","ff005e","ff005e","ff005e","ff005e","ff005e","64233a","64233a","64233a","862749","862749","862749","80133b","80133b","80133b","80133b","80133b","a60d45","c9084f","dd0554","c9084f","a60d45","80133b","80133b","80133b","80133b","80133b","80133b","862749","862749","862749","952e53","952e53","952e53","862749","862749","862749","80133b","80133b","80133b","80133b","80133b","80133b","a60d45","dd0554","ff005e","dd0554","a60d45","80133b","80133b","80133b","80133b","80133b","862749","862749","862749","862749","762c46","862749","ff005e","ff005e","ff005e","ff005e","ff005e","ff005e","ff005e","ff005e","ff005e","ff005e","ff005e","ff005e","ff005e","ff005e","ff005e","ff005e"],
    ["ffffff","ff005e","ff005e","ff005e","ff005e","ff005e","ff005e","ff005e","ff005e","ff005e","ff005e","ff005e","ff005e","ff005e","ff005e","64233a","64233a","862749","862749","862749","80133b","80133b","80133b","80133b","80133b","80133b","a60d45","dd0554","ff005e","dd0554","a60d45","80133b","80133b","80133b","80133b","80133b","80133b","862749","862749","862749","952e53","952e53","952e53","862749","862749","862749","80133b","80133b","80133b","80133b","80133b","80133b","a60d45","c9084f","dd0554","c9084f","a60d45","80133b","80133b","80133b","80133b","80133b","80133b","862749","862749","862749","762c46","762c46","ff005e","ff005e","ff005e","ff005e","ff005e","ff005e","ff005e","ff005e","ff005e","ff005e","ff005e","ff005e","ff005e","ff005e","ff005e","ff005e"],
    ["ffffff","ff005e","ff005e","ff005e","ff005e","ff005e","ff005e","ff005e","ff005e","ff005e","ff005e","ff005e","ff005e","ff005e","ff005e","64233a","64233a","862749","862749","862749","80133b","80133b","80133b","80133b","80133b","80133b","a60d45","c9084f","dd0554","c9084f","a60d45","80133b","80133b","80133b","80133b","80133b","862749","862749","862749","952e53","952e53","952e53","952e53","952e53","862749","862749","862749","80133b","80133b","80133b","80133b","80133b","80133b","a60d45","a60d45","a60d45","90113f","80133b","80133b","80133b","80133b","80133b","80133b","862749","862749","862749","762c46","762c46","ff005e","ff005e","ff005e","ff005e","ff005e","ff005e","ff005e","ff005e","ff005e","ff005e","ff005e","ff005e","ff005e","ff005e","ff005e","ff005e"],
    ["ffffff","ff005e","ff005e","ff005e","ff005e","ff005e","ff005e","ff005e","ff005e","ff005e","ff005e","ff005e","ff005e","ff005e","64233a","64233a","64233a","762c46","862749","862749","80133b","80133b","80133b","80133b","80133b","80133b","80133b","a60d45","a60d45","a60d45","80133b","80133b","80133b","80133b","80133b","80133b","862749","862749","862749","952e53","952e53","862749","952e53","952e53","862749","862749","862749","862749","80133b","80133b","80133b","80133b","80133b","80133b","80133b","80133b","80133b","80133b","80133b","80133b","80133b","80133b","80133b","862749","862749","862749","762c46","762c46","ff005e","ff005e","ff005e","ff005e","ff005e","ff005e","ff005e","ff005e","ff005e","ff005e","ff005e","ff005e","ff005e","ff005e","ff005e","ff005e"],
    ["ffffff","ff005e","ff005e","ff005e","ff005e","ff005e","ff005e","ff005e","ff005e","ff005e","ff005e","ff005e","ff005e","ff005e","64233a","64233a","64233a","762c46","862749","862749","64233a","80133b","80133b","80133b","80133b","80133b","80133b","80133b","80133b","80133b","80133b","80133b","80133b","80133b","80133b","862749","862749","862749","952e53","952e53","862749","80133b","862749","952e53","862749","862749","862749","862749","80133b","80133b","80133b","80133b","80133b","80133b","80133b","80133b","80133b","80133b","80133b","80133b","80133b","80133b","862749","862749","862749","762c46","862749","762c46","ff005e","ff005e","ff005e","ff005e","ff005e","ff005e","ff005e","ff005e","ff005e","ff005e","ff005e","ff005e","ff005e","ff005e","ff005e","ff005e"],
    ["ffffff","ff005e","ff005e","ff005e","ff005e","ff005e","ff005e","ff005e","ff005e","ff005e","ff005e","ff005e","ff005e","ff005e","ff005e","64233a","64233a","762c46","862749","862749","862749","80133b","80133b","80133b","80133b","80133b","80133b","80133b","80133b","80133b","80133b","80133b","80133b","80133b","862749","862749","862749","862749","952e53","862749","80133b","80133b","80133b","862749","952e53","862749","862749","862749","862749","80133b","80133b","80133b","80133b","80133b","80133b","80133b","80133b","80133b","80133b","80133b","80133b","862749","862749","862749","862749","762c46","862749","64233a","ff005e","ff005e","ff005e","ff005e","ff005e","ff005e","ff005e","ff005e","ff005e","ff005e","ff005e","ff005e","ff005e","ff005e","ff005e","ff005e"],
    ["ffffff","ffffff","ff005e","ff005e","ff005e","ff005e","ff005e","ff005e","ff005e","ff005e","ff005e","ff005e","ff005e","ff005e","64233a","64233a","64233a","64233a","762c46","862749","862749","64233a","80133b","80133b","80133b","80133b","80133b","80133b","80133b","80133b","80133b","80133b","862749","862749","862749","862749","862749","952e53","952e53","862749","80133b","80133b","80133b","80133b","862749","952e53","862749","862749","862749","862749","862749","80133b","80133b","80133b","80133b","80133b","80133b","80133b","862749","862749","862749","862749","862749","862749","762c46","862749","862749","ff005e","ff005e","ff005e","ff005e","ff005e","ff005e","ff005e","ff005e","ff005e","ff005e","ff005e","ff005e","ff005e","ff005e","ff005e","ff005e","ff005e"],
    ["ffffff","ffffff","ff005e","ff005e","ff005e","ff005e","ff005e","ff005e","ff005e","ff005e","ff005e","ff005e","ff005e","ff005e","64233a","64233a","64233a","64233a","762c46","862749","862749","862749","64233a","80133b","80133b","80133b","80133b","80133b","80133b","80133b","862749","862749","862749","862749","862749","862749","862749","952e53","80133b","80133b","80133b","80133b","80133b","80133b","80133b","862749","862749","862749","862749","862749","862749","862749","862749","862749","862749","862749","862749","862749","862749","862749","862749","862749","862749","762c46","862749","862749","862749","ff005e","ff005e","ff005e","ff005e","ff005e","ff005e","ff005e","ff005e","ff005e","ff005e","ff005e","ff005e","ff005e","ff005e","ff005e","ff005e","ff005e"],
    ["ffffff","ffffff","ff005e","ff005e","ff005e","ff005e","ff005e","ff005e","ff005e","ff005e","ff005e","ff005e","ff005e","ff005e","ff005e","64233a","64233a","64233a","64233a","762c46","862749","862749","862749","862749","862749","862749","862749","862749","862749","862749","862749","862749","862749","862749","862749","862749","862749","862749","80133b","80133b","80133b","80133b","80133b","80133b","762c46","862749","862749","862749","862749","862749","862749","862749","862749","862749","862749","862749","862749","862749","862749","862749","862749","80133b","762c46","862749","862749","862749","64233a","ff005e","ff005e","ff005e","ff005e","ff005e","ff005e","ff005e","ff005e","ff005e","ff005e","ff005e","ff005e","ff005e","ff005e","ff005e","ff005e","ff005e"],
    ["ffffff","ffffff","ff005e","ff005e","ff005e","ff005e","ff005e","ff005e","ff005e","ff005e","ff005e","ff005e","ff005e","ff005e","ff005e","64233a","64233a","64233a","64233a","762c46","762c46","862749","862749","862749","862749","862749","862749","862749","862749","862749","862749","862749","862749","862749","862749","862749","862749","762c46","64233a","64233a","64233a","64233a","64233a","64233a","64233a","762c46","862749","862749","862749","862749","862749","862749","862749","862749","862749","862749","862749","862749","862749","862749","762c46","762c46","862749","862749","862749","64233a","ff005e","ff005e","ff005e","ff005e","ff005e","ff005e","ff005e","ff005e","ff005e","ff005e","ff005e","ff005e","ff005e","ff005e","ff005e","ff005e","ff005e","ff005e"],
    ["ffffff","ffffff","ffffff","ff005e","ff005e","ff005e","ff005e","ff005e","ff005e","ff005e","ff005e","ff005e","ff005e","ff005e","ff005e","64233a","64233a","64233a","64233a","64233a","762c46","762c46","862749","862749","862749","862749","862749","862749","862749","862749","862749","862749","862749","862749","862749","862749","862749","762c46","64233a","64233a","64233a","64233a","64233a","64233a","64233a","762c46","862749","862749","862749","862749","862749","862749","862749","862749","862749","762c46","762c46","762c46","762c46","762c46","762c46","762c46","862749","862749","64233a","ff005e","ff005e","ff005e","ff005e","ff005e","ff005e","ff005e","ff005e","ff005e","ff005e","ff005e","ff005e","ff005e","ff005e","ff005e","ff005e","ff005e","ff005e","ff005e"],
    ["ffffff","ffffff","ffffff","ff005e","ff005e","ff005e","ff005e","ff005e","ff005e","ff005e","ff005e","ff005e","ff005e","ff005e","ff005e","ff005e","64233a","64233a","64233a","64233a","64233a","762c46","762c46","762c46","64233a","64233a","762c46","862749","862749","862749","862749","862749","862749","862749","862749","862749","762c46","64233a","64233a","64233a","64233a","64233a","64233a","64233a","64233a","64233a","762c46","862749","862749","862749","862749","862749","862749","862749","762c46","762c46","762c46","762c46","762c46","762c46","762c46","862749","862749","762c46","64233a","ff005e","ff005e","ff005e","ff005e","ff005e","ff005e","ff005e","ff005e","ff005e","ff005e","ff005e","ff005e","ff005e","ff005e","ff005e","ff005e","ff005e","ff005e","ff005e"],
    ["ffffff","ffffff","ffffff","ffffff","ff005e","ff005e","ff005e","ff005e","ff005e","ff005e","ff005e","ff005e","ff005e","ff005e","ff005e","ff005e","64233a","64233a","64233a","64233a","64233a","64233a","64233a","64233a","64233a","64233a","64233a","64233a","64233a","64233a","862749","862749","862749","862749","862749","862749","64233a","64233a","64233a","64233a","64233a","64233a","64233a","64233a","64233a","64233a","64233a","862749","862749","862749","862749","862749","64233a","64233a","64233a","64233a","64233a","64233a","64233a","64233a","862749","762c46","762c46","64233a","ff005e","ff005e","ff005e","ff005e","ff005e","ff005e","ff005e","ff005e","ff005e","ff005e","ff005e","ff005e","ff005e","ff005e","ff005e","ff005e","ff005e","ff005e","ff005e","ff005e"],
    ["ffffff","ffffff","ffffff","ffffff","ff005e","ff005e","ff005e","ff005e","ff005e","ff005e","ff005e","ff005e","ff005e","ff005e","ff005e","ff005e","ff005e","64233a","64233a","762c46","64233a","64233a","64233a","762c46","762c46","64233a","64233a","64233a","64233a","64233a","762c46","762c46","762c46","762c46","762c46","64233a","64233a","64233a","64233a","64233a","64233a","64233a","64233a","64233a","64233a","64233a","64233a","64233a","762c46","762c46","762c46","64233a","64233a","64233a","64233a","64233a","64233a","64233a","64233a","762c46","762c46","762c46","ff005e","ff005e","ff005e","ff005e","ff005e","ff005e","ff005e","ff005e","ff005e","ff005e","ff005e","ff005e","ff005e","ff005e","ff005e","ff005e","ff005e","ff005e","ff005e","ff005e","ff005e","ffffff"],
    ["ffffff","ffffff","ffffff","ffffff","ffffff","ff005e","ff005e","ff005e","ff005e","ff005e","ff005e","ff005e","ff005e","ff005e","ff005e","ff005e","ff005e","ff005e","64233a","64233a","762c46","762c46","762c46","762c46","762c46","762c46","762c46","64233a","64233a","64233a","64233a","762c46","762c46","762c46","762c46","64233a","64233a","64233a","5b1930","5b1930","5b1930","5b1930","5b1930","5b1930","5b1930","5b1930","5b1930","64233a","762c46","762c46","64233a","64233a","64233a","64233a","762c46","762c46","762c46","762c46","762c46","762c46","ff005e","ff005e","ff005e","ff005e","ff005e","ff005e","ff005e","ff005e","ff005e","ff005e","ff005e","ff005e","ff005e","ff005e","ff005e","ff005e","ff005e","ff005e","ff005e","ff005e","ff005e","ff005e","ff005e","ffffff"],
    ["ffffff","ffffff","ffffff","ffffff","ffffff","ff005e","ff005e","ff005e","ff005e","ff005e","ff005e","ff005e","ff005e","ff005e","ff005e","ff005e","ff005e","ff005e","ff005e","ff005e","64233a","762c46","762c46","762c46","762c46","762c46","762c46","762c46","64233a","64233a","64233a","64233a","762c46","762c46","762c46","762c46","5b1930","5b1930","5b1930","5b1930","5b1930","5b1930","5b1930","5b1930","5b1930","5b1930","5b1930","762c46","762c46","762c46","64233a","64233a","64233a","762c46","762c46","762c46","762c46","762c46","ff005e","ff005e","ff005e","ff005e","ff005e","ff005e","ff005e","ff005e","ff005e","ff005e","ff005e","ff005e","ff005e","ff005e","ff005e","ff005e","ff005e","ff005e","ff005e","ff005e","ff005e","ff005e","ff005e","ff005e","ffffff","ffffff"],
    ["ffffff","ffffff","ffffff","ffffff","ffffff","ffffff","ff005e","ff005e","ff005e","ff005e","ff005e","ff005e","ff005e","ff005e","ff005e","ff005e","ff005e","ff005e","ff005e","ff005e","ff005e","ff005e","ff005e","ff005e","64233a","762c46","762c46","762c46","762c46","762c46","64233a","64233a","762c46","762c46","762c46","762c46","762c46","5b1930","5b1930","5b1930","5b1930","5b1930","5b1930","5b1930","5b1930","5b1930","733c4f","762c46","762c46","64233a","64233a","64233a","762c46","762c46","762c46","762c46","ff005e","ff005e","ff005e","ff005e","ff005e","ff005e","ff005e","ff005e","ff005e","ff005e","ff005e","ff005e","ff005e","ff005e","ff005e","ff005e","ff005e","ff005e","ff005e","ff005e","ff005e","ff005e","ff005e","ff005e","ff005e","ffffff","ffffff","ffffff"],
    ["ffffff","ffffff","ffffff","ffffff","ffffff","ffffff","ffffff","ff005e","ff005e","ff005e","ff005e","ff005e","ff005e","ff005e","ff005e","ff005e","ff005e","ff005e","ff005e","ff005e","ff005e","ff005e","ff005e","ff005e","ff005e","64233a","762c46","762c46","762c46","762c46","64233a","64233a","762c46","762c46","762c46","762c46","762c46","762c46","5b1930","5b1930","5b1930","5b1930","5b1930","5b1930","5b1930","63434d","762c46","762c46","762c46","64233a","64233a","64233a","762c46","762c46","762c46","ff005e","ff005e","ff005e","ff005e","ff005e","ff005e","ff005e","ff005e","ff005e","ff005e","ff005e","ff005e","ff005e","ff005e","ff005e","ff005e","ff005e","ff005e","ff005e","ff005e","ff005e","ff005e","ff005e","ff005e","ff005e","ff005e","ffffff","ffffff","ffffff"],
    ["ffffff","ffffff","ffffff","ffffff","ffffff","ffffff","ffffff","ff005e","ff005e","ff005e","ff005e","ff005e","ff005e","ff005e","ff005e","ff005e","ff005e","ff005e","ff005e","ff005e","ff005e","ff005e","ff005e","ff005e","ff005e","ff005e","ff005e","762c46","762c46","762c46","762c46","64233a","762c46","762c46","762c46","762c46","762c46","762c46","762c46","471c2b","471c2b","471c2b","471c2b","471c2b","63434d","762c46","762c46","762c46","762c46","64233a","762c46","762c46","762c46","762c46","762c46","ff005e","ff005e","ff005e","ff005e","ff005e","ff005e","ff005e","ff005e","ff005e","ff005e","ff005e","ff005e","ff005e","ff005e","ff005e","ff005e","ff005e","ff005e","ff005e","ff005e","ff005e","ff005e","ff005e","ff005e","ff005e","ffffff","ffffff","ffffff","ffffff"],
    ["ffffff","ffffff","ffffff","ffffff","ffffff","ffffff","ffffff","ffffff","ff005e","ff005e","ff005e","ff005e","ff005e","ff005e","ff005e","ff005e","ff005e","ff005e","ff005e","ff005e","ff005e","ff005e","ff005e","ff005e","ff005e","ff005e","ff005e","4d393f","4d393f","4d393f","4d393f","4d393f","64233a","4d393f","4d393f","4d393f","4d393f","4d393f","4d393f","4d393f","471c2b","471c2b","471c2b","63434d","4d393f","4d393f","4d393f","4d393f","4d393f","64233a","4d393f","4d393f","4d393f","4d393f","ff005e","ff005e","ff005e","ff005e","ff005e","ff005e","ff005e","ff005e","ff005e","ff005e","ff005e","ff005e","ff005e","ff005e","ff005e","ff005e","ff005e","ff005e","ff005e","ff005e","ff005e","ff005e","ff005e","ff005e","ff005e","ffffff","ffffff","ffffff","ffffff","ffffff"],
    ["ffffff","ffffff","ffffff","ffffff","ffffff","ffffff","ffffff","ffffff","ffffff","ff005e","ff005e","ff005e","ff005e","ff005e","ff005e","ff005e","ff005e","ff005e","ff005e","ff005e","ff005e","ff005e","ff005e","ff005e","ff005e","ff005e","ff005e","4d393f","402b32","4d393f","4d393f","4d393f","402b32","4d393f","4d393f","4d393f","4d393f","4d393f","4d393f","4d393f","4d393f","4d393f","4d393f","4d393f","4d393f","4d393f","4d393f","4d393f","4d393f","402b32","4d393f","4d393f","4d393f","4d393f","ff005e","ff005e","ff005e","ff005e","ff005e","ff005e","ff005e","ff005e","ff005e","ff005e","ff005e","ff005e","ff005e","ff005e","ff005e","ff005e","ff005e","ff005e","ff005e","ff005e","ff005e","ff005e","ff005e","ff005e","ffffff","ffffff","ffffff","ffffff","ffffff","ffffff"],
    ["ffffff","ffffff","ffffff","ffffff","ffffff","ffffff","ffffff","ffffff","ffffff","ffffff","ff005e","ff005e","ff005e","ff005e","ff005e","ff005e","ff005e","ff005e","ff005e","ff005e","ff005e","ff005e","ff005e","ff005e","ff005e","ff005e","ff005e","ff005e","402b32","402b32","4d393f","4d393f","4d393f","4d393f","4d393f","4d393f","4d393f","4d393f","4d393f","4d393f","4d393f","4d393f","4d393f","4d393f","4d393f","4d393f","4d393f","4d393f","4d393f","4d393f","4d393f","4d393f","4d393f","402b32","4d393f","ff005e","ff005e","ff005e","ff005e","ff005e","ff005e","ff005e","ff005e","ff005e","ff005e","ff005e","ff005e","ff005e","ff005e","ff005e","ff005e","ff005e","ff005e","ff005e","ff005e","ff005e","ff005e","ffffff","ffffff","ffffff","ffffff","ffffff","ffffff","ffffff"],
    ["ffffff","ffffff","ffffff","ffffff","ffffff","ffffff","ffffff","ffffff","ffffff","ffffff","ffffff","ff005e","ff005e","ff005e","ff005e","ff005e","ff005e","ff005e","ff005e","ff005e","ff005e","ff005e","ff005e","ff005e","ff005e","ff005e","ff005e","ff005e","4d393f","402b32","4d393f","4d393f","4d393f","4d393f","4d393f","4d393f","4d393f","4d393f","4d393f","4d393f","4d393f","4d393f","4d393f","4d393f","4d393f","4d393f","4d393f","4d393f","4d393f","4d393f","4d393f","4d393f","402b32","4d393f","4d393f","ff005e","ff005e","ff005e","ff005e","ff005e","ff005e","ff005e","ff005e","ff005e","ff005e","ff005e","ff005e","ff005e","ff005e","ff005e","ff005e","ff005e","ff005e","ff005e","ff005e","ff005e","ffffff","ffffff","ffffff","ffffff","ffffff","ffffff","ffffff","ffffff"],
    ["ffffff","ffffff","ffffff","ffffff","ffffff","ffffff","ffffff","ffffff","ffffff","ffffff","ffffff","ffffff","ffffff","ff005e","ff005e","ff005e","ff005e","ff005e","ff005e","ff005e","ff005e","ff005e","ff005e","ff005e","ff005e","ff005e","ff005e","ff005e","4d393f","402b32","402b32","4d393f","3d3e3d","3d3e3d","3d3e3d","2e2f2e","2e2f2e","3d3e3d","3d3e3d","3d3e3d","3d3e3d","3d3e3d","3d3e3d","3d3e3d","3d3e3d","3d3e3d","3d3e3d","3d3e3d","3d3e3d","402b32","4d393f","4d393f","402b32","4d393f","4d393f","ff005e","ff005e","ff005e","ff005e","ff005e","ff005e","ff005e","ff005e","ff005e","ff005e","ff005e","ff005e","ff005e","ff005e","ff005e","ff005e","ff005e","ff005e","ff005e","ff005e","ffffff","ffffff","ffffff","ffffff","ffffff","ffffff","ffffff","ffffff","ffffff"],
    ["ffffff","ffffff","ffffff","ffffff","ffffff","ffffff","ffffff","ffffff","ffffff","ffffff","ffffff","ffffff","ffffff","ffffff","ff005e","ff005e","ff005e","ff005e","ff005e","ff005e","ff005e","ff005e","ff005e","ff005e","ff005e","ff005e","ff005e","ff005e","3d3e3d","3d3e3d","2e2f2e","2e2f2e","3d3e3d","3d3e3d","2e2f2e","2e2f2e","2e2f2e","3d3e3d","3d3e3d","3d3e3d","3d3e3d","3d3e3d","3d3e3d","3d3e3d","2e2f2e","3d3e3d","3d3e3d","3d3e3d","3d3e3d","2e2f2e","3d3e3d","3d3e3d","3d3e3d","402b32","3d3e3d","ff005e","ff005e","ff005e","ff005e","ff005e","ff005e","ff005e","ff005e","ff005e","ff005e","ff005e","ff005e","ff005e","ff005e","ff005e","ff005e","ff005e","ff005e","ff005e","ffffff","ffffff","ffffff","ffffff","ffffff","ffffff","ffffff","ffffff","ffffff","ffffff"],
    ["ffffff","ffffff","ffffff","ffffff","ffffff","ffffff","ffffff","ffffff","ffffff","ffffff","ffffff","ffffff","ffffff","ffffff","ffffff","ffffff","ff005e","ff005e","ff005e","ff005e","ff005e","ff005e","ff005e","ff005e","ff005e","ff005e","ff005e","ff005e","ff005e","3d3e3d","2e2f2e","2e2f2e","3d3e3d","3d3e3d","2e2f2e","2e2f2e","2e2f2e","3d3e3d","3d3e3d","3d3e3d","3d3e3d","3d3e3d","3d3e3d","2e2f2e","2e2f2e","2e2f2e","3d3e3d","3d3e3d","3d3e3d","2e2f2e","3d3e3d","3d3e3d","3d3e3d","2e2f2e","ff005e","ff005e","ff005e","ff005e","ff005e","ff005e","ff005e","ff005e","ff005e","ff005e","ff005e","ff005e","ff005e","ff005e","ff005e","ff005e","ff005e","ff005e","ffffff","ffffff","ffffff","ffffff","ffffff","ffffff","ffffff","ffffff","ffffff","ffffff","ffffff","ffffff"],
    ["ffffff","ffffff","ffffff","ffffff","ffffff","ffffff","ffffff","ffffff","ffffff","ffffff","ffffff","ffffff","ffffff","ffffff","ffffff","ffffff","ffffff","ffffff","ff005e","ff005e","ff005e","ff005e","ff005e","ff005e","ff005e","ff005e","ff005e","ff005e","ff005e","ff005e","3d3e3d","2e2f2e","3d3e3d","3d3e3d","2e2f2e","2e2f2e","2e2f2e","2e2f2e","3d3e3d","3d3e3d","3d3e3d","3d3e3d","3d3e3d","2e2f2e","2e2f2e","2e2f2e","3d3e3d","3d3e3d","3d3e3d","2e2f2e","2e2f2e","3d3e3d","3d3e3d","3d3e3d","ff005e","ff005e","ff005e","ff005e","ff005e","ff005e","ff005e","ff005e","ff005e","ff005e","ff005e","ff005e","ff005e","ff005e","ff005e","ff005e","ff005e","ffffff","ffffff","ffffff","ffffff","ffffff","ffffff","ffffff","ffffff","ffffff","ffffff","ffffff","ffffff","ffffff"],
    ["ffffff","ffffff","ffffff","ffffff","ffffff","ffffff","ffffff","ffffff","ffffff","ffffff","ffffff","ffffff","ffffff","ffffff","ffffff","ffffff","ffffff","ffffff","ffffff","ffffff","ff005e","ff005e","ff005e","ff005e","ff005e","ff005e","ff005e","ff005e","ff005e","ff005e","ff005e","2e2f2e","3d3e3d","2e2f2e","2e2f2e","2e2f2e","2e2f2e","2e2f2e","2e2f2e","3d3e3d","3d3e3d","3d3e3d","2e2f2e","2e2f2e","2e2f2e","2e2f2e","2e2f2e","3d3e3d","3d3e3d","2e2f2e","2e2f2e","2e2f2e","3d3e3d","3d3e3d","ff005e","ff005e","ff005e","ff005e","ff005e","ff005e","ff005e","ff005e","ff005e","ff005e","ff005e","ff005e","ff005e","ff005e","ff005e","ffffff","ffffff","ffffff","ffffff","ffffff","ffffff","ffffff","ffffff","ffffff","ffffff","ffffff","ffffff","ffffff","ffffff","ffffff"],
    ["ffffff","ffffff","ffffff","ffffff","ffffff","ffffff","ffffff","ffffff","ffffff","ffffff","ffffff","ffffff","ffffff","ffffff","ffffff","ffffff","ffffff","ffffff","ffffff","ffffff","ffffff","ffffff","ffffff","ffffff","ff005e","ff005e","ff005e","ff005e","ff005e","ff005e","ff005e","ff005e","3d3e3d","3d3e3d","2e2f2e","2e2f2e","2e2f2e","2e2f2e","2e2f2e","3d3e3d","3d3e3d","3d3e3d","2e2f2e","2e2f2e","2e2f2e","2e2f2e","2e2f2e","3d3e3d","3d3e3d","2e2f2e","2e2f2e","2e2f2e","3d3e3d","3d3e3d","ff005e","ff005e","ff005e","ff005e","ff005e","ff005e","ff005e","ff005e","ff005e","ff005e","ff005e","ff005e","ffffff","ffffff","ffffff","ffffff","ffffff","ffffff","ffffff","ffffff","ffffff","ffffff","ffffff","ffffff","ffffff","ffffff","ffffff","ffffff","ffffff","ffffff"],
    ["ffffff","ffffff","ffffff","ffffff","ffffff","ffffff","ffffff","ffffff","ffffff","ffffff","ffffff","ffffff","ffffff","ffffff","ffffff","ffffff","ffffff","ffffff","ffffff","ffffff","ffffff","ffffff","ffffff","ffffff","ffffff","ffffff","ffffff","ffffff","ffffff","ffffff","ffffff","ffffff","ffffff","3d3e3d","3d3e3d","2e2f2e","ffffff","2e2f2e","2e2f2e","2e2f2e","3d3e3d","3d3e3d","2e2f2e","2e2f2e","2e2f2e","2e2f2e","3d3e3d","3d3e3d","2e2f2e","2e2f2e","2e2f2e","3d3e3d","3d3e3d","ff005e","ff005e","ff005e","ff005e","ff005e","ff005e","ff005e","ff005e","ff005e","ffffff","ffffff","ffffff","ffffff","ffffff","ffffff","ffffff","ffffff","ffffff","ffffff","ffffff","ffffff","ffffff","ffffff","ffffff","ffffff","ffffff","ffffff","ffffff","ffffff","ffffff","ffffff"],
    ["ffffff","ffffff","ffffff","ffffff","ffffff","ffffff","ffffff","ffffff","ffffff","ffffff","ffffff","ffffff","ffffff","ffffff","ffffff","ffffff","ffffff","ffffff","ffffff","ffffff","ffffff","ffffff","ffffff","ffffff","ffffff","ffffff","ffffff","ffffff","ffffff","ffffff","ffffff","ffffff","ffffff","ffffff","3d3e3d","3d3e3d","ffffff","ffffff","ffffff","2e2f2e","3d3e3d","3d3e3d","2e2f2e","ffffff","ffffff","2e2f2e","3d3e3d","3d3e3d","ffffff","ffffff","ffffff","3d3e3d","ffffff","ffffff","ffffff","ffffff","ffffff","ffffff","ffffff","ffffff","ffffff","ffffff","ffffff","ffffff","ffffff","ffffff","ffffff","ffffff","ffffff","ffffff","ffffff","ffffff","ffffff","ffffff","ffffff","ffffff","ffffff","ffffff","ffffff","ffffff","ffffff","ffffff","ffffff","ffffff"],
    ["ffffff","ffffff","ffffff","ffffff","ffffff","ffffff","ffffff","ffffff","ffffff","ffffff","ffffff","ffffff","ffffff","ffffff","ffffff","ffffff","ffffff","ffffff","ffffff","ffffff","ffffff","ffffff","ffffff","ffffff","ffffff","ffffff","ffffff","ffffff","ffffff","ffffff","ffffff","ffffff","ffffff","ffffff","ffffff","ffffff","ffffff","ffffff","ffffff","ffffff","2e2f2e","3d3e3d","ffffff","ffffff","ffffff","3d3e3d","3d3e3d","ffffff","ffffff","ffffff","ffffff","ffffff","ffffff","ffffff","ffffff","ffffff","ffffff","ffffff","ffffff","ffffff","ffffff","ffffff","ffffff","ffffff","ffffff","ffffff","ffffff","ffffff","ffffff","ffffff","ffffff","ffffff","ffffff","ffffff","ffffff","ffffff","ffffff","ffffff","ffffff","ffffff","ffffff","ffffff","ffffff","ffffff"],
    ["ffffff","ffffff","ffffff","ffffff","ffffff","ffffff","ffffff","ffffff","ffffff","ffffff","ffffff","ffffff","ffffff","ffffff","ffffff","ffffff","ffffff","ffffff","ffffff","ffffff","ffffff","ffffff","ffffff","ffffff","ffffff","ffffff","ffffff","ffffff","ffffff","ffffff","ffffff","ffffff","ffffff","ffffff","ffffff","ffffff","ffffff","ffffff","ffffff","ffffff","ffffff","ffffff","ffffff","ffffff","ffffff","3d3e3d","ffffff","ffffff","ffffff","ffffff","ffffff","ffffff","ffffff","ffffff","ffffff","ffffff","ffffff","ffffff","ffffff","ffffff","ffffff","ffffff","ffffff","ffffff","ffffff","ffffff","ffffff","ffffff","ffffff","ffffff","ffffff","ffffff","ffffff","ffffff","ffffff","ffffff","ffffff","ffffff","ffffff","ffffff","ffffff","ffffff","ffffff","ffffff"]
]}
