{
  "title":"Mason Jar",
  "original-title":"",
  "author":"Clint Bellanger",
  "author-url":"https://opengameart.org/users/clint-bellanger",
  "source":"https://opengameart.org/content/recycle-items-set",
  "licence":"cc-by-3.0",
  "notice":"Image extracted from Recycle items art set",
  "difficulty":"easy",
  "grid":[
    ["ffffff","ffffff","000000","000000","000000","000000","000000","000000","000000","000000","000000","000000","000000","000000","000000","000000","000000","000000","000000","000000","000000","ffffff","ffffff"],
    ["ffffff","000000","cbdbfc","ffffff","ffffff","ffffff","ffffff","ffffff","cbdbfc","cbdbfc","cbdbfc","cbdbfc","37946e","306082","306082","37946e","37946e","37946e","37946e","cbdbfc","5fcde4","000000","ffffff"],
    ["ffffff","ffffff","000000","37946e","37946e","5fcde4","5fcde4","5fcde4","5fcde4","37946e","37946e","37946e","5fcde4","5fcde4","5fcde4","5fcde4","5fcde4","5fcde4","5fcde4","5fcde4","000000","ffffff","ffffff"],
    ["ffffff","000000","cbdbfc","ffffff","ffffff","cbdbfc","ffffff","ffffff","ffffff","cbdbfc","5fcde4","5fcde4","5fcde4","5fcde4","37946e","306082","306082","37946e","37946e","cbdbfc","5fcde4","000000","ffffff"],
    ["ffffff","ffffff","000000","37946e","37946e","5fcde4","5fcde4","5fcde4","5fcde4","37946e","37946e","37946e","37946e","37946e","5fcde4","cbdbfc","cbdbfc","cbdbfc","cbdbfc","cbdbfc","000000","ffffff","ffffff"],
    ["ffffff","ffffff","000000","ffffff","ffffff","ffffff","ffffff","ffffff","ffffff","ffffff","5fcde4","37946e","306082","306082","306082","306082","306082","306082","37946e","37946e","000000","ffffff","ffffff"],
    ["ffffff","000000","cbdbfc","5fcde4","5fcde4","5fcde4","5fcde4","5fcde4","5fcde4","cbdbfc","cbdbfc","5fcde4","5fcde4","5fcde4","5fcde4","5fcde4","5fcde4","5fcde4","306082","306082","5fcde4","000000","ffffff"],
    ["000000","cbdbfc","cbdbfc","37946e","37946e","5fcde4","5fcde4","5fcde4","cbdbfc","cbdbfc","cbdbfc","cbdbfc","5fcde4","5fcde4","5fcde4","5fcde4","5fcde4","5fcde4","5fcde4","306082","306082","5fcde4","000000"],
    ["000000","cbdbfc","37946e","37946e","37946e","ffffff","ffffff","ffffff","ffffff","cbdbfc","cbdbfc","cbdbfc","5fcde4","5fcde4","cbdbfc","5fcde4","5fcde4","5fcde4","5fcde4","37946e","37946e","cbdbfc","000000"],
    ["000000","cbdbfc","37946e","37946e","ffffff","ffffff","ffffff","ffffff","cbdbfc","cbdbfc","cbdbfc","cbdbfc","5fcde4","5fcde4","cbdbfc","5fcde4","cbdbfc","5fcde4","5fcde4","37946e","37946e","cbdbfc","000000"],
    ["000000","cbdbfc","306082","ffffff","ffffff","ffffff","cbdbfc","cbdbfc","cbdbfc","cbdbfc","cbdbfc","cbdbfc","5fcde4","5fcde4","ffffff","5fcde4","cbdbfc","cbdbfc","5fcde4","37946e","37946e","cbdbfc","000000"],
    ["000000","cbdbfc","306082","5fcde4","ffffff","ffffff","ffffff","cbdbfc","cbdbfc","cbdbfc","cbdbfc","cbdbfc","5fcde4","5fcde4","ffffff","5fcde4","ffffff","cbdbfc","5fcde4","37946e","37946e","cbdbfc","000000"],
    ["000000","cbdbfc","306082","5fcde4","ffffff","ffffff","ffffff","cbdbfc","cbdbfc","cbdbfc","cbdbfc","cbdbfc","5fcde4","5fcde4","ffffff","5fcde4","ffffff","cbdbfc","5fcde4","37946e","37946e","cbdbfc","000000"],
    ["000000","cbdbfc","306082","5fcde4","ffffff","ffffff","ffffff","cbdbfc","cbdbfc","cbdbfc","cbdbfc","cbdbfc","5fcde4","5fcde4","ffffff","5fcde4","ffffff","cbdbfc","5fcde4","37946e","37946e","cbdbfc","000000"],
    ["000000","cbdbfc","306082","5fcde4","ffffff","ffffff","ffffff","cbdbfc","cbdbfc","cbdbfc","cbdbfc","cbdbfc","5fcde4","5fcde4","ffffff","5fcde4","ffffff","cbdbfc","5fcde4","37946e","37946e","cbdbfc","000000"],
    ["000000","cbdbfc","306082","5fcde4","ffffff","ffffff","ffffff","cbdbfc","cbdbfc","cbdbfc","cbdbfc","cbdbfc","5fcde4","5fcde4","ffffff","5fcde4","ffffff","cbdbfc","5fcde4","37946e","37946e","cbdbfc","000000"],
    ["000000","cbdbfc","306082","5fcde4","ffffff","ffffff","ffffff","cbdbfc","cbdbfc","cbdbfc","cbdbfc","cbdbfc","5fcde4","5fcde4","ffffff","5fcde4","ffffff","cbdbfc","5fcde4","37946e","37946e","cbdbfc","000000"],
    ["000000","cbdbfc","306082","5fcde4","ffffff","ffffff","ffffff","cbdbfc","cbdbfc","cbdbfc","cbdbfc","cbdbfc","5fcde4","5fcde4","ffffff","5fcde4","ffffff","cbdbfc","5fcde4","37946e","37946e","cbdbfc","000000"],
    ["000000","cbdbfc","306082","5fcde4","ffffff","ffffff","ffffff","cbdbfc","cbdbfc","cbdbfc","cbdbfc","cbdbfc","5fcde4","5fcde4","ffffff","5fcde4","ffffff","cbdbfc","5fcde4","37946e","37946e","cbdbfc","000000"],
    ["000000","cbdbfc","306082","5fcde4","ffffff","ffffff","ffffff","cbdbfc","cbdbfc","cbdbfc","cbdbfc","cbdbfc","5fcde4","5fcde4","ffffff","5fcde4","ffffff","cbdbfc","5fcde4","37946e","37946e","cbdbfc","000000"],
    ["000000","cbdbfc","306082","5fcde4","ffffff","ffffff","ffffff","cbdbfc","cbdbfc","cbdbfc","cbdbfc","cbdbfc","5fcde4","5fcde4","ffffff","5fcde4","ffffff","cbdbfc","5fcde4","37946e","37946e","cbdbfc","000000"],
    ["000000","cbdbfc","306082","5fcde4","ffffff","ffffff","ffffff","cbdbfc","cbdbfc","cbdbfc","cbdbfc","cbdbfc","5fcde4","5fcde4","ffffff","5fcde4","ffffff","cbdbfc","5fcde4","37946e","37946e","cbdbfc","000000"],
    ["000000","cbdbfc","306082","5fcde4","ffffff","ffffff","ffffff","cbdbfc","cbdbfc","cbdbfc","cbdbfc","cbdbfc","5fcde4","5fcde4","ffffff","5fcde4","ffffff","cbdbfc","5fcde4","37946e","37946e","cbdbfc","000000"],
    ["000000","cbdbfc","306082","5fcde4","ffffff","ffffff","ffffff","cbdbfc","cbdbfc","cbdbfc","cbdbfc","cbdbfc","5fcde4","5fcde4","ffffff","5fcde4","ffffff","cbdbfc","5fcde4","37946e","37946e","cbdbfc","000000"],
    ["000000","cbdbfc","306082","5fcde4","ffffff","ffffff","ffffff","cbdbfc","cbdbfc","cbdbfc","cbdbfc","cbdbfc","5fcde4","5fcde4","ffffff","5fcde4","ffffff","cbdbfc","5fcde4","37946e","37946e","cbdbfc","000000"],
    ["000000","cbdbfc","306082","5fcde4","ffffff","ffffff","ffffff","cbdbfc","cbdbfc","cbdbfc","cbdbfc","cbdbfc","5fcde4","5fcde4","ffffff","5fcde4","ffffff","cbdbfc","5fcde4","37946e","37946e","cbdbfc","000000"],
    ["000000","cbdbfc","306082","5fcde4","5fcde4","cbdbfc","ffffff","cbdbfc","cbdbfc","cbdbfc","cbdbfc","cbdbfc","5fcde4","5fcde4","ffffff","5fcde4","cbdbfc","cbdbfc","5fcde4","37946e","37946e","cbdbfc","000000"],
    ["000000","cbdbfc","37946e","37946e","5fcde4","5fcde4","5fcde4","5fcde4","cbdbfc","cbdbfc","cbdbfc","cbdbfc","5fcde4","5fcde4","cbdbfc","5fcde4","cbdbfc","5fcde4","5fcde4","37946e","37946e","cbdbfc","000000"],
    ["000000","cbdbfc","37946e","37946e","5fcde4","5fcde4","5fcde4","5fcde4","5fcde4","5fcde4","5fcde4","5fcde4","5fcde4","5fcde4","5fcde4","5fcde4","5fcde4","5fcde4","5fcde4","37946e","37946e","cbdbfc","000000"],
    ["000000","cbdbfc","37946e","37946e","37946e","5fcde4","5fcde4","5fcde4","ffffff","ffffff","ffffff","ffffff","ffffff","ffffff","5fcde4","5fcde4","5fcde4","37946e","37946e","37946e","37946e","cbdbfc","000000"],
    ["000000","cbdbfc","306082","37946e","37946e","37946e","37946e","37946e","37946e","37946e","37946e","37946e","37946e","37946e","37946e","37946e","37946e","37946e","37946e","306082","5fcde4","cbdbfc","000000"],
    ["000000","cbdbfc","cbdbfc","3f3f74","306082","306082","306082","306082","306082","306082","306082","306082","306082","306082","306082","306082","306082","306082","306082","3f3f74","cbdbfc","cbdbfc","000000"],
    ["ffffff","000000","37946e","cbdbfc","3f3f74","3f3f74","3f3f74","3f3f74","3f3f74","306082","306082","306082","306082","306082","306082","3f3f74","3f3f74","3f3f74","3f3f74","cbdbfc","37946e","000000","ffffff"],
    ["ffffff","000000","306082","37946e","cbdbfc","cbdbfc","cbdbfc","ffffff","ffffff","ffffff","ffffff","ffffff","ffffff","ffffff","ffffff","cbdbfc","cbdbfc","cbdbfc","cbdbfc","37946e","306082","000000","ffffff"],
    ["ffffff","ffffff","000000","000000","000000","000000","000000","000000","000000","000000","000000","000000","000000","000000","000000","000000","000000","000000","000000","000000","000000","ffffff","ffffff"]
]}