{
  "title":"Earth Elemental",
  "original-title":"48x48 Faces 3rd Sheet",
  "author":"CharlesGabriel",
  "author-url":"http://cgartsenal.blogspot.com/",
  "source":"http://opengameart.org/content/48x48-faces-3rd-sheet",
  "licence":"cc-by-3.0",
  "notice":"Art by Charles Gabriel. Commissioned by OpenGameArt.org (http://opengameart.org)",
  "difficulty":"hard",
  "grid":[
    ["9c5a29","9c5a29","9c5a29","9c5a29","9c5a29","9c5a29","9c5a29","7b3918","5a2920","5a2920","5a2920","5a2920","5a2920","5a2920","5a2920","5a2920","5a2920","5a2920","5a2920","5a2920","5a2920","7b3918","7b3918","7b3918","7b3918","7b3918","7b3918","7b3918","5a2920","5a2920","5a2920","5a2920","5a2920","5a2920","5a2920","5a2920","5a2920","5a2920","5a2920","5a2920","7b3918","9c5a29","9c5a29","d58341","d58341","d58341","d58341","d58341"],
    ["5a2920","9c5a29","9c5a29","9c5a29","9c5a29","9c5a29","9c5a29","9c5a29","7b3918","5a2920","5a2920","5a2920","5a2920","5a2920","5a2920","5a2920","5a2920","5a2920","7b3918","7b3918","7b3918","7b3918","7b3918","7b3918","7b3918","7b3918","7b3918","7b3918","7b3918","7b3918","7b3918","5a2920","5a2920","5a2920","5a2920","5a2920","5a2920","5a2920","5a2920","7b3918","9c5a29","9c5a29","d58341","d58341","d58341","d58341","d58341","5a2920"],
    ["5a2920","7b3918","9c5a29","9c5a29","9c5a29","9c5a29","9c5a29","9c5a29","9c5a29","7b3918","5a2920","5a2920","5a2920","5a2920","5a2920","5a2920","7b3918","7b3918","7b3918","7b3918","7b3918","7b3918","7b3918","7b3918","7b3918","7b3918","7b3918","7b3918","7b3918","7b3918","7b3918","7b3918","7b3918","5a2920","5a2920","5a2920","5a2920","5a2920","7b3918","9c5a29","9c5a29","d58341","d58341","d58341","d58341","d58341","9c5a29","5a2920"],
    ["cdd5ee","5a2920","9c5a29","9c5a29","9c5a29","9c5a29","9c5a29","9c5a29","9c5a29","7b3918","5a2920","5a2920","5a2920","5a2920","7b3918","7b3918","7b3918","7b3918","7b3918","7b3918","7b3918","7b3918","7b3918","7b3918","7b3918","7b3918","7b3918","7b3918","7b3918","7b3918","7b3918","7b3918","7b3918","7b3918","7b3918","5a2920","5a2920","5a2920","7b3918","9c5a29","d58341","d58341","d58341","d58341","d58341","9c5a29","5a2920","cdd5ee"],
    ["cdd5ee","5a2920","7b3918","9c5a29","9c5a29","9c5a29","9c5a29","9c5a29","9c5a29","9c5a29","5a2920","5a2920","5a2920","7b3918","7b3918","7b3918","9c5a29","9c5a29","9c5a29","9c5a29","7b3918","7b3918","7b3918","7b3918","7b3918","7b3918","7b3918","7b3918","7b3918","7b3918","9c5a29","9c5a29","9c5a29","7b3918","7b3918","7b3918","5a2920","5a2920","9c5a29","9c5a29","d58341","d58341","d58341","d58341","d58341","7b3918","5a2920","cdd5ee"],
    ["cdd5ee","cdd5ee","5a2920","9c5a29","9c5a29","9c5a29","9c5a29","9c5a29","9c5a29","9c5a29","7b3918","5a2920","5a2920","5a2920","5a2920","9c5a29","9c5a29","9c5a29","9c5a29","9c5a29","9c5a29","9c5a29","7b3918","7b3918","7b3918","7b3918","7b3918","7b3918","9c5a29","9c5a29","9c5a29","9c5a29","9c5a29","9c5a29","7b3918","5a2920","5a2920","7b3918","9c5a29","9c5a29","9c5a29","d58341","d58341","d58341","9c5a29","5a2920","cdd5ee","cdd5ee"],
    ["cdd5ee","cdd5ee","5a2920","7b3918","9c5a29","9c5a29","9c5a29","9c5a29","9c5a29","9c5a29","5a2920","7b3918","5a2920","7b3918","9c5a29","9c5a29","9c5a29","9c5a29","9c5a29","9c5a29","9c5a29","9c5a29","9c5a29","9c5a29","9c5a29","9c5a29","9c5a29","9c5a29","9c5a29","9c5a29","9c5a29","9c5a29","9c5a29","9c5a29","9c5a29","5a2920","7b3918","5a2920","9c5a29","9c5a29","9c5a29","9c5a29","9c5a29","9c5a29","7b3918","5a2920","cdd5ee","cdd5ee"],
    ["cdd5ee","cdd5ee","5a2920","5a2920","7b3918","7b3918","9c5a29","9c5a29","9c5a29","7b3918","5a2920","5a2920","7b3918","9c5a29","9c5a29","9c5a29","9c5a29","9c5a29","9c5a29","9c5a29","9c5a29","9c5a29","9c5a29","9c5a29","9c5a29","9c5a29","9c5a29","9c5a29","9c5a29","9c5a29","9c5a29","9c5a29","9c5a29","9c5a29","9c5a29","7b3918","5a2920","5a2920","7b3918","9c5a29","9c5a29","9c5a29","9c5a29","7b3918","5a2920","5a2920","cdd5ee","cdd5ee"],
    ["cdd5ee","cdd5ee","cdd5ee","7b3918","5a2920","5a2920","5a2920","7b3918","7b3918","5a2920","5a2920","7b3918","9c5a29","9c5a29","9c5a29","9c5a29","d58341","d58341","d58341","9c5a29","9c5a29","9c5a29","9c5a29","9c5a29","9c5a29","9c5a29","9c5a29","9c5a29","9c5a29","9c5a29","9c5a29","9c5a29","9c5a29","9c5a29","9c5a29","9c5a29","7b3918","5a2920","5a2920","7b3918","9c5a29","5a2920","5a2920","5a2920","7b3918","cdd5ee","cdd5ee","cdd5ee"],
    ["cdd5ee","cdd5ee","cdd5ee","5a2920","7b3918","7b3918","7b3918","7b3918","5a2920","5a2920","7b3918","7b3918","9c5a29","9c5a29","9c5a29","d58341","d58341","d58341","d58341","d58341","d58341","d58341","9c5a29","9c5a29","9c5a29","9c5a29","9c5a29","9c5a29","9c5a29","9c5a29","9c5a29","9c5a29","d58341","d58341","d58341","9c5a29","9c5a29","7b3918","5a2920","5a2920","7b3918","9c5a29","9c5a29","7b3918","5a2920","cdd5ee","cdd5ee","cdd5ee"],
    ["cdd5ee","cdd5ee","cdd5ee","5a2920","5a2920","5a2920","5a2920","5a2920","5a2920","7b3918","7b3918","9c5a29","9c5a29","9c5a29","9c5a29","d58341","d58341","d58341","d58341","d58341","d58341","d58341","d58341","d58341","9c5a29","9c5a29","9c5a29","9c5a29","9c5a29","9c5a29","d58341","d58341","d58341","d58341","d58341","d58341","9c5a29","9c5a29","7b3918","5a2920","5a2920","5a2920","5a2920","5a2920","5a2920","cdd5ee","cdd5ee","cdd5ee"],
    ["cdd5ee","cdd5ee","5a2920","5a2920","7b3918","5a2920","7b3918","7b3918","7b3918","7b3918","7b3918","9c5a29","9c5a29","9c5a29","d58341","d58341","d58341","d58341","d58341","d58341","d58341","d58341","d58341","d58341","d58341","d58341","d58341","d58341","d58341","d58341","d58341","d58341","d58341","d58341","d58341","d58341","d58341","9c5a29","9c5a29","9c5a29","7b3918","7b3918","5a2920","7b3918","5a2920","5a2920","cdd5ee","cdd5ee"],
    ["cdd5ee","cdd5ee","5a2920","7b3918","7b3918","5a2920","7b3918","7b3918","7b3918","7b3918","7b3918","9c5a29","9c5a29","9c5a29","d58341","d58341","d58341","d58341","d58341","d58341","d58341","d58341","d58341","d58341","d58341","d58341","d58341","d58341","d58341","d58341","d58341","d58341","d58341","d58341","d58341","d58341","d58341","9c5a29","9c5a29","9c5a29","9c5a29","7b3918","5a2920","7b3918","9c5a29","5a2920","cdd5ee","cdd5ee"],
    ["cdd5ee","5a2920","7b3918","7b3918","9c5a29","5a2920","7b3918","7b3918","7b3918","7b3918","7b3918","9c5a29","9c5a29","9c5a29","d58341","d58341","d58341","d58341","d58341","d58341","d58341","d58341","d58341","d58341","d58341","d58341","d58341","d58341","d58341","d58341","d58341","d58341","d58341","d58341","d58341","d58341","d58341","d58341","9c5a29","9c5a29","9c5a29","7b3918","5a2920","9c5a29","d58341","9c5a29","5a2920","cdd5ee"],
    ["cdd5ee","5a2920","7b3918","7b3918","9c5a29","5a2920","7b3918","7b3918","7b3918","7b3918","7b3918","9c5a29","9c5a29","9c5a29","d58341","d58341","d58341","d58341","d58341","d58341","d58341","d58341","d58341","d58341","d58341","d58341","d58341","d58341","d58341","d58341","d58341","d58341","d58341","d58341","d58341","d58341","d58341","d58341","9c5a29","9c5a29","9c5a29","7b3918","5a2920","9c5a29","d58341","d58341","5a2920","cdd5ee"],
    ["cdd5ee","5a2920","7b3918","9c5a29","9c5a29","5a2920","7b3918","7b3918","7b3918","7b3918","7b3918","7b3918","9c5a29","9c5a29","9c5a29","d58341","d58341","d58341","d58341","d58341","d58341","d58341","d58341","d58341","d58341","d58341","d58341","d58341","d58341","d58341","d58341","d58341","d58341","d58341","d58341","d58341","d58341","d58341","9c5a29","9c5a29","9c5a29","7b3918","5a2920","d58341","d58341","d58341","5a2920","cdd5ee"],
    ["cdd5ee","5a2920","7b3918","9c5a29","9c5a29","5a2920","7b3918","7b3918","7b3918","7b3918","7b3918","7b3918","9c5a29","9c5a29","9c5a29","d58341","d58341","d58341","d58341","d58341","d58341","d58341","d58341","d58341","d58341","d58341","d58341","d58341","d58341","d58341","d58341","d58341","d58341","d58341","d58341","d58341","d58341","9c5a29","9c5a29","9c5a29","7b3918","7b3918","5a2920","d58341","d58341","d58341","5a2920","cdd5ee"],
    ["cdd5ee","5a2920","7b3918","9c5a29","9c5a29","7b3918","5a2920","7b3918","7b3918","7b3918","7b3918","7b3918","7b3918","9c5a29","9c5a29","9c5a29","d58341","d58341","d58341","d58341","d58341","d58341","d58341","d58341","d58341","d58341","d58341","d58341","d58341","d58341","d58341","d58341","d58341","d58341","d58341","d58341","9c5a29","9c5a29","9c5a29","7b3918","7b3918","5a2920","7b3918","d58341","d58341","9c5a29","5a2920","cdd5ee"],
    ["cdd5ee","cdd5ee","5a2920","7b3918","9c5a29","9c5a29","5a2920","7b3918","7b3918","7b3918","7b3918","7b3918","7b3918","9c5a29","9c5a29","9c5a29","9c5a29","d58341","d58341","d58341","d58341","d58341","d58341","d58341","d58341","d58341","d58341","d58341","d58341","d58341","d58341","d58341","d58341","d58341","d58341","9c5a29","9c5a29","7b3918","7b3918","7b3918","7b3918","5a2920","9c5a29","d58341","9c5a29","5a2920","cdd5ee","cdd5ee"],
    ["cdd5ee","cdd5ee","5a2920","7b3918","9c5a29","9c5a29","7b3918","5a2920","7b3918","7b3918","7b3918","7b3918","7b3918","7b3918","7b3918","9c5a29","9c5a29","9c5a29","d58341","d58341","d58341","d58341","d58341","d58341","d58341","d58341","d58341","d58341","d58341","d58341","d58341","d58341","d58341","d58341","9c5a29","7b3918","7b3918","7b3918","7b3918","7b3918","5a2920","7b3918","9c5a29","9c5a29","9c5a29","5a2920","cdd5ee","cdd5ee"],
    ["cdd5ee","cdd5ee","5a2920","7b3918","7b3918","9c5a29","7b3918","5a2920","7b3918","7b3918","7b3918","5a2920","5a2920","5a2920","5a2920","7b3918","9c5a29","9c5a29","d58341","d58341","d58341","d58341","d58341","d58341","d58341","d58341","d58341","d58341","d58341","d58341","d58341","d58341","9c5a29","5a2920","5a2920","5a2920","5a2920","7b3918","7b3918","7b3918","5a2920","9c5a29","9c5a29","7b3918","7b3918","5a2920","cdd5ee","cdd5ee"],
    ["cdd5ee","cdd5ee","cdd5ee","5a2920","7b3918","5a2920","7b3918","7b3918","5a2920","7b3918","5a2920","5a2920","5a2920","5a2920","5a2920","5a2920","5a2920","9c5a29","9c5a29","d58341","d58341","d58341","d58341","d58341","d58341","d58341","d58341","d58341","d58341","d58341","9c5a29","5a2920","5a2920","5a2920","5a2920","5a2920","5a2920","5a2920","7b3918","5a2920","7b3918","9c5a29","5a2920","7b3918","5a2920","cdd5ee","cdd5ee","cdd5ee"],
    ["cdd5ee","cdd5ee","cdd5ee","cdd5ee","5a2920","7b3918","7b3918","7b3918","5a2920","7b3918","7b3918","7b3918","7b3918","7b3918","7b3918","5a2920","5a2920","5a2920","5a2920","9c5a29","d58341","d58341","d58341","d58341","d58341","d58341","d58341","d58341","9c5a29","5a2920","5a2920","5a2920","5a2920","7b3918","7b3918","7b3918","7b3918","7b3918","7b3918","5a2920","7b3918","7b3918","9c5a29","5a2920","cdd5ee","cdd5ee","cdd5ee","cdd5ee"],
    ["cdd5ee","cdd5ee","cdd5ee","cdd5ee","cdd5ee","5a2920","5a2920","7b3918","5a2920","7b3918","7b3918","7b3918","7b3918","7b3918","7b3918","7b3918","7b3918","7b3918","5a2920","5a2920","5a2920","d58341","d58341","d58341","d58341","d58341","9c5a29","5a2920","5a2920","5a2920","7b3918","7b3918","7b3918","7b3918","7b3918","7b3918","7b3918","7b3918","7b3918","5a2920","7b3918","5a2920","5a2920","cdd5ee","cdd5ee","cdd5ee","cdd5ee","cdd5ee"],
    ["cdd5ee","5a2920","5a2920","5a2920","5a2920","7b3918","5a2920","5a2920","5a2920","7b3918","7b3918","5a2920","5a2920","5a2920","5a2920","5a2920","5a2920","5a2920","7b3918","7b3918","7b3918","9c5a29","d58341","d58341","d58341","d58341","d58341","9c5a29","7b3918","7b3918","5a2920","5a2920","5a2920","5a2920","5a2920","5a2920","5a2920","7b3918","7b3918","5a2920","5a2920","5a2920","9c5a29","5a2920","5a2920","5a2920","5a2920","cdd5ee"],
    ["cdd5ee","cdd5ee","5a2920","7b3918","9c5a29","9c5a29","5a2920","5a2920","5a2920","7b3918","7b3918","5a2920","5a2920","f6eee6","f6eee6","f6eee6","f6eee6","f6eee6","5a2920","7b3918","7b3918","9c5a29","d58341","d58341","d58341","d58341","d58341","d58341","7b3918","5a2920","f6eee6","f6eee6","f6eee6","f6eee6","f6eee6","5a2920","5a2920","7b3918","7b3918","5a2920","5a2920","5a2920","d58341","d58341","9c5a29","5a2920","cdd5ee","cdd5ee"],
    ["cdd5ee","cdd5ee","cdd5ee","5a2920","9c5a29","9c5a29","7b3918","5a2920","7b3918","5a2920","7b3918","7b3918","5a2920","f6eee6","f6eee6","f6eee6","f6eee6","5a2920","7b3918","7b3918","7b3918","7b3918","9c5a29","d58341","d58341","d58341","d58341","d58341","d58341","9c5a29","5a2920","f6eee6","f6eee6","f6eee6","f6eee6","5a2920","7b3918","7b3918","5a2920","7b3918","5a2920","9c5a29","d58341","d58341","5a2920","cdd5ee","cdd5ee","cdd5ee"],
    ["cdd5ee","cdd5ee","cdd5ee","cdd5ee","7b3918","9c5a29","9c5a29","5a2920","5a2920","5a2920","7b3918","7b3918","7b3918","5a2920","5a2920","7b3918","7b3918","7b3918","9c5a29","9c5a29","7b3918","7b3918","7b3918","d58341","d58341","d58341","d58341","d58341","d58341","d58341","9c5a29","9c5a29","9c5a29","5a2920","5a2920","7b3918","7b3918","7b3918","5a2920","5a2920","5a2920","d58341","d58341","9c5a29","cdd5ee","cdd5ee","cdd5ee","cdd5ee"],
    ["cdd5ee","cdd5ee","cdd5ee","cdd5ee","5a2920","9c5a29","9c5a29","5a2920","7b3918","5a2920","7b3918","7b3918","9c5a29","9c5a29","d58341","d58341","d58341","d58341","d58341","d58341","9c5a29","7b3918","7b3918","d58341","d58341","d58341","d58341","d58341","d58341","d58341","d58341","9c5a29","9c5a29","9c5a29","9c5a29","9c5a29","7b3918","7b3918","5a2920","7b3918","5a2920","d58341","d58341","5a2920","cdd5ee","cdd5ee","cdd5ee","cdd5ee"],
    ["cdd5ee","cdd5ee","cdd5ee","cdd5ee","5a2920","7b3918","9c5a29","9c5a29","7b3918","5a2920","7b3918","9c5a29","9c5a29","d58341","d58341","d58341","d58341","d58341","d58341","d58341","d58341","9c5a29","7b3918","d58341","d58341","d58341","d58341","d58341","d58341","d58341","d58341","d58341","d58341","d58341","9c5a29","9c5a29","9c5a29","7b3918","5a2920","7b3918","d58341","d58341","9c5a29","5a2920","cdd5ee","cdd5ee","cdd5ee","cdd5ee"],
    ["cdd5ee","cdd5ee","cdd5ee","cdd5ee","cdd5ee","5a2920","7b3918","9c5a29","5a2920","5a2920","7b3918","9c5a29","9c5a29","d58341","d58341","d58341","d58341","d58341","d58341","d58341","d58341","9c5a29","7b3918","d58341","d58341","d58341","d58341","d58341","d58341","d58341","d58341","d58341","d58341","d58341","d58341","9c5a29","9c5a29","7b3918","5a2920","5a2920","d58341","9c5a29","5a2920","cdd5ee","cdd5ee","cdd5ee","cdd5ee","cdd5ee"],
    ["cdd5ee","cdd5ee","cdd5ee","cdd5ee","cdd5ee","cdd5ee","5a2920","5a2920","5a2920","7b3918","5a2920","9c5a29","9c5a29","9c5a29","d58341","d58341","d58341","d58341","d58341","d58341","9c5a29","9c5a29","7b3918","d58341","d58341","d58341","d58341","d58341","d58341","d58341","d58341","d58341","d58341","d58341","d58341","9c5a29","9c5a29","5a2920","9c5a29","5a2920","5a2920","5a2920","cdd5ee","cdd5ee","cdd5ee","cdd5ee","cdd5ee","cdd5ee"],
    ["cdd5ee","cdd5ee","cdd5ee","cdd5ee","cdd5ee","cdd5ee","cdd5ee","5a2920","7b3918","7b3918","5a2920","7b3918","9c5a29","9c5a29","9c5a29","d58341","d58341","d58341","d58341","d58341","9c5a29","7b3918","5a2920","d58341","d58341","d58341","d58341","d58341","d58341","d58341","d58341","d58341","d58341","d58341","d58341","9c5a29","7b3918","5a2920","9c5a29","9c5a29","5a2920","cdd5ee","cdd5ee","cdd5ee","cdd5ee","cdd5ee","cdd5ee","cdd5ee"],
    ["cdd5ee","cdd5ee","cdd5ee","cdd5ee","cdd5ee","cdd5ee","5a2920","7b3918","9c5a29","7b3918","5a2920","7b3918","9c5a29","9c5a29","9c5a29","9c5a29","d58341","d58341","d58341","9c5a29","7b3918","5a2920","5a2920","d58341","d58341","d58341","d58341","d58341","d58341","d58341","d58341","d58341","d58341","d58341","d58341","9c5a29","7b3918","5a2920","9c5a29","d58341","9c5a29","5a2920","cdd5ee","cdd5ee","cdd5ee","cdd5ee","cdd5ee","cdd5ee"],
    ["cdd5ee","cdd5ee","cdd5ee","cdd5ee","cdd5ee","cdd5ee","5a2920","7b3918","9c5a29","5a2920","5a2920","5a2920","9c5a29","9c5a29","9c5a29","9c5a29","9c5a29","9c5a29","9c5a29","9c5a29","7b3918","5a2920","5a2920","9c5a29","d58341","d58341","d58341","d58341","d58341","d58341","d58341","d58341","d58341","d58341","d58341","9c5a29","5a2920","5a2920","5a2920","d58341","9c5a29","5a2920","cdd5ee","cdd5ee","cdd5ee","cdd5ee","cdd5ee","cdd5ee"],
    ["cdd5ee","cdd5ee","cdd5ee","cdd5ee","cdd5ee","cdd5ee","5a2920","9c5a29","7b3918","5a2920","cdd5ee","5a2920","7b3918","9c5a29","9c5a29","9c5a29","9c5a29","9c5a29","9c5a29","9c5a29","9c5a29","7b3918","5a2920","7b3918","9c5a29","9c5a29","9c5a29","d58341","d58341","d58341","d58341","d58341","d58341","d58341","d58341","7b3918","5a2920","cdd5ee","5a2920","9c5a29","d58341","5a2920","cdd5ee","cdd5ee","cdd5ee","cdd5ee","cdd5ee","cdd5ee"],
    ["cdd5ee","cdd5ee","cdd5ee","cdd5ee","cdd5ee","5a2920","7b3918","9c5a29","5a2920","cdd5ee","cdd5ee","cdd5ee","5a2920","9c5a29","9c5a29","9c5a29","9c5a29","9c5a29","9c5a29","9c5a29","9c5a29","9c5a29","9c5a29","7b3918","7b3918","9c5a29","d58341","d58341","d58341","d58341","d58341","d58341","d58341","d58341","d58341","5a2920","cdd5ee","cdd5ee","cdd5ee","5a2920","d58341","9c5a29","5a2920","cdd5ee","cdd5ee","cdd5ee","cdd5ee","cdd5ee"],
    ["cdd5ee","cdd5ee","cdd5ee","cdd5ee","cdd5ee","5a2920","9c5a29","5a2920","cdd5ee","cdd5ee","cdd5ee","cdd5ee","5a2920","7b3918","9c5a29","9c5a29","9c5a29","9c5a29","9c5a29","9c5a29","9c5a29","9c5a29","9c5a29","9c5a29","d58341","d58341","d58341","d58341","d58341","d58341","d58341","d58341","d58341","d58341","9c5a29","5a2920","cdd5ee","cdd5ee","cdd5ee","cdd5ee","5a2920","9c5a29","5a2920","cdd5ee","cdd5ee","cdd5ee","cdd5ee","cdd5ee"],
    ["cdd5ee","cdd5ee","cdd5ee","cdd5ee","cdd5ee","5a2920","9c5a29","5a2920","cdd5ee","cdd5ee","cdd5ee","cdd5ee","cdd5ee","5a2920","9c5a29","9c5a29","9c5a29","9c5a29","9c5a29","9c5a29","9c5a29","9c5a29","9c5a29","9c5a29","d58341","d58341","d58341","d58341","d58341","d58341","d58341","d58341","d58341","d58341","5a2920","cdd5ee","cdd5ee","cdd5ee","cdd5ee","cdd5ee","5a2920","d58341","5a2920","cdd5ee","cdd5ee","cdd5ee","cdd5ee","cdd5ee"],
    ["cdd5ee","cdd5ee","cdd5ee","cdd5ee","cdd5ee","cdd5ee","5a2920","cdd5ee","cdd5ee","cdd5ee","cdd5ee","cdd5ee","cdd5ee","5a2920","7b3918","9c5a29","9c5a29","9c5a29","9c5a29","9c5a29","9c5a29","9c5a29","9c5a29","d58341","d58341","d58341","d58341","d58341","d58341","d58341","d58341","d58341","d58341","9c5a29","5a2920","cdd5ee","cdd5ee","cdd5ee","cdd5ee","cdd5ee","cdd5ee","5a2920","cdd5ee","cdd5ee","cdd5ee","cdd5ee","cdd5ee","cdd5ee"],
    ["cdd5ee","cdd5ee","cdd5ee","cdd5ee","cdd5ee","cdd5ee","cdd5ee","cdd5ee","cdd5ee","cdd5ee","cdd5ee","cdd5ee","cdd5ee","cdd5ee","5a2920","7b3918","9c5a29","9c5a29","9c5a29","9c5a29","9c5a29","9c5a29","9c5a29","9c5a29","9c5a29","d58341","d58341","d58341","d58341","d58341","d58341","d58341","9c5a29","5a2920","cdd5ee","cdd5ee","cdd5ee","cdd5ee","cdd5ee","cdd5ee","cdd5ee","cdd5ee","cdd5ee","cdd5ee","cdd5ee","cdd5ee","cdd5ee","cdd5ee"],
    ["cdd5ee","cdd5ee","cdd5ee","cdd5ee","cdd5ee","cdd5ee","cdd5ee","cdd5ee","cdd5ee","cdd5ee","cdd5ee","cdd5ee","cdd5ee","cdd5ee","5a2920","5a2920","7b3918","9c5a29","9c5a29","9c5a29","9c5a29","5a2920","5a2920","5a2920","7b3918","7b3918","5a2920","9c5a29","d58341","d58341","d58341","9c5a29","5a2920","5a2920","cdd5ee","cdd5ee","cdd5ee","cdd5ee","cdd5ee","cdd5ee","cdd5ee","cdd5ee","cdd5ee","cdd5ee","cdd5ee","cdd5ee","cdd5ee","cdd5ee"],
    ["cdd5ee","cdd5ee","cdd5ee","cdd5ee","cdd5ee","cdd5ee","cdd5ee","cdd5ee","cdd5ee","cdd5ee","cdd5ee","cdd5ee","cdd5ee","cdd5ee","5a2920","7b3918","5a2920","7b3918","9c5a29","9c5a29","9c5a29","9c5a29","9c5a29","9c5a29","9c5a29","9c5a29","d58341","d58341","d58341","d58341","9c5a29","5a2920","9c5a29","5a2920","cdd5ee","cdd5ee","cdd5ee","cdd5ee","cdd5ee","cdd5ee","cdd5ee","cdd5ee","cdd5ee","cdd5ee","cdd5ee","cdd5ee","cdd5ee","cdd5ee"],
    ["cdd5ee","cdd5ee","cdd5ee","cdd5ee","cdd5ee","cdd5ee","cdd5ee","cdd5ee","cdd5ee","cdd5ee","cdd5ee","cdd5ee","cdd5ee","cdd5ee","5a2920","7b3918","7b3918","5a2920","7b3918","9c5a29","9c5a29","9c5a29","9c5a29","9c5a29","d58341","d58341","d58341","d58341","d58341","9c5a29","5a2920","9c5a29","d58341","5a2920","cdd5ee","cdd5ee","cdd5ee","cdd5ee","cdd5ee","cdd5ee","cdd5ee","cdd5ee","cdd5ee","cdd5ee","cdd5ee","cdd5ee","cdd5ee","cdd5ee"],
    ["cdd5ee","cdd5ee","cdd5ee","cdd5ee","cdd5ee","cdd5ee","cdd5ee","cdd5ee","cdd5ee","cdd5ee","cdd5ee","cdd5ee","cdd5ee","cdd5ee","5a2920","7b3918","7b3918","7b3918","5a2920","7b3918","9c5a29","9c5a29","9c5a29","9c5a29","d58341","d58341","d58341","d58341","9c5a29","5a2920","9c5a29","d58341","d58341","5a2920","cdd5ee","cdd5ee","cdd5ee","cdd5ee","cdd5ee","cdd5ee","cdd5ee","cdd5ee","cdd5ee","cdd5ee","cdd5ee","cdd5ee","cdd5ee","cdd5ee"],
    ["cdd5ee","cdd5ee","cdd5ee","cdd5ee","cdd5ee","cdd5ee","cdd5ee","cdd5ee","cdd5ee","cdd5ee","cdd5ee","cdd5ee","cdd5ee","5a2920","7b3918","7b3918","7b3918","7b3918","7b3918","5a2920","5a2920","7b3918","9c5a29","9c5a29","9c5a29","9c5a29","9c5a29","5a2920","5a2920","9c5a29","d58341","d58341","d58341","9c5a29","5a2920","cdd5ee","cdd5ee","cdd5ee","cdd5ee","cdd5ee","cdd5ee","cdd5ee","cdd5ee","cdd5ee","cdd5ee","cdd5ee","cdd5ee","cdd5ee"],
    ["cdd5ee","cdd5ee","cdd5ee","cdd5ee","cdd5ee","cdd5ee","cdd5ee","cdd5ee","cdd5ee","cdd5ee","cdd5ee","cdd5ee","cdd5ee","5a2920","7b3918","7b3918","7b3918","7b3918","7b3918","7b3918","7b3918","5a2920","5a2920","5a2920","5a2920","5a2920","5a2920","9c5a29","d58341","d58341","d58341","d58341","d58341","d58341","5a2920","cdd5ee","cdd5ee","cdd5ee","cdd5ee","cdd5ee","cdd5ee","cdd5ee","cdd5ee","cdd5ee","cdd5ee","cdd5ee","cdd5ee","cdd5ee"],
    ["cdd5ee","cdd5ee","cdd5ee","cdd5ee","cdd5ee","cdd5ee","cdd5ee","cdd5ee","cdd5ee","cdd5ee","cdd5ee","cdd5ee","5a2920","7b3918","7b3918","7b3918","7b3918","7b3918","7b3918","7b3918","9c5a29","9c5a29","9c5a29","9c5a29","9c5a29","9c5a29","d58341","d58341","d58341","d58341","d58341","d58341","d58341","d58341","9c5a29","5a2920","cdd5ee","cdd5ee","cdd5ee","cdd5ee","cdd5ee","cdd5ee","cdd5ee","cdd5ee","cdd5ee","cdd5ee","cdd5ee","cdd5ee"]
]}