{
  "title":"Female Ninja",
  "original-title":"48x48 Faces 1st Sheet",
  "author":"CharlesGabriel",
  "author-url":"http://cgartsenal.blogspot.com/",
  "source":"http://opengameart.org/content/48x48-faces-1st-sheet",
  "licence":"cc-by-3.0",
  "notice":"Art by Charles Gabriel. Commissioned by OpenGameArt.org (http://opengameart.org)",
  "difficulty":"hard",
  "grid":[
    ["f8c8d8","f8c8d8","f8c8d8","f8c8d8","f8c8d8","f8c8d8","f8c8d8","f8c8d8","f8c8d8","f8c8d8","f8c8d8","130e13","292929","444444","444444","444444","444444","444444","444444","444444","6a625a","6a625a","6a625a","6a625a","6a625a","6a625a","6a625a","6a625a","6a625a","6a625a","6a625a","6a625a","6a625a","6a625a","6a625a","444444","130e13","f8c8d8","f8c8d8","f8c8d8","f8c8d8","f8c8d8","f8c8d8","f8c8d8","f8c8d8","f8c8d8","f8c8d8","f8c8d8"],
    ["f8c8d8","f8c8d8","f8c8d8","f8c8d8","f8c8d8","f8c8d8","f8c8d8","f8c8d8","f8c8d8","f8c8d8","130e13","292929","444444","444444","444444","444444","444444","444444","444444","6a625a","6a625a","6a625a","6a625a","6a625a","6a625a","6a625a","6a625a","6a625a","6a625a","6a625a","6a625a","6a625a","6a625a","6a625a","6a625a","6a625a","444444","130e13","f8c8d8","f8c8d8","f8c8d8","f8c8d8","f8c8d8","f8c8d8","f8c8d8","f8c8d8","f8c8d8","f8c8d8"],
    ["f8c8d8","f8c8d8","f8c8d8","f8c8d8","f8c8d8","f8c8d8","f8c8d8","f8c8d8","f8c8d8","130e13","292929","444444","444444","444444","444444","444444","292929","444444","444444","6a625a","6a625a","6a625a","6a625a","6a625a","6a625a","6a625a","6a625a","6a625a","6a625a","6a625a","6a625a","6a625a","6a625a","6a625a","6a625a","6a625a","6a625a","444444","130e13","f8c8d8","f8c8d8","f8c8d8","f8c8d8","f8c8d8","f8c8d8","f8c8d8","f8c8d8","f8c8d8"],
    ["f8c8d8","f8c8d8","f8c8d8","f8c8d8","f8c8d8","f8c8d8","f8c8d8","f8c8d8","f8c8d8","130e13","444444","444444","444444","444444","444444","292929","444444","444444","6a625a","6a625a","6a625a","6a625a","6a625a","6a625a","6a625a","6a625a","6a625a","6a625a","6a625a","6a625a","6a625a","6a625a","6a625a","6a625a","6a625a","6a625a","6a625a","6a625a","130e13","f8c8d8","f8c8d8","f8c8d8","f8c8d8","f8c8d8","f8c8d8","f8c8d8","f8c8d8","f8c8d8"],
    ["f8c8d8","f8c8d8","f8c8d8","f8c8d8","f8c8d8","f8c8d8","f8c8d8","f8c8d8","130e13","292929","444444","444444","444444","444444","444444","292929","444444","444444","6a625a","6a625a","6a625a","6a625a","6a625a","6a625a","6a625a","6a625a","6a625a","6a625a","6a625a","6a625a","6a625a","6a625a","6a625a","6a625a","6a625a","6a625a","6a625a","6a625a","444444","130e13","f8c8d8","f8c8d8","f8c8d8","f8c8d8","f8c8d8","f8c8d8","f8c8d8","f8c8d8"],
    ["f8c8d8","f8c8d8","f8c8d8","f8c8d8","f8c8d8","f8c8d8","f8c8d8","f8c8d8","130e13","292929","444444","444444","444444","444444","292929","444444","444444","6a625a","6a625a","6a625a","6a625a","6a625a","6a625a","6a625a","6a625a","6a625a","6a625a","6a625a","6a625a","6a625a","6a625a","6a625a","6a625a","6a625a","6a625a","6a625a","6a625a","6a625a","6a625a","130e13","f8c8d8","f8c8d8","f8c8d8","f8c8d8","f8c8d8","f8c8d8","f8c8d8","f8c8d8"],
    ["f8c8d8","f8c8d8","f8c8d8","f8c8d8","f8c8d8","f8c8d8","f8c8d8","130e13","292929","292929","444444","444444","444444","292929","292929","444444","444444","6a625a","6a625a","6a625a","6a625a","6a625a","6a625a","6a625a","6a625a","6a625a","6a625a","6a625a","6a625a","6a625a","6a625a","6a625a","6a625a","6a625a","6a625a","6a625a","6a625a","6a625a","6a625a","444444","130e13","f8c8d8","f8c8d8","f8c8d8","f8c8d8","f8c8d8","f8c8d8","f8c8d8"],
    ["f8c8d8","f8c8d8","f8c8d8","f8c8d8","f8c8d8","f8c8d8","f8c8d8","130e13","292929","444444","444444","444444","444444","292929","444444","444444","444444","6a625a","6a625a","6a625a","6a625a","6a625a","6a625a","6a625a","6a625a","6a625a","6a625a","6a625a","6a625a","6a625a","6a625a","6a625a","6a625a","6a625a","6a625a","6a625a","6a625a","6a625a","6a625a","444444","130e13","f8c8d8","f8c8d8","f8c8d8","f8c8d8","f8c8d8","f8c8d8","f8c8d8"],
    ["f8c8d8","f8c8d8","f8c8d8","f8c8d8","f8c8d8","f8c8d8","f8c8d8","130e13","292929","444444","444444","444444","444444","292929","444444","444444","444444","6a625a","6a625a","6a625a","6a625a","6a625a","6a625a","6a625a","6a625a","6a625a","6a625a","6a625a","6a625a","6a625a","6a625a","6a625a","444444","6a625a","6a625a","6a625a","6a625a","6a625a","6a625a","6a625a","130e13","f8c8d8","f8c8d8","f8c8d8","f8c8d8","f8c8d8","f8c8d8","f8c8d8"],
    ["f8c8d8","f8c8d8","f8c8d8","f8c8d8","f8c8d8","f8c8d8","130e13","292929","292929","444444","444444","444444","292929","292929","444444","444444","444444","6a625a","6a625a","6a625a","6a625a","6a625a","6a625a","6a625a","6a625a","6a625a","6a625a","6a625a","6a625a","6a625a","6a625a","6a625a","6a625a","444444","6a625a","6a625a","6a625a","6a625a","6a625a","6a625a","444444","130e13","f8c8d8","f8c8d8","f8c8d8","f8c8d8","f8c8d8","f8c8d8"],
    ["f8c8d8","f8c8d8","f8c8d8","f8c8d8","f8c8d8","f8c8d8","130e13","292929","292929","444444","444444","444444","292929","292929","444444","444444","444444","444444","6a625a","6a625a","6a625a","6a625a","6a625a","6a625a","6a625a","6a625a","6a625a","6a625a","6a625a","6a625a","6a625a","6a625a","6a625a","6a625a","444444","6a625a","6a625a","6a625a","6a625a","6a625a","444444","130e13","f8c8d8","f8c8d8","f8c8d8","f8c8d8","f8c8d8","f8c8d8"],
    ["f8c8d8","f8c8d8","f8c8d8","f8c8d8","f8c8d8","f8c8d8","130e13","292929","292929","292929","444444","292929","292929","292929","444444","444444","444444","444444","6a625a","6a625a","6a625a","6a625a","6a625a","6a625a","6a625a","6a625a","6a625a","6a625a","6a625a","6a625a","6a625a","6a625a","6a625a","6a625a","444444","444444","6a625a","6a625a","6a625a","6a625a","6a625a","130e13","f8c8d8","f8c8d8","f8c8d8","f8c8d8","f8c8d8","f8c8d8"],
    ["f8c8d8","f8c8d8","f8c8d8","f8c8d8","f8c8d8","130e13","292929","292929","292929","292929","292929","292929","292929","292929","444444","444444","444444","444444","444444","6a625a","6a625a","6a625a","6a625a","6a625a","6a625a","6a625a","6a625a","6a625a","6a625a","6a625a","6a625a","6a625a","6a625a","444444","292929","444444","6a625a","6a625a","6a625a","6a625a","6a625a","444444","130e13","f8c8d8","f8c8d8","f8c8d8","f8c8d8","f8c8d8"],
    ["f8c8d8","f8c8d8","f8c8d8","f8c8d8","f8c8d8","130e13","292929","292929","292929","292929","292929","292929","292929","292929","292929","444444","444444","444444","444444","444444","444444","6a625a","6a625a","6a625a","6a625a","6a625a","6a625a","6a625a","6a625a","6a625a","6a625a","444444","444444","444444","292929","444444","444444","6a625a","6a625a","6a625a","6a625a","444444","130e13","f8c8d8","f8c8d8","f8c8d8","f8c8d8","f8c8d8"],
    ["f8c8d8","f8c8d8","f8c8d8","f8c8d8","f8c8d8","130e13","292929","292929","292929","292929","292929","292929","292929","292929","292929","292929","444444","444444","444444","444444","444444","444444","444444","444444","444444","444444","444444","444444","444444","444444","444444","444444","444444","444444","292929","292929","444444","6a625a","6a625a","6a625a","6a625a","6a625a","130e13","f8c8d8","f8c8d8","f8c8d8","f8c8d8","f8c8d8"],
    ["f8c8d8","f8c8d8","f8c8d8","f8c8d8","f8c8d8","130e13","292929","292929","292929","292929","292929","292929","292929","292929","292929","292929","292929","130e13","130e13","130e13","130e13","130e13","130e13","130e13","130e13","130e13","130e13","130e13","130e13","130e13","130e13","444444","444444","292929","292929","292929","444444","6a625a","6a625a","6a625a","6a625a","6a625a","130e13","f8c8d8","f8c8d8","f8c8d8","f8c8d8","f8c8d8"],
    ["f8c8d8","f8c8d8","f8c8d8","f8c8d8","f8c8d8","130e13","292929","292929","292929","292929","292929","292929","292929","130e13","130e13","acacac","acacac","f6eee6","acacac","acacac","acacac","f6eee6","f6eee6","fefefe","acacac","acacac","f6eee6","acacac","f6eee6","f6eee6","fefefe","f6eee6","acacac","130e13","130e13","292929","444444","444444","6a625a","6a625a","6a625a","6a625a","130e13","f8c8d8","f8c8d8","f8c8d8","f8c8d8","f8c8d8"],
    ["f8c8d8","f8c8d8","f8c8d8","f8c8d8","f8c8d8","130e13","292929","292929","292929","292929","292929","292929","130e13","acacac","acacac","acacac","f6eee6","f6eee6","acacac","acacac","acacac","f6eee6","f6eee6","fefefe","acacac","acacac","f6eee6","acacac","f6eee6","f6eee6","fefefe","f6eee6","f6eee6","acacac","acacac","130e13","444444","444444","6a625a","6a625a","6a625a","6a625a","130e13","f8c8d8","f8c8d8","f8c8d8","f8c8d8","f8c8d8"],
    ["f8c8d8","f8c8d8","f8c8d8","f8c8d8","f8c8d8","130e13","292929","292929","292929","292929","292929","130e13","acacac","acacac","acacac","f6eee6","fefefe","f6eee6","acacac","acacac","acacac","f6eee6","fefefe","fefefe","f6eee6","acacac","f6eee6","acacac","acacac","f6eee6","fefefe","fefefe","f6eee6","f6eee6","acacac","acacac","130e13","444444","6a625a","6a625a","6a625a","6a625a","130e13","f8c8d8","f8c8d8","f8c8d8","f8c8d8","f8c8d8"],
    ["f8c8d8","f8c8d8","f8c8d8","f8c8d8","f8c8d8","130e13","292929","292929","292929","292929","292929","130e13","acacac","acacac","acacac","f6eee6","fefefe","f6eee6","acacac","acacac","f6eee6","f6eee6","fefefe","fefefe","f6eee6","acacac","f6eee6","acacac","acacac","f6eee6","fefefe","fefefe","f6eee6","f6eee6","acacac","acacac","130e13","444444","6a625a","6a625a","6a625a","444444","130e13","f8c8d8","f8c8d8","f8c8d8","f8c8d8","f8c8d8"],
    ["f8c8d8","f8c8d8","f8c8d8","f8c8d8","f8c8d8","130e13","292929","292929","292929","292929","292929","130e13","acacac","acacac","acacac","f6eee6","130e13","130e13","130e13","130e13","130e13","130e13","130e13","130e13","130e13","130e13","130e13","130e13","130e13","130e13","130e13","130e13","f6eee6","f6eee6","acacac","acacac","130e13","444444","444444","6a625a","6a625a","444444","130e13","f8c8d8","f8c8d8","f8c8d8","f8c8d8","f8c8d8"],
    ["f8c8d8","f8c8d8","f8c8d8","f8c8d8","f8c8d8","130e13","292929","292929","292929","292929","130e13","130e13","acacac","acacac","130e13","130e13","832052","832052","832052","de415a","de8373","de8373","de8373","de415a","832052","832052","832052","de415a","832052","de8373","de415a","832052","130e13","130e13","acacac","acacac","130e13","130e13","444444","6a625a","444444","444444","130e13","f8c8d8","f8c8d8","f8c8d8","f8c8d8","f8c8d8"],
    ["f8c8d8","f8c8d8","f8c8d8","f8c8d8","f8c8d8","f8c8d8","130e13","292929","292929","292929","130e13","130e13","130e13","130e13","832052","de415a","832052","832052","de415a","de8373","de8373","de8373","de8373","832052","832052","832052","ac6252","832052","ac6252","de8373","de415a","832052","de415a","832052","130e13","130e13","130e13","130e13","444444","444444","444444","130e13","f8c8d8","f8c8d8","f8c8d8","f8c8d8","f8c8d8","f8c8d8"],
    ["f8c8d8","f8c8d8","f8c8d8","f8c8d8","f8c8d8","f8c8d8","130e13","130e13","292929","130e13","130e13","832052","832052","832052","de415a","de415a","832052","832052","de415a","de8373","de8373","de8373","de415a","832052","832052","832052","ac6252","ac6252","5a2920","de415a","832052","ac6252","ac6252","832052","de415a","832052","130e13","130e13","130e13","444444","130e13","130e13","f8c8d8","f8c8d8","f8c8d8","f8c8d8","f8c8d8","f8c8d8"],
    ["f8c8d8","f8c8d8","f8c8d8","f8c8d8","f8c8d8","f8c8d8","130e13","292929","130e13","130e13","130e13","832052","de415a","832052","de8373","de415a","832052","832052","de8373","de8373","de8373","de415a","832052","ac6252","832052","ac6252","ac6252","5a2920","ac6252","832052","ac6252","5a2920","5a2920","5a2920","832052","de415a","130e13","130e13","130e13","130e13","444444","130e13","f8c8d8","f8c8d8","f8c8d8","f8c8d8","f8c8d8","f8c8d8"],
    ["f8c8d8","f8c8d8","f8c8d8","f8c8d8","f8c8d8","130e13","292929","292929","130e13","130e13","130e13","832052","de415a","de415a","de8373","de415a","832052","de415a","de8373","de8373","de8373","832052","ac6252","832052","ac6252","e69462","e69462","ac6252","ac6252","5a2920","5a2920","5a2920","5a2920","5a2920","5a2920","de415a","de8373","130e13","130e13","130e13","444444","444444","130e13","f8c8d8","f8c8d8","f8c8d8","f8c8d8","f8c8d8"],
    ["f8c8d8","f8c8d8","f8c8d8","f8c8d8","f8c8d8","130e13","292929","292929","292929","292929","130e13","832052","de415a","de415a","de8373","de8373","832052","de415a","de8373","de8373","de415a","832052","ac6252","832052","e69462","fecd9c","e69462","e69462","ac6252","ac6252","5a2920","f6eee6","5a2920","de415a","f6eee6","5a2920","de415a","130e13","444444","444444","6a625a","6a625a","130e13","f8c8d8","f8c8d8","f8c8d8","f8c8d8","f8c8d8"],
    ["f8c8d8","f8c8d8","f8c8d8","f8c8d8","f8c8d8","130e13","292929","292929","292929","292929","130e13","832052","de415a","832052","de8373","de8373","832052","de415a","de8373","de8373","832052","ac6252","832052","ac6252","fecd9c","fecd9c","fecd9c","e69462","e69462","e69462","ac6252","de415a","5a2920","de415a","f6eee6","5a2920","832052","130e13","444444","6a625a","6a625a","6a625a","130e13","f8c8d8","f8c8d8","f8c8d8","f8c8d8","f8c8d8"],
    ["f8c8d8","f8c8d8","f8c8d8","f8c8d8","f8c8d8","130e13","292929","292929","292929","292929","130e13","130e13","832052","832052","de415a","de8373","832052","de8373","de8373","de415a","832052","ac6252","832052","e69462","fecd9c","fecd9c","fecd9c","e69462","fecd9c","fecd9c","fecd9c","de415a","de415a","f6eee6","5a2920","5a2920","130e13","130e13","444444","6a625a","6a625a","444444","130e13","f8c8d8","f8c8d8","f8c8d8","f8c8d8","f8c8d8"],
    ["f8c8d8","f8c8d8","f8c8d8","f8c8d8","f8c8d8","f8c8d8","130e13","292929","292929","292929","130e13","130e13","832052","832052","de415a","de8373","de415a","de8373","de8373","832052","ac6252","832052","ac6252","fecd9c","fecd9c","fecd9c","fecd9c","fecd9c","fecd9c","fecd9c","fecd9c","fecd9c","fecd9c","fecd9c","e69462","e69462","130e13","130e13","444444","6a625a","6a625a","130e13","f8c8d8","f8c8d8","f8c8d8","f8c8d8","f8c8d8","f8c8d8"],
    ["f8c8d8","f8c8d8","f8c8d8","f8c8d8","f8c8d8","f8c8d8","130e13","292929","292929","292929","292929","130e13","130e13","832052","832052","de415a","de8373","de8373","de415a","832052","ac6252","ac6252","130e13","fecd9c","fecd9c","fecd9c","e69462","fecd9c","fecd9c","fecd9c","fecd9c","fecd9c","fecd9c","e69462","e69462","130e13","130e13","444444","6a625a","6a625a","444444","130e13","f8c8d8","f8c8d8","f8c8d8","f8c8d8","f8c8d8","f8c8d8"],
    ["f8c8d8","f8c8d8","f8c8d8","f8c8d8","f8c8d8","f8c8d8","832052","130e13","292929","292929","292929","292929","130e13","832052","832052","de415a","de8373","de8373","832052","ac6252","ac6252","ac6252","130e13","fecd9c","fecd9c","fecd9c","e69462","ac6252","e69462","fecd9c","fecd9c","fecd9c","fecd9c","e69462","ac6252","130e13","444444","444444","6a625a","6a625a","130e13","f8c8d8","f8c8d8","f8c8d8","f8c8d8","f8c8d8","f8c8d8","f8c8d8"],
    ["f8c8d8","f8c8d8","f8c8d8","f8c8d8","f8c8d8","f8c8d8","832052","130e13","292929","292929","292929","292929","292929","130e13","832052","de415a","de415a","de8373","832052","130e13","130e13","130e13","130e13","130e13","130e13","130e13","130e13","292929","292929","444444","fecd9c","fecd9c","e69462","ac6252","130e13","444444","444444","6a625a","6a625a","444444","130e13","f8c8d8","f8c8d8","f8c8d8","f8c8d8","f8c8d8","f8c8d8","f8c8d8"],
    ["f8c8d8","f8c8d8","f8c8d8","f8c8d8","f8c8d8","f8c8d8","832052","832052","130e13","292929","292929","292929","292929","292929","832052","832052","de415a","de8373","444444","444444","292929","130e13","130e13","292929","444444","6a625a","6a625a","444444","444444","444444","444444","444444","130e13","130e13","444444","444444","444444","6a625a","444444","130e13","f8c8d8","f8c8d8","f8c8d8","f8c8d8","f8c8d8","f8c8d8","f8c8d8","f8c8d8"],
    ["f8c8d8","f8c8d8","f8c8d8","f8c8d8","f8c8d8","f8c8d8","832052","832052","de415a","130e13","292929","292929","292929","292929","444444","832052","832052","de415a","444444","444444","292929","130e13","130e13","292929","444444","6a625a","6a625a","6a625a","444444","444444","6a625a","6a625a","6a625a","6a625a","444444","444444","444444","444444","130e13","f8c8d8","f8c8d8","f8c8d8","f8c8d8","f8c8d8","f8c8d8","f8c8d8","f8c8d8","f8c8d8"],
    ["f8c8d8","f8c8d8","f8c8d8","f8c8d8","f8c8d8","832052","f8c8d8","832052","de415a","de415a","130e13","292929","292929","444444","444444","444444","832052","de415a","444444","444444","444444","292929","130e13","292929","292929","292929","292929","444444","6a625a","6a625a","6a625a","6a625a","6a625a","6a625a","6a625a","444444","444444","130e13","f8c8d8","f8c8d8","f8c8d8","f8c8d8","f8c8d8","f8c8d8","f8c8d8","f8c8d8","f8c8d8","f8c8d8"],
    ["f8c8d8","f8c8d8","f8c8d8","f8c8d8","f8c8d8","832052","f8c8d8","832052","de415a","de415a","de415a","130e13","292929","444444","444444","444444","444444","832052","444444","444444","444444","444444","444444","292929","292929","292929","444444","6a625a","6a625a","6a625a","6a625a","6a625a","6a625a","6a625a","6a625a","444444","130e13","f8c8d8","f8c8d8","f8c8d8","f8c8d8","f8c8d8","f8c8d8","f8c8d8","f8c8d8","f8c8d8","f8c8d8","f8c8d8"],
    ["f8c8d8","f8c8d8","f8c8d8","f8c8d8","832052","f8c8d8","f8c8d8","de415a","de415a","de415a","de8373","de415a","130e13","292929","444444","444444","444444","444444","444444","444444","444444","444444","444444","444444","444444","444444","6a625a","6a625a","6a625a","6a625a","6a625a","6a625a","6a625a","6a625a","444444","130e13","f8c8d8","f8c8d8","f8c8d8","f8c8d8","f8c8d8","f8c8d8","f8c8d8","f8c8d8","f8c8d8","f8c8d8","f8c8d8","f8c8d8"],
    ["f8c8d8","f8c8d8","f8c8d8","f8c8d8","832052","f8c8d8","832052","de415a","de415a","de415a","de8373","de8373","de415a","130e13","444444","444444","444444","444444","444444","444444","444444","444444","444444","444444","444444","6a625a","6a625a","6a625a","6a625a","6a625a","6a625a","6a625a","6a625a","6a625a","130e13","f8c8d8","f8c8d8","f8c8d8","f8c8d8","f8c8d8","f8c8d8","f8c8d8","f8c8d8","f8c8d8","f8c8d8","f8c8d8","f8c8d8","f8c8d8"],
    ["f8c8d8","f8c8d8","f8c8d8","f8c8d8","832052","f8c8d8","832052","de415a","de415a","de8373","de8373","de8373","de8373","130e13","292929","444444","444444","444444","444444","444444","444444","444444","444444","444444","444444","6a625a","6a625a","6a625a","6a625a","6a625a","6a625a","6a625a","6a625a","444444","130e13","f8c8d8","f8c8d8","f8c8d8","f8c8d8","f8c8d8","f8c8d8","f8c8d8","f8c8d8","f8c8d8","f8c8d8","f8c8d8","f8c8d8","f8c8d8"],
    ["f8c8d8","f8c8d8","f8c8d8","f8c8d8","f8c8d8","832052","832052","de415a","de415a","de8373","de8373","de8373","de8373","de415a","130e13","292929","444444","444444","444444","444444","444444","444444","444444","444444","444444","444444","444444","444444","444444","444444","6a625a","6a625a","444444","130e13","f8c8d8","f8c8d8","f8c8d8","f8c8d8","f8c8d8","f8c8d8","f8c8d8","f8c8d8","f8c8d8","f8c8d8","f8c8d8","f8c8d8","f8c8d8","f8c8d8"],
    ["f8c8d8","f8c8d8","f8c8d8","f8c8d8","832052","832052","de415a","de415a","de415a","de8373","de415a","de8373","de8373","de8373","130e13","130e13","292929","444444","444444","444444","444444","130e13","130e13","130e13","292929","292929","130e13","292929","444444","6a625a","6a625a","444444","130e13","130e13","f8c8d8","f8c8d8","f8c8d8","f8c8d8","f8c8d8","f8c8d8","f8c8d8","f8c8d8","f8c8d8","f8c8d8","f8c8d8","f8c8d8","f8c8d8","f8c8d8"],
    ["f8c8d8","f8c8d8","f8c8d8","f8c8d8","832052","832052","de415a","de415a","de415a","de8373","de415a","de8373","de8373","de8373","130e13","292929","130e13","292929","444444","444444","444444","444444","444444","444444","6a625a","444444","444444","6a625a","6a625a","6a625a","444444","130e13","444444","130e13","f8c8d8","f8c8d8","f8c8d8","f8c8d8","f8c8d8","f8c8d8","f8c8d8","f8c8d8","f8c8d8","f8c8d8","f8c8d8","f8c8d8","f8c8d8","f8c8d8"],
    ["f8c8d8","f8c8d8","f8c8d8","832052","f8c8d8","832052","de415a","de415a","de8373","de415a","de8373","de8373","de415a","de8373","130e13","292929","292929","130e13","292929","444444","444444","444444","444444","130e13","130e13","130e13","6a625a","6a625a","6a625a","444444","130e13","444444","6a625a","130e13","f8c8d8","f8c8d8","f8c8d8","f8c8d8","f8c8d8","f8c8d8","f8c8d8","f8c8d8","f8c8d8","f8c8d8","f8c8d8","f8c8d8","f8c8d8","f8c8d8"],
    ["f8c8d8","f8c8d8","f8c8d8","832052","f8c8d8","832052","de415a","de415a","de8373","de415a","de8373","de8373","de415a","de415a","130e13","292929","292929","292929","130e13","292929","444444","444444","444444","444444","444444","6a625a","6a625a","6a625a","444444","130e13","444444","6a625a","6a625a","130e13","f8c8d8","f8c8d8","f8c8d8","f8c8d8","f8c8d8","f8c8d8","f8c8d8","f8c8d8","f8c8d8","f8c8d8","f8c8d8","f8c8d8","f8c8d8","f8c8d8"],
    ["f8c8d8","f8c8d8","f8c8d8","f8c8d8","832052","de415a","de415a","de8373","de8373","de415a","de8373","de8373","de415a","130e13","292929","292929","292929","292929","292929","130e13","130e13","292929","444444","444444","444444","6a625a","444444","130e13","130e13","444444","6a625a","6a625a","6a625a","444444","130e13","f8c8d8","f8c8d8","f8c8d8","f8c8d8","f8c8d8","f8c8d8","f8c8d8","f8c8d8","f8c8d8","f8c8d8","f8c8d8","f8c8d8","f8c8d8"],
    ["f8c8d8","f8c8d8","f8c8d8","832052","832052","de415a","de415a","de8373","de8373","de415a","de8373","de8373","de415a","130e13","292929","292929","292929","292929","292929","292929","292929","130e13","130e13","130e13","130e13","130e13","130e13","444444","6a625a","6a625a","6a625a","6a625a","6a625a","6a625a","130e13","f8c8d8","f8c8d8","f8c8d8","f8c8d8","f8c8d8","f8c8d8","f8c8d8","f8c8d8","f8c8d8","f8c8d8","f8c8d8","f8c8d8","f8c8d8"],
    ["f8c8d8","f8c8d8","832052","832052","832052","de415a","de8373","de8373","de8373","de415a","de8373","de415a","130e13","292929","292929","292929","292929","292929","292929","292929","444444","444444","444444","444444","444444","444444","6a625a","6a625a","6a625a","6a625a","6a625a","6a625a","6a625a","6a625a","444444","130e13","f8c8d8","f8c8d8","f8c8d8","f8c8d8","f8c8d8","f8c8d8","f8c8d8","f8c8d8","f8c8d8","f8c8d8","f8c8d8","f8c8d8"]
]}