{
  "title":"Male Magician",
  "original-title":"48x48 Faces 1st Sheet",
  "author":"CharlesGabriel",
  "author-url":"http://cgartsenal.blogspot.com/",
  "source":"http://opengameart.org/content/48x48-faces-1st-sheet",
  "licence":"cc-by-3.0",
  "notice":"Art by Charles Gabriel. Commissioned by OpenGameArt.org (http://opengameart.org)",
  "difficulty":"medium",
  "grid":[
    ["cdd5ee","cdd5ee","cdd5ee","cdd5ee","cdd5ee","cdd5ee","cdd5ee","5a2920","9c5a29","9c5a29","9c5a29","9c5a29","9c5a29","9c5a29","9c5a29","9c5a29","9c5a29","bda441","bda441","bda441","bda441","bda441","bda441","bda441","bda441","efd074","efd074","efd074","efd074","efd074","efd074","efd074","efd074","efd074","efd074","efd074","efd074","bda441","bda441","9c5a29","5a2920","cdd5ee","cdd5ee","cdd5ee","cdd5ee","cdd5ee","cdd5ee","cdd5ee"],
    ["cdd5ee","cdd5ee","cdd5ee","cdd5ee","cdd5ee","cdd5ee","cdd5ee","5a2920","9c5a29","9c5a29","9c5a29","9c5a29","9c5a29","9c5a29","9c5a29","9c5a29","9c5a29","bda441","bda441","bda441","bda441","bda441","bda441","bda441","bda441","efd074","efd074","efd074","efd074","efd074","efd074","efd074","efd074","efd074","efd074","efd074","efd074","efd074","bda441","bda441","5a2920","cdd5ee","cdd5ee","cdd5ee","cdd5ee","cdd5ee","cdd5ee","cdd5ee"],
    ["cdd5ee","cdd5ee","cdd5ee","cdd5ee","cdd5ee","cdd5ee","5a2920","9c5a29","9c5a29","9c5a29","9c5a29","9c5a29","9c5a29","9c5a29","9c5a29","9c5a29","bda441","bda441","bda441","bda441","bda441","bda441","bda441","bda441","bda441","efd074","efd074","efd074","efd074","efd074","efd074","efd074","efd074","efd074","efd074","efd074","efd074","efd074","bda441","bda441","9c5a29","5a2920","cdd5ee","cdd5ee","cdd5ee","cdd5ee","cdd5ee","cdd5ee"],
    ["cdd5ee","cdd5ee","cdd5ee","cdd5ee","cdd5ee","cdd5ee","5a2920","9c5a29","9c5a29","9c5a29","9c5a29","9c5a29","9c5a29","9c5a29","9c5a29","9c5a29","bda441","bda441","bda441","bda441","bda441","bda441","bda441","bda441","bda441","efd074","efd074","efd074","efd074","efd074","efd074","efd074","efd074","efd074","efd074","efd074","efd074","efd074","bda441","bda441","9c5a29","5a2920","cdd5ee","cdd5ee","cdd5ee","cdd5ee","cdd5ee","cdd5ee"],
    ["cdd5ee","cdd5ee","cdd5ee","cdd5ee","cdd5ee","cdd5ee","5a2920","9c5a29","9c5a29","9c5a29","9c5a29","9c5a29","9c5a29","9c5a29","9c5a29","9c5a29","bda441","bda441","bda441","bda441","bda441","bda441","bda441","bda441","bda441","bda441","efd074","efd074","efd074","efd074","efd074","efd074","efd074","efd074","efd074","efd074","efd074","bda441","bda441","bda441","9c5a29","5a2920","cdd5ee","cdd5ee","cdd5ee","cdd5ee","cdd5ee","cdd5ee"],
    ["cdd5ee","cdd5ee","cdd5ee","cdd5ee","cdd5ee","5a2920","9c5a29","5a2920","9c5a29","9c5a29","9c5a29","9c5a29","9c5a29","9c5a29","9c5a29","9c5a29","bda441","bda441","bda441","bda441","bda441","bda441","bda441","bda441","bda441","bda441","bda441","efd074","efd074","efd074","efd074","efd074","efd074","efd074","efd074","efd074","bda441","bda441","bda441","9c5a29","5a2920","9c5a29","5a2920","cdd5ee","cdd5ee","cdd5ee","cdd5ee","cdd5ee"],
    ["cdd5ee","cdd5ee","cdd5ee","cdd5ee","5a2920","9c5a29","9c5a29","9c5a29","5a2920","9c5a29","9c5a29","9c5a29","9c5a29","9c5a29","9c5a29","9c5a29","9c5a29","bda441","bda441","bda441","bda441","bda441","bda441","bda441","bda441","bda441","bda441","bda441","bda441","efd074","efd074","efd074","efd074","efd074","bda441","bda441","bda441","bda441","9c5a29","5a2920","9c5a29","bda441","9c5a29","5a2920","cdd5ee","cdd5ee","cdd5ee","cdd5ee"],
    ["cdd5ee","cdd5ee","5a2920","5a2920","9c5a29","9c5a29","9c5a29","9c5a29","9c5a29","5a2920","5a2920","9c5a29","9c5a29","9c5a29","9c5a29","9c5a29","9c5a29","9c5a29","bda441","bda441","bda441","bda441","bda441","bda441","bda441","bda441","bda441","bda441","bda441","bda441","efd074","efd074","bda441","bda441","bda441","bda441","9c5a29","5a2920","5a2920","9c5a29","bda441","bda441","bda441","9c5a29","5a2920","5a2920","cdd5ee","cdd5ee"],
    ["5a2920","5a2920","9c5a29","9c5a29","9c5a29","9c5a29","9c5a29","9c5a29","9c5a29","9c5a29","9c5a29","5a2920","5a2920","9c5a29","9c5a29","9c5a29","9c5a29","9c5a29","9c5a29","bda441","bda441","bda441","bda441","bda441","bda441","bda441","bda441","bda441","bda441","bda441","bda441","bda441","bda441","bda441","9c5a29","5a2920","5a2920","9c5a29","bda441","bda441","efd074","efd074","bda441","bda441","bda441","9c5a29","5a2920","5a2920"],
    ["9c5a29","9c5a29","9c5a29","9c5a29","9c5a29","9c5a29","9c5a29","9c5a29","9c5a29","9c5a29","9c5a29","9c5a29","9c5a29","5a2920","5a2920","9c5a29","9c5a29","9c5a29","9c5a29","9c5a29","9c5a29","bda441","bda441","bda441","bda441","bda441","bda441","bda441","bda441","bda441","bda441","9c5a29","9c5a29","5a2920","5a2920","9c5a29","bda441","bda441","bda441","efd074","efd074","efd074","efd074","efd074","bda441","bda441","bda441","9c5a29"],
    ["9c5a29","9c5a29","9c5a29","9c5a29","9c5a29","9c5a29","9c5a29","9c5a29","9c5a29","9c5a29","9c5a29","9c5a29","9c5a29","9c5a29","9c5a29","5a2920","5a2920","5a2920","9c5a29","9c5a29","9c5a29","9c5a29","9c5a29","9c5a29","9c5a29","9c5a29","9c5a29","9c5a29","9c5a29","9c5a29","5a2920","5a2920","5a2920","9c5a29","bda441","bda441","bda441","efd074","efd074","efd074","efd074","efd074","efd074","efd074","efd074","efd074","bda441","bda441"],
    ["9c5a29","9c5a29","9c5a29","9c5a29","9c5a29","9c5a29","9c5a29","9c5a29","9c5a29","9c5a29","9c5a29","9c5a29","9c5a29","9c5a29","9c5a29","9c5a29","bda441","bda441","9c5a29","5a2920","5a2920","5a2920","5a2920","5a2920","5a2920","5a2920","5a2920","5a2920","5a2920","9c5a29","bda441","bda441","bda441","bda441","bda441","efd074","efd074","efd074","efd074","efd074","efd074","efd074","efd074","efd074","efd074","efd074","efd074","efd074"],
    ["9c5a29","9c5a29","9c5a29","9c5a29","9c5a29","9c5a29","9c5a29","9c5a29","9c5a29","9c5a29","9c5a29","9c5a29","9c5a29","9c5a29","9c5a29","bda441","bda441","bda441","bda441","bda441","bda441","9c5a29","9c5a29","9c5a29","9c5a29","9c5a29","9c5a29","bda441","bda441","bda441","bda441","bda441","efd074","efd074","efd074","efd074","efd074","efd074","efd074","efd074","efd074","efd074","efd074","efd074","efd074","efd074","efd074","efd074"],
    ["9c5a29","9c5a29","9c5a29","9c5a29","9c5a29","9c5a29","9c5a29","9c5a29","9c5a29","9c5a29","9c5a29","9c5a29","9c5a29","9c5a29","bda441","bda441","bda441","bda441","bda441","bda441","bda441","bda441","bda441","bda441","bda441","bda441","bda441","bda441","efd074","efd074","efd074","efd074","efd074","efd074","efd074","efd074","efd074","efd074","efd074","efd074","efd074","efd074","efd074","efd074","efd074","efd074","efd074","bda441"],
    ["9c5a29","9c5a29","9c5a29","9c5a29","9c5a29","9c5a29","9c5a29","9c5a29","9c5a29","9c5a29","9c5a29","9c5a29","9c5a29","9c5a29","bda441","bda441","bda441","bda441","bda441","bda441","bda441","bda441","bda441","bda441","bda441","efd074","efd074","efd074","efd074","efd074","efd074","efd074","efd074","efd074","efd074","efd074","efd074","efd074","efd074","efd074","efd074","efd074","efd074","bda441","bda441","bda441","9c5a29","9c5a29"],
    ["5a2920","5a2920","5a2920","9c5a29","9c5a29","9c5a29","9c5a29","9c5a29","9c5a29","9c5a29","9c5a29","9c5a29","9c5a29","bda441","bda441","bda441","bda441","bda441","bda441","bda441","bda441","bda441","bda441","efd074","efd074","efd074","efd074","efd074","efd074","efd074","efd074","efd074","efd074","efd074","efd074","efd074","efd074","efd074","efd074","bda441","bda441","bda441","9c5a29","9c5a29","9c5a29","5a2920","5a2920","5a2920"],
    ["cdd5ee","cdd5ee","cdd5ee","8b418b","5a2920","5a2920","5a2920","5a2920","9c5a29","9c5a29","9c5a29","9c5a29","9c5a29","9c5a29","9c5a29","bda441","bda441","bda441","bda441","bda441","bda441","bda441","bda441","efd074","efd074","efd074","efd074","efd074","efd074","efd074","efd074","efd074","efd074","efd074","efd074","efd074","bda441","bda441","9c5a29","9c5a29","5a2920","5a2920","5a2920","5a2920","8b418b","cdd5ee","cdd5ee","cdd5ee"],
    ["cdd5ee","cdd5ee","cdd5ee","8b418b","bd83d5","bd83d5","bd83d5","bd83d5","5a2920","5a2920","5a2920","5a2920","5a2920","9c5a29","9c5a29","9c5a29","bda441","bda441","bda441","bda441","bda441","bda441","bda441","efd074","efd074","efd074","efd074","efd074","efd074","efd074","efd074","efd074","efd074","bda441","bda441","9c5a29","9c5a29","5a2920","5a2920","5a2920","bd83d5","bd83d5","bd83d5","bd83d5","8b418b","cdd5ee","cdd5ee","cdd5ee"],
    ["cdd5ee","cdd5ee","cdd5ee","8b418b","bd83d5","bd83d5","bd83d5","bd83d5","bd83d5","bd83d5","bd83d5","bd83d5","8b418b","ac6252","5a2920","5a2920","5a2920","9c5a29","bda441","bda441","bda441","bda441","bda441","bda441","efd074","efd074","efd074","efd074","bda441","bda441","9c5a29","9c5a29","5a2920","5a2920","5a2920","5a2920","bd83d5","fec5c5","fec5c5","fec5c5","fec5c5","fec5c5","fec5c5","bd83d5","8b418b","cdd5ee","cdd5ee","cdd5ee"],
    ["cdd5ee","cdd5ee","cdd5ee","8b418b","bd83d5","bd83d5","8b418b","bd83d5","fec5c5","bd83d5","fec5c5","8b418b","ac6252","ac6252","ac6252","ac6252","ac6252","ac6252","5a2920","9c5a29","9c5a29","bda441","bda441","bda441","bda441","bda441","bda441","9c5a29","9c5a29","5a2920","5a2920","ac6252","ac6252","8b418b","fec5c5","fec5c5","bd83d5","fec5c5","fec5c5","fec5c5","bd83d5","fec5c5","fec5c5","fec5c5","8b418b","cdd5ee","cdd5ee","cdd5ee"],
    ["cdd5ee","cdd5ee","cdd5ee","8b418b","bd83d5","8b418b","bd83d5","fec5c5","fec5c5","fec5c5","fec5c5","8b418b","8b418b","bd83d5","bd83d5","ac6252","ac6252","ac6252","ac6252","ac6252","ac6252","5a2920","5a2920","5a2920","5a2920","5a2920","5a2920","ac6252","ac6252","ac6252","ac6252","ac6252","bd83d5","8b418b","bd83d5","fec5c5","bd83d5","fec5c5","fec5c5","fec5c5","8b418b","fec5c5","fec5c5","fec5c5","bd83d5","cdd5ee","cdd5ee","cdd5ee"],
    ["cdd5ee","cdd5ee","cdd5ee","8b418b","bd83d5","bd83d5","fec5c5","fec5c5","8b418b","fec5c5","fec5c5","8b418b","8b418b","8b418b","8b418b","8b418b","bd83d5","bd83d5","ac6252","ac6252","ac6252","ac6252","ac6252","ac6252","ac6252","ac6252","ac6252","ac6252","ac6252","ac6252","bd83d5","bd83d5","8b418b","8b418b","8b418b","fec5c5","8b418b","fec5c5","fec5c5","fec5c5","8b418b","bd83d5","fec5c5","fec5c5","bd83d5","8b418b","cdd5ee","cdd5ee"],
    ["cdd5ee","cdd5ee","cdd5ee","bd83d5","bd83d5","bd83d5","fec5c5","8b418b","8b418b","fec5c5","8b418b","ac6252","ac6252","ac6252","944131","944131","8b418b","8b418b","8b418b","ac6252","ac6252","ac6252","ac6252","ac6252","ac6252","ac6252","ac6252","ac6252","ac6252","8b418b","8b418b","8b418b","944131","944131","8b418b","bd83d5","8b418b","fec5c5","fec5c5","bd83d5","8b418b","8b418b","fec5c5","fec5c5","fec5c5","8b418b","cdd5ee","cdd5ee"],
    ["cdd5ee","cdd5ee","8b418b","bd83d5","bd83d5","bd83d5","8b418b","5a2920","8b418b","fec5c5","8b418b","ac6252","ac6252","ac6252","ac6252","ac6252","ac6252","ac6252","944131","8b418b","8b418b","ac6252","de9462","de9462","de9462","de9462","ac6252","8b418b","8b418b","944131","ac6252","ac6252","ac6252","ac6252","ac6252","8b418b","8b418b","bd83d5","fec5c5","8b418b","8b418b","8b418b","fec5c5","fec5c5","fec5c5","8b418b","cdd5ee","cdd5ee"],
    ["cdd5ee","cdd5ee","8b418b","bd83d5","bd83d5","bd83d5","5a2920","de9462","8b418b","bd83d5","8b418b","8b418b","5a2920","5a2920","5a2920","5a2920","5a2920","ac6252","ac6252","ac6252","ac6252","de9462","de9462","de9462","de9462","de9462","de9462","ac6252","ac6252","ac6252","ac6252","5a2920","5a2920","5a2920","5a2920","5a2920","8b418b","8b418b","fec5c5","8b418b","5a2920","5a2920","bd83d5","fec5c5","fec5c5","8b418b","cdd5ee","cdd5ee"],
    ["cdd5ee","cdd5ee","8b418b","bd83d5","bd83d5","5a2920","f6d5a4","f6d5a4","5a2920","8b418b","ac6252","5a2920","5a2920","5a2920","5a2920","5a2920","5a2920","5a2920","5a2920","ac6252","ac6252","de9462","de9462","f6d5a4","f6d5a4","de9462","de9462","de9462","ac6252","5a2920","5a2920","5a2920","5a2920","5a2920","5a2920","5a2920","5a2920","8b418b","bd83d5","8b418b","de9462","f6d5a4","5a2920","fec5c5","fec5c5","8b418b","cdd5ee","cdd5ee"],
    ["cdd5ee","cdd5ee","8b418b","bd83d5","bd83d5","5a2920","f6d5a4","5a2920","de9462","8b418b","ac6252","ac6252","5a2920","f6eee6","8b418b","5a2920","8b418b","f6eee6","de9462","ac6252","ac6252","ac6252","de9462","f6d5a4","f6d5a4","f6d5a4","de9462","de9462","de9462","de9462","f6eee6","8b418b","5a2920","8b418b","f6eee6","5a2920","ac6252","8b418b","8b418b","ac6252","5a2920","f6d5a4","5a2920","fec5c5","fec5c5","8b418b","cdd5ee","cdd5ee"],
    ["cdd5ee","cdd5ee","8b418b","bd83d5","bd83d5","5a2920","f6d5a4","5a2920","5a2920","5a2920","ac6252","ac6252","ac6252","5a2920","f6eee6","8b418b","8b418b","de9462","f6d5a4","de9462","ac6252","ac6252","ac6252","f6d5a4","f6d5a4","f6d5a4","f6d5a4","f6d5a4","f6d5a4","de9462","de9462","8b418b","8b418b","f6eee6","5a2920","ac6252","ac6252","8b418b","5a2920","5a2920","5a2920","f6d5a4","5a2920","fec5c5","fec5c5","8b418b","cdd5ee","cdd5ee"],
    ["cdd5ee","cdd5ee","8b418b","bd83d5","bd83d5","5a2920","de9462","5a2920","c56241","5a2920","ac6252","ac6252","de9462","de9462","f6d5a4","f6d5a4","f6d5a4","f6d5a4","f6d5a4","f6d5a4","de9462","ac6252","ac6252","f6d5a4","f6d5a4","f6d5a4","f6d5a4","f6d5a4","f6d5a4","f6d5a4","f6d5a4","de9462","de9462","de9462","de9462","de9462","ac6252","ac6252","5a2920","c56241","5a2920","f6d5a4","5a2920","bd83d5","fec5c5","8b418b","cdd5ee","cdd5ee"],
    ["cdd5ee","cdd5ee","8b418b","bd83d5","bd83d5","8b418b","5a2920","de9462","c56241","5a2920","ac6252","de9462","de9462","f6d5a4","f6d5a4","f6d5a4","f6d5a4","f6d5a4","f6d5a4","f6d5a4","f6d5a4","de9462","ac6252","f6d5a4","f6d5a4","f6d5a4","f6d5a4","f6d5a4","f6d5a4","f6d5a4","f6d5a4","f6d5a4","f6d5a4","f6d5a4","de9462","de9462","de9462","ac6252","5a2920","c56241","f6d5a4","5a2920","8b418b","bd83d5","fec5c5","8b418b","cdd5ee","cdd5ee"],
    ["cdd5ee","cdd5ee","8b418b","bd83d5","bd83d5","8b418b","5a2920","de9462","5a2920","5a2920","ac6252","de9462","de9462","f6d5a4","f6d5a4","f6d5a4","f6d5a4","f6d5a4","f6d5a4","f6d5a4","f6d5a4","de9462","ac6252","f6d5a4","f6d5a4","f6d5a4","f6d5a4","f6d5a4","f6d5a4","f6d5a4","f6d5a4","f6d5a4","f6d5a4","f6d5a4","f6d5a4","de9462","de9462","ac6252","5a2920","5a2920","f6d5a4","5a2920","8b418b","bd83d5","fec5c5","8b418b","cdd5ee","cdd5ee"],
    ["cdd5ee","8b418b","8b418b","bd83d5","bd83d5","8b418b","bd83d5","5a2920","5a2920","de9462","5a2920","de9462","de9462","de9462","f6d5a4","f6d5a4","f6d5a4","f6d5a4","f6d5a4","f6d5a4","de9462","de9462","ac6252","f6d5a4","f6d5a4","f6d5a4","f6d5a4","f6d5a4","f6d5a4","f6d5a4","f6d5a4","f6d5a4","f6d5a4","f6d5a4","f6d5a4","de9462","de9462","5a2920","ac6252","5a2920","5a2920","bd83d5","8b418b","bd83d5","fec5c5","8b418b","cdd5ee","cdd5ee"],
    ["cdd5ee","8b418b","8b418b","bd83d5","bd83d5","8b418b","fec5c5","5a2920","f6d5a4","f6d5a4","5a2920","ac6252","de9462","de9462","de9462","f6d5a4","f6d5a4","f6d5a4","f6d5a4","f6d5a4","de9462","ac6252","5a2920","f6d5a4","f6d5a4","f6d5a4","f6d5a4","f6d5a4","f6d5a4","f6d5a4","f6d5a4","f6d5a4","f6d5a4","f6d5a4","f6d5a4","de9462","ac6252","5a2920","de9462","f6d5a4","5a2920","fec5c5","8b418b","bd83d5","bd83d5","8b418b","8b418b","cdd5ee"],
    ["cdd5ee","8b418b","8b418b","bd83d5","bd83d5","bd83d5","fec5c5","fec5c5","5a2920","f6d5a4","5a2920","ac6252","de9462","de9462","de9462","de9462","f6d5a4","f6d5a4","f6d5a4","de9462","ac6252","5a2920","5a2920","f6d5a4","f6d5a4","f6d5a4","f6d5a4","f6d5a4","f6d5a4","f6d5a4","f6d5a4","f6d5a4","f6d5a4","f6d5a4","f6d5a4","de9462","ac6252","5a2920","f6d5a4","5a2920","fec5c5","fec5c5","8b418b","bd83d5","bd83d5","8b418b","8b418b","cdd5ee"],
    ["cdd5ee","8b418b","8b418b","bd83d5","bd83d5","bd83d5","fec5c5","fec5c5","fec5c5","5a2920","5a2920","5a2920","de9462","de9462","de9462","de9462","de9462","de9462","de9462","de9462","ac6252","5a2920","5a2920","de9462","f6d5a4","f6d5a4","f6d5a4","f6d5a4","f6d5a4","f6d5a4","f6d5a4","f6d5a4","f6d5a4","f6d5a4","f6d5a4","de9462","5a2920","5a2920","5a2920","fec5c5","fec5c5","fec5c5","bd83d5","8b418b","bd83d5","8b418b","8b418b","cdd5ee"],
    ["cdd5ee","8b418b","8b418b","bd83d5","bd83d5","bd83d5","fec5c5","fec5c5","fec5c5","fec5c5","bd83d5","5a2920","ac6252","de9462","de9462","de9462","de9462","de9462","de9462","de9462","de9462","ac6252","5a2920","ac6252","de9462","de9462","de9462","f6d5a4","f6d5a4","f6d5a4","f6d5a4","f6d5a4","f6d5a4","f6d5a4","f6d5a4","ac6252","5a2920","bd83d5","fec5c5","fec5c5","fec5c5","fec5c5","fec5c5","8b418b","fec5c5","8b418b","8b418b","cdd5ee"],
    ["cdd5ee","8b418b","8b418b","bd83d5","8b418b","bd83d5","fec5c5","fec5c5","bd83d5","fec5c5","fec5c5","bd83d5","5a2920","de9462","de9462","de9462","de9462","de9462","de9462","de9462","de9462","de9462","de9462","ac6252","ac6252","de9462","f6d5a4","f6d5a4","f6d5a4","f6d5a4","f6d5a4","f6d5a4","f6d5a4","f6d5a4","de9462","5a2920","bd83d5","fec5c5","fec5c5","fec5c5","bd83d5","fec5c5","fec5c5","8b418b","fec5c5","bd83d5","8b418b","cdd5ee"],
    ["8b418b","8b418b","8b418b","bd83d5","8b418b","bd83d5","bd83d5","fec5c5","8b418b","fec5c5","fec5c5","fec5c5","5a2920","ac6252","de9462","de9462","de9462","de9462","de9462","de9462","de9462","de9462","de9462","de9462","f6d5a4","f6d5a4","f6d5a4","f6d5a4","f6d5a4","f6d5a4","f6d5a4","f6d5a4","f6d5a4","f6d5a4","de9462","5a2920","fec5c5","fec5c5","fec5c5","fec5c5","bd83d5","fec5c5","fec5c5","8b418b","bd83d5","fec5c5","8b418b","cdd5ee"],
    ["8b418b","8b418b","bd83d5","bd83d5","8b418b","8b418b","bd83d5","fec5c5","8b418b","bd83d5","fec5c5","fec5c5","bd83d5","5a2920","de9462","de9462","de9462","de9462","de9462","de9462","de9462","de9462","de9462","de9462","f6d5a4","f6d5a4","f6d5a4","f6d5a4","f6d5a4","f6d5a4","f6d5a4","f6d5a4","f6d5a4","de9462","5a2920","bd83d5","fec5c5","fec5c5","fec5c5","fec5c5","fec5c5","8b418b","fec5c5","fec5c5","8b418b","fec5c5","8b418b","cdd5ee"],
    ["8b418b","8b418b","bd83d5","bd83d5","8b418b","8b418b","bd83d5","fec5c5","8b418b","bd83d5","fec5c5","fec5c5","fec5c5","5a2920","ac6252","de9462","de9462","de9462","de9462","de9462","de9462","de9462","de9462","f6d5a4","f6d5a4","f6d5a4","f6d5a4","f6d5a4","f6d5a4","f6d5a4","f6d5a4","f6d5a4","f6d5a4","de9462","5a2920","bd83d5","fec5c5","fec5c5","bd83d5","fec5c5","fec5c5","8b418b","fec5c5","fec5c5","8b418b","fec5c5","8b418b","cdd5ee"],
    ["8b418b","8b418b","bd83d5","8b418b","bd83d5","8b418b","bd83d5","fec5c5","8b418b","fec5c5","fec5c5","fec5c5","fec5c5","bd83d5","5a2920","ac6252","de9462","de9462","de9462","de9462","de9462","de9462","de9462","de9462","de9462","f6d5a4","f6d5a4","f6d5a4","f6d5a4","f6d5a4","f6d5a4","f6d5a4","de9462","5a2920","bd83d5","bd83d5","fec5c5","fec5c5","bd83d5","fec5c5","fec5c5","8b418b","bd83d5","fec5c5","8b418b","bd83d5","8b418b","cdd5ee"],
    ["8b418b","8b418b","bd83d5","8b418b","bd83d5","8b418b","bd83d5","8b418b","bd83d5","fec5c5","fec5c5","fec5c5","fec5c5","bd83d5","5a2920","5a2920","ac6252","de9462","de9462","de9462","de9462","5a2920","5a2920","5a2920","ac6252","ac6252","5a2920","de9462","f6d5a4","f6d5a4","f6d5a4","de9462","5a2920","5a2920","bd83d5","bd83d5","fec5c5","fec5c5","bd83d5","fec5c5","fec5c5","fec5c5","8b418b","fec5c5","fec5c5","8b418b","8b418b","8b418b"],
    ["8b418b","8b418b","bd83d5","8b418b","bd83d5","8b418b","bd83d5","8b418b","bd83d5","fec5c5","fec5c5","fec5c5","fec5c5","fec5c5","5a2920","ac6252","5a2920","ac6252","de9462","de9462","de9462","de9462","de9462","de9462","de9462","de9462","f6d5a4","f6d5a4","f6d5a4","f6d5a4","de9462","5a2920","de9462","5a2920","bd83d5","bd83d5","fec5c5","fec5c5","8b418b","fec5c5","fec5c5","fec5c5","8b418b","fec5c5","fec5c5","8b418b","8b418b","8b418b"],
    ["8b418b","8b418b","8b418b","bd83d5","bd83d5","8b418b","8b418b","8b418b","fec5c5","fec5c5","fec5c5","8b418b","fec5c5","fec5c5","5a2920","ac6252","ac6252","5a2920","ac6252","de9462","de9462","de9462","de9462","de9462","f6d5a4","f6d5a4","f6d5a4","f6d5a4","f6d5a4","de9462","5a2920","de9462","f6d5a4","5a2920","bd83d5","bd83d5","fec5c5","fec5c5","8b418b","bd83d5","fec5c5","fec5c5","8b418b","bd83d5","fec5c5","fec5c5","8b418b","8b418b"],
    ["8b418b","8b418b","8b418b","bd83d5","bd83d5","8b418b","8b418b","bd83d5","fec5c5","fec5c5","fec5c5","8b418b","fec5c5","bd83d5","5a2920","ac6252","ac6252","ac6252","5a2920","ac6252","de9462","de9462","de9462","de9462","f6d5a4","f6d5a4","f6d5a4","f6d5a4","de9462","5a2920","de9462","f6d5a4","f6d5a4","5a2920","bd83d5","bd83d5","bd83d5","fec5c5","8b418b","bd83d5","fec5c5","fec5c5","fec5c5","8b418b","fec5c5","fec5c5","8b418b","8b418b"],
    ["8b418b","8b418b","bd83d5","bd83d5","8b418b","8b418b","8b418b","bd83d5","fec5c5","fec5c5","bd83d5","8b418b","fec5c5","5a2920","ac6252","ac6252","ac6252","ac6252","ac6252","5a2920","5a2920","ac6252","de9462","de9462","de9462","de9462","de9462","5a2920","5a2920","de9462","f6d5a4","f6d5a4","f6d5a4","de9462","5a2920","bd83d5","bd83d5","fec5c5","8b418b","8b418b","fec5c5","fec5c5","fec5c5","8b418b","bd83d5","fec5c5","fec5c5","8b418b"],
    ["8b418b","8b418b","bd83d5","bd83d5","8b418b","8b418b","bd83d5","bd83d5","fec5c5","bd83d5","8b418b","8b418b","bd83d5","5a2920","ac6252","ac6252","ac6252","ac6252","ac6252","ac6252","ac6252","5a2920","5a2920","5a2920","5a2920","5a2920","5a2920","de9462","f6d5a4","f6d5a4","f6d5a4","f6d5a4","f6d5a4","f6d5a4","5a2920","bd83d5","bd83d5","fec5c5","8b418b","8b418b","bd83d5","fec5c5","fec5c5","fec5c5","8b418b","fec5c5","fec5c5","8b418b"],
    ["8b418b","8b418b","bd83d5","8b418b","8b418b","bd83d5","bd83d5","bd83d5","fec5c5","8b418b","8b418b","8b418b","5a2920","ac6252","ac6252","ac6252","ac6252","ac6252","ac6252","ac6252","de9462","de9462","de9462","de9462","de9462","de9462","f6d5a4","f6d5a4","f6d5a4","f6d5a4","f6d5a4","f6d5a4","f6d5a4","f6d5a4","de9462","5a2920","bd83d5","bd83d5","8b418b","8b418b","8b418b","bd83d5","fec5c5","fec5c5","8b418b","bd83d5","fec5c5","fec5c5"]
]}