{
  "title":"Male Dragon Knight",
  "original-title":"48x48 Faces 2nd Sheet",
  "author":"CharlesGabriel",
  "author-url":"http://cgartsenal.blogspot.com/",
  "source":"http://opengameart.org/content/48x48-faces-2nd-sheet",
  "licence":"cc-by-3.0",
  "notice":"Art by Charles Gabriel. Commissioned by OpenGameArt.org (http://opengameart.org)",
  "difficulty":"hard",
  "grid":[
    ["cdd5ee","202931","cdd5ee","cdd5ee","cdd5ee","cdd5ee","cdd5ee","cdd5ee","cdd5ee","cdd5ee","cdd5ee","130e13","202931","202931","202931","202931","444444","444444","444444","444444","444444","444444","444444","444444","444444","444444","6a625a","6a625a","6a625a","6a625a","6a625a","444444","444444","6a625a","6a625a","444444","130e13","cdd5ee","cdd5ee","cdd5ee","cdd5ee","cdd5ee","cdd5ee","cdd5ee","cdd5ee","cdd5ee","444444","cdd5ee"],
    ["cdd5ee","202931","cdd5ee","cdd5ee","cdd5ee","cdd5ee","cdd5ee","cdd5ee","cdd5ee","cdd5ee","130e13","202931","202931","202931","202931","444444","444444","444444","444444","444444","444444","444444","444444","444444","444444","6a625a","6a625a","6a625a","6a625a","6a625a","6a625a","6a625a","444444","444444","6a625a","6a625a","444444","130e13","cdd5ee","cdd5ee","cdd5ee","cdd5ee","cdd5ee","cdd5ee","cdd5ee","cdd5ee","444444","cdd5ee"],
    ["cdd5ee","202931","130e13","cdd5ee","cdd5ee","cdd5ee","cdd5ee","cdd5ee","cdd5ee","130e13","130e13","202931","202931","202931","444444","444444","444444","444444","444444","444444","444444","444444","444444","444444","444444","6a625a","6a625a","6a625a","6a625a","6a625a","6a625a","6a625a","444444","444444","6a625a","6a625a","6a625a","130e13","130e13","cdd5ee","cdd5ee","cdd5ee","cdd5ee","cdd5ee","cdd5ee","130e13","444444","cdd5ee"],
    ["cdd5ee","202931","130e13","cdd5ee","cdd5ee","cdd5ee","cdd5ee","cdd5ee","130e13","202931","130e13","202931","202931","202931","444444","444444","444444","444444","444444","444444","444444","444444","444444","444444","444444","6a625a","6a625a","6a625a","6a625a","6a625a","6a625a","6a625a","6a625a","444444","6a625a","6a625a","6a625a","130e13","444444","130e13","cdd5ee","cdd5ee","cdd5ee","cdd5ee","cdd5ee","130e13","6a625a","cdd5ee"],
    ["cdd5ee","202931","202931","cdd5ee","cdd5ee","cdd5ee","cdd5ee","cdd5ee","130e13","202931","130e13","202931","202931","202931","444444","444444","444444","444444","444444","444444","444444","444444","444444","444444","444444","6a625a","6a625a","6a625a","6a625a","6a625a","6a625a","6a625a","6a625a","444444","6a625a","6a625a","444444","130e13","444444","130e13","cdd5ee","cdd5ee","cdd5ee","cdd5ee","cdd5ee","444444","6a625a","cdd5ee"],
    ["cdd5ee","202931","202931","130e13","cdd5ee","cdd5ee","cdd5ee","130e13","202931","202931","202931","130e13","202931","444444","444444","444444","444444","444444","444444","444444","444444","444444","444444","444444","444444","6a625a","6a625a","6a625a","6a625a","6a625a","6a625a","6a625a","6a625a","444444","6a625a","6a625a","130e13","444444","444444","444444","130e13","cdd5ee","cdd5ee","cdd5ee","130e13","444444","6a625a","cdd5ee"],
    ["cdd5ee","202931","202931","130e13","cdd5ee","cdd5ee","cdd5ee","130e13","202931","202931","202931","130e13","202931","444444","444444","444444","444444","444444","444444","444444","444444","444444","130e13","130e13","130e13","130e13","444444","6a625a","6a625a","6a625a","6a625a","6a625a","6a625a","444444","6a625a","444444","130e13","444444","6a625a","444444","130e13","cdd5ee","cdd5ee","cdd5ee","130e13","444444","6a625a","cdd5ee"],
    ["cdd5ee","202931","202931","130e13","cdd5ee","cdd5ee","130e13","130e13","202931","202931","444444","202931","130e13","444444","444444","444444","444444","444444","444444","130e13","130e13","130e13","202931","444444","444444","6a625a","130e13","130e13","130e13","444444","6a625a","6a625a","6a625a","444444","6a625a","130e13","444444","444444","6a625a","6a625a","130e13","130e13","cdd5ee","cdd5ee","130e13","6a625a","6a625a","cdd5ee"],
    ["cdd5ee","202931","202931","202931","130e13","cdd5ee","130e13","130e13","202931","202931","444444","202931","130e13","444444","444444","444444","130e13","130e13","130e13","202931","202931","444444","444444","444444","444444","6a625a","6a625a","6a625a","444444","130e13","130e13","130e13","444444","444444","6a625a","130e13","444444","444444","6a625a","6a625a","130e13","130e13","cdd5ee","130e13","444444","6a625a","6a625a","cdd5ee"],
    ["cdd5ee","202931","202931","202931","130e13","130e13","202931","130e13","202931","202931","444444","202931","202931","130e13","130e13","130e13","202931","202931","444444","444444","444444","444444","444444","444444","444444","6a625a","6a625a","6a625a","6a625a","6a625a","444444","444444","130e13","130e13","130e13","444444","444444","6a625a","6a625a","6a625a","130e13","444444","130e13","130e13","444444","6a625a","6a625a","cdd5ee"],
    ["cdd5ee","202931","202931","202931","130e13","130e13","202931","130e13","202931","202931","444444","444444","202931","202931","130e13","202931","202931","444444","444444","444444","444444","444444","444444","444444","444444","6a625a","444444","6a625a","6a625a","6a625a","6a625a","444444","444444","130e13","444444","444444","444444","6a625a","6a625a","6a625a","130e13","444444","130e13","130e13","444444","6a625a","6a625a","cdd5ee"],
    ["cdd5ee","202931","202931","202931","130e13","202931","202931","130e13","202931","202931","444444","444444","202931","202931","130e13","202931","202931","444444","444444","444444","444444","444444","444444","444444","444444","6a625a","444444","6a625a","6a625a","6a625a","6a625a","6a625a","444444","130e13","444444","444444","6a625a","6a625a","6a625a","6a625a","130e13","444444","444444","130e13","6a625a","6a625a","6a625a","cdd5ee"],
    ["cdd5ee","202931","202931","202931","202931","202931","202931","130e13","202931","202931","444444","444444","444444","202931","202931","202931","202931","444444","444444","444444","444444","444444","444444","444444","444444","6a625a","444444","6a625a","6a625a","6a625a","6a625a","6a625a","6a625a","444444","444444","444444","6a625a","6a625a","6a625a","6a625a","130e13","444444","444444","444444","6a625a","6a625a","6a625a","cdd5ee"],
    ["cdd5ee","202931","202931","202931","202931","202931","202931","130e13","202931","202931","444444","444444","444444","130e13","202931","202931","202931","202931","444444","444444","444444","444444","444444","444444","444444","6a625a","444444","6a625a","6a625a","6a625a","6a625a","6a625a","6a625a","444444","130e13","444444","6a625a","6a625a","6a625a","444444","130e13","444444","6a625a","6a625a","6a625a","6a625a","6a625a","cdd5ee"],
    ["cdd5ee","202931","202931","202931","202931","202931","202931","130e13","130e13","202931","202931","444444","444444","130e13","202931","202931","202931","202931","444444","444444","444444","444444","444444","444444","6a625a","6a625a","444444","6a625a","6a625a","6a625a","6a625a","6a625a","6a625a","444444","130e13","6a625a","6a625a","6a625a","444444","130e13","130e13","444444","444444","6a625a","6a625a","6a625a","444444","cdd5ee"],
    ["cdd5ee","130e13","202931","202931","202931","130e13","202931","202931","202931","130e13","202931","444444","444444","202931","130e13","202931","202931","202931","444444","444444","444444","444444","444444","444444","6a625a","6a625a","444444","6a625a","6a625a","6a625a","6a625a","6a625a","6a625a","444444","130e13","6a625a","6a625a","444444","130e13","444444","444444","444444","130e13","444444","6a625a","6a625a","130e13","cdd5ee"],
    ["cdd5ee","130e13","202931","202931","130e13","202931","202931","444444","444444","202931","130e13","202931","444444","444444","202931","130e13","202931","202931","202931","444444","444444","444444","444444","444444","6a625a","6a625a","444444","6a625a","6a625a","6a625a","6a625a","6a625a","444444","130e13","444444","6a625a","444444","130e13","444444","444444","444444","444444","444444","130e13","6a625a","6a625a","130e13","cdd5ee"],
    ["cdd5ee","130e13","202931","202931","202931","202931","444444","444444","444444","202931","202931","130e13","202931","444444","444444","202931","130e13","130e13","202931","444444","444444","444444","444444","444444","6a625a","6a625a","444444","6a625a","6a625a","6a625a","444444","130e13","130e13","444444","6a625a","6a625a","130e13","444444","444444","444444","444444","6a625a","6a625a","6a625a","6a625a","6a625a","130e13","cdd5ee"],
    ["cdd5ee","130e13","202931","202931","202931","444444","444444","444444","444444","444444","202931","130e13","202931","202931","444444","444444","202931","202931","130e13","130e13","444444","444444","444444","444444","6a625a","6a625a","444444","6a625a","444444","130e13","130e13","444444","444444","6a625a","6a625a","444444","130e13","444444","444444","444444","6a625a","6a625a","6a625a","6a625a","6a625a","6a625a","130e13","cdd5ee"],
    ["cdd5ee","130e13","202931","202931","202931","444444","444444","444444","444444","444444","202931","202931","130e13","130e13","130e13","130e13","130e13","130e13","130e13","130e13","202931","444444","444444","444444","6a625a","6a625a","444444","444444","202931","130e13","130e13","130e13","130e13","130e13","130e13","130e13","444444","444444","444444","6a625a","6a625a","6a625a","6a625a","6a625a","6a625a","6a625a","130e13","cdd5ee"],
    ["cdd5ee","130e13","202931","202931","202931","444444","444444","444444","444444","444444","202931","202931","130e13","202931","202931","ac6252","ac6252","ac6252","ac6252","ac6252","130e13","130e13","202931","444444","6a625a","444444","202931","130e13","130e13","ac6252","ac6252","ac6252","ac6252","202931","202931","130e13","444444","444444","444444","6a625a","6a625a","6a625a","6a625a","6a625a","6a625a","6a625a","130e13","cdd5ee"],
    ["cdd5ee","130e13","202931","202931","202931","202931","444444","444444","444444","202931","202931","130e13","130e13","130e13","130e13","130e13","202931","202931","ac6252","ac6252","ac6252","ac6252","130e13","202931","444444","202931","130e13","ac6252","ac6252","ac6252","202931","202931","130e13","130e13","130e13","130e13","130e13","444444","444444","6a625a","6a625a","6a625a","6a625a","6a625a","6a625a","444444","130e13","cdd5ee"],
    ["cdd5ee","cdd5ee","130e13","202931","202931","202931","444444","444444","202931","130e13","130e13","130e13","ac6252","ac6252","202931","202931","130e13","130e13","130e13","ac6252","ac6252","ac6252","de9462","130e13","130e13","130e13","ac6252","ac6252","ac6252","130e13","130e13","130e13","202931","202931","ac6252","ac6252","130e13","130e13","130e13","444444","6a625a","6a625a","6a625a","6a625a","6a625a","130e13","cdd5ee","cdd5ee"],
    ["cdd5ee","cdd5ee","130e13","202931","202931","202931","202931","130e13","130e13","202931","202931","130e13","ac6252","ac6252","ac6252","ac6252","ac6252","ac6252","202931","130e13","130e13","de9462","de9462","de9462","de9462","de9462","de9462","130e13","130e13","202931","ac6252","ac6252","ac6252","ac6252","ac6252","ac6252","130e13","444444","444444","130e13","130e13","444444","6a625a","6a625a","444444","130e13","cdd5ee","cdd5ee"],
    ["cdd5ee","cdd5ee","cdd5ee","130e13","202931","202931","130e13","202931","202931","202931","202931","130e13","130e13","130e13","130e13","130e13","130e13","130e13","ac6252","ac6252","ac6252","de9462","de9462","de9462","de9462","de9462","de9462","de9462","ac6252","ac6252","130e13","130e13","130e13","130e13","130e13","130e13","130e13","444444","444444","444444","444444","130e13","444444","6a625a","130e13","cdd5ee","cdd5ee","cdd5ee"],
    ["cdd5ee","cdd5ee","cdd5ee","130e13","202931","130e13","202931","202931","202931","444444","202931","130e13","130e13","f6eee6","130e13","130e13","130e13","f6eee6","130e13","ac6252","ac6252","de9462","de9462","f6d5a4","f6d5a4","de9462","de9462","de9462","ac6252","130e13","f6eee6","130e13","130e13","130e13","f6eee6","130e13","130e13","444444","444444","6a625a","444444","444444","130e13","444444","130e13","cdd5ee","cdd5ee","cdd5ee"],
    ["cdd5ee","cdd5ee","cdd5ee","130e13","130e13","202931","202931","202931","202931","444444","202931","130e13","130e13","f6eee6","202931","130e13","202931","130e13","ac6252","ac6252","ac6252","ac6252","de9462","f6d5a4","f6d5a4","f6d5a4","de9462","de9462","de9462","de9462","130e13","202931","130e13","202931","f6eee6","130e13","130e13","444444","444444","6a625a","6a625a","444444","444444","130e13","130e13","cdd5ee","cdd5ee","cdd5ee"],
    ["cdd5ee","cdd5ee","cdd5ee","cdd5ee","130e13","202931","202931","202931","444444","444444","444444","130e13","ac6252","130e13","f6eee6","202931","202931","ac6252","de9462","de9462","ac6252","ac6252","ac6252","f6d5a4","f6d5a4","f6d5a4","f6d5a4","f6d5a4","de9462","de9462","de9462","202931","202931","f6eee6","130e13","ac6252","130e13","444444","444444","6a625a","6a625a","6a625a","444444","130e13","cdd5ee","cdd5ee","cdd5ee","cdd5ee"],
    ["cdd5ee","cdd5ee","cdd5ee","cdd5ee","130e13","202931","202931","202931","444444","444444","444444","130e13","de9462","de9462","f6d5a4","f6d5a4","f6d5a4","f6d5a4","f6d5a4","f6d5a4","de9462","ac6252","ac6252","f6d5a4","f6d5a4","f6d5a4","f6d5a4","f6d5a4","f6d5a4","f6d5a4","f6d5a4","de9462","de9462","de9462","de9462","de9462","130e13","444444","444444","6a625a","6a625a","6a625a","6a625a","130e13","cdd5ee","cdd5ee","cdd5ee","cdd5ee"],
    ["cdd5ee","cdd5ee","cdd5ee","cdd5ee","130e13","202931","202931","202931","444444","444444","444444","130e13","130e13","130e13","130e13","f6d5a4","f6d5a4","f6d5a4","f6d5a4","f6d5a4","f6d5a4","de9462","ac6252","f6d5a4","f6d5a4","f6d5a4","f6d5a4","f6d5a4","f6d5a4","f6d5a4","de9462","de9462","de9462","130e13","130e13","130e13","130e13","444444","444444","6a625a","6a625a","6a625a","6a625a","130e13","cdd5ee","cdd5ee","cdd5ee","cdd5ee"],
    ["cdd5ee","cdd5ee","cdd5ee","cdd5ee","130e13","202931","202931","202931","444444","444444","444444","130e13","202931","202931","202931","130e13","130e13","130e13","130e13","130e13","de9462","de9462","ac6252","f6d5a4","f6d5a4","f6d5a4","f6d5a4","de9462","130e13","130e13","130e13","130e13","130e13","444444","6a625a","6a625a","130e13","444444","444444","6a625a","6a625a","6a625a","6a625a","130e13","cdd5ee","cdd5ee","cdd5ee","cdd5ee"],
    ["cdd5ee","cdd5ee","cdd5ee","cdd5ee","cdd5ee","202931","202931","202931","444444","444444","444444","130e13","202931","202931","202931","202931","202931","130e13","202931","202931","202931","130e13","130e13","130e13","130e13","130e13","130e13","202931","6a625a","6a625a","130e13","202931","444444","6a625a","6a625a","6a625a","130e13","444444","6a625a","6a625a","6a625a","6a625a","444444","cdd5ee","cdd5ee","cdd5ee","cdd5ee","cdd5ee"],
    ["cdd5ee","cdd5ee","cdd5ee","cdd5ee","cdd5ee","130e13","202931","202931","444444","444444","444444","130e13","202931","202931","444444","202931","202931","130e13","202931","202931","202931","202931","202931","444444","444444","444444","6a625a","6a625a","6a625a","6a625a","130e13","202931","444444","6a625a","6a625a","6a625a","130e13","444444","6a625a","6a625a","6a625a","6a625a","130e13","cdd5ee","cdd5ee","cdd5ee","cdd5ee","cdd5ee"],
    ["cdd5ee","cdd5ee","cdd5ee","cdd5ee","cdd5ee","130e13","202931","202931","444444","444444","444444","130e13","202931","202931","444444","444444","202931","130e13","202931","202931","202931","202931","444444","444444","444444","6a625a","6a625a","6a625a","6a625a","6a625a","130e13","444444","444444","6a625a","6a625a","444444","130e13","444444","6a625a","6a625a","6a625a","6a625a","130e13","cdd5ee","cdd5ee","cdd5ee","cdd5ee","cdd5ee"],
    ["cdd5ee","cdd5ee","cdd5ee","cdd5ee","cdd5ee","130e13","202931","202931","202931","444444","444444","130e13","202931","202931","444444","444444","202931","130e13","202931","202931","202931","202931","444444","444444","444444","6a625a","6a625a","6a625a","6a625a","6a625a","130e13","444444","444444","6a625a","6a625a","444444","130e13","444444","6a625a","6a625a","6a625a","6a625a","130e13","cdd5ee","cdd5ee","cdd5ee","cdd5ee","cdd5ee"],
    ["cdd5ee","cdd5ee","cdd5ee","cdd5ee","cdd5ee","130e13","202931","202931","202931","444444","444444","202931","130e13","202931","444444","444444","202931","130e13","202931","202931","202931","202931","444444","444444","444444","6a625a","6a625a","6a625a","6a625a","6a625a","130e13","444444","444444","6a625a","444444","130e13","444444","444444","6a625a","6a625a","6a625a","444444","130e13","cdd5ee","cdd5ee","cdd5ee","cdd5ee","cdd5ee"],
    ["cdd5ee","cdd5ee","cdd5ee","cdd5ee","cdd5ee","cdd5ee","130e13","202931","202931","444444","444444","202931","130e13","202931","202931","444444","202931","130e13","202931","202931","202931","202931","444444","444444","444444","6a625a","6a625a","6a625a","6a625a","6a625a","130e13","444444","6a625a","6a625a","444444","130e13","444444","444444","6a625a","6a625a","6a625a","130e13","cdd5ee","cdd5ee","cdd5ee","cdd5ee","cdd5ee","cdd5ee"],
    ["cdd5ee","cdd5ee","cdd5ee","cdd5ee","cdd5ee","cdd5ee","130e13","202931","202931","444444","444444","202931","130e13","202931","202931","444444","202931","130e13","202931","202931","202931","202931","444444","444444","444444","6a625a","6a625a","6a625a","6a625a","444444","130e13","444444","6a625a","6a625a","202931","130e13","444444","6a625a","6a625a","6a625a","444444","130e13","cdd5ee","cdd5ee","cdd5ee","cdd5ee","cdd5ee","cdd5ee"],
    ["cdd5ee","cdd5ee","cdd5ee","cdd5ee","cdd5ee","cdd5ee","cdd5ee","130e13","202931","202931","444444","444444","202931","130e13","202931","444444","202931","202931","202931","202931","202931","202931","444444","444444","444444","6a625a","6a625a","6a625a","6a625a","444444","444444","444444","6a625a","6a625a","130e13","444444","444444","6a625a","6a625a","6a625a","130e13","cdd5ee","cdd5ee","cdd5ee","cdd5ee","cdd5ee","cdd5ee","cdd5ee"],
    ["cdd5ee","cdd5ee","cdd5ee","cdd5ee","cdd5ee","cdd5ee","cdd5ee","130e13","202931","202931","444444","444444","202931","130e13","202931","202931","202931","202931","130e13","202931","202931","202931","444444","444444","444444","6a625a","6a625a","6a625a","6a625a","130e13","444444","444444","6a625a","444444","130e13","444444","6a625a","6a625a","6a625a","444444","130e13","cdd5ee","cdd5ee","cdd5ee","cdd5ee","cdd5ee","cdd5ee","cdd5ee"],
    ["cdd5ee","cdd5ee","cdd5ee","cdd5ee","cdd5ee","cdd5ee","cdd5ee","cdd5ee","130e13","202931","444444","444444","444444","202931","130e13","202931","202931","202931","130e13","202931","202931","202931","444444","444444","444444","6a625a","6a625a","6a625a","6a625a","130e13","444444","444444","444444","130e13","444444","444444","6a625a","6a625a","6a625a","130e13","cdd5ee","cdd5ee","cdd5ee","cdd5ee","cdd5ee","cdd5ee","cdd5ee","cdd5ee"],
    ["cdd5ee","cdd5ee","cdd5ee","cdd5ee","cdd5ee","cdd5ee","cdd5ee","cdd5ee","130e13","202931","202931","444444","444444","202931","130e13","130e13","202931","202931","130e13","202931","202931","202931","444444","444444","444444","6a625a","6a625a","6a625a","444444","130e13","444444","202931","130e13","130e13","444444","444444","6a625a","6a625a","444444","130e13","cdd5ee","cdd5ee","cdd5ee","cdd5ee","cdd5ee","cdd5ee","cdd5ee","cdd5ee"],
    ["cdd5ee","cdd5ee","cdd5ee","cdd5ee","cdd5ee","cdd5ee","cdd5ee","cdd5ee","cdd5ee","130e13","202931","202931","444444","202931","130e13","202931","130e13","202931","130e13","202931","202931","202931","444444","444444","444444","6a625a","6a625a","6a625a","444444","130e13","202931","130e13","444444","130e13","444444","444444","6a625a","444444","130e13","cdd5ee","cdd5ee","cdd5ee","cdd5ee","cdd5ee","cdd5ee","cdd5ee","cdd5ee","cdd5ee"],
    ["cdd5ee","cdd5ee","cdd5ee","cdd5ee","cdd5ee","cdd5ee","cdd5ee","cdd5ee","cdd5ee","cdd5ee","130e13","202931","444444","202931","130e13","202931","202931","130e13","130e13","202931","202931","202931","444444","444444","444444","6a625a","6a625a","6a625a","202931","130e13","130e13","444444","6a625a","130e13","444444","444444","444444","130e13","cdd5ee","cdd5ee","cdd5ee","cdd5ee","cdd5ee","cdd5ee","cdd5ee","cdd5ee","cdd5ee","cdd5ee"],
    ["cdd5ee","cdd5ee","cdd5ee","cdd5ee","cdd5ee","cdd5ee","cdd5ee","cdd5ee","cdd5ee","cdd5ee","cdd5ee","130e13","202931","202931","130e13","202931","202931","202931","130e13","202931","202931","202931","444444","444444","444444","6a625a","6a625a","444444","202931","130e13","444444","6a625a","6a625a","130e13","444444","444444","130e13","cdd5ee","cdd5ee","cdd5ee","cdd5ee","cdd5ee","cdd5ee","cdd5ee","cdd5ee","cdd5ee","cdd5ee","cdd5ee"],
    ["cdd5ee","cdd5ee","cdd5ee","cdd5ee","cdd5ee","cdd5ee","cdd5ee","cdd5ee","cdd5ee","cdd5ee","cdd5ee","cdd5ee","130e13","130e13","202931","202931","202931","202931","202931","130e13","130e13","202931","202931","444444","444444","6a625a","202931","130e13","130e13","444444","6a625a","6a625a","6a625a","444444","130e13","130e13","cdd5ee","cdd5ee","cdd5ee","cdd5ee","cdd5ee","cdd5ee","cdd5ee","cdd5ee","cdd5ee","cdd5ee","cdd5ee","cdd5ee"],
    ["cdd5ee","cdd5ee","cdd5ee","cdd5ee","cdd5ee","cdd5ee","cdd5ee","cdd5ee","cdd5ee","cdd5ee","cdd5ee","cdd5ee","cdd5ee","130e13","202931","202931","202931","202931","202931","202931","202931","130e13","130e13","130e13","130e13","130e13","130e13","444444","6a625a","6a625a","6a625a","6a625a","6a625a","444444","130e13","cdd5ee","cdd5ee","cdd5ee","cdd5ee","cdd5ee","cdd5ee","cdd5ee","cdd5ee","cdd5ee","cdd5ee","cdd5ee","cdd5ee","cdd5ee"],
    ["cdd5ee","cdd5ee","cdd5ee","cdd5ee","cdd5ee","cdd5ee","cdd5ee","cdd5ee","cdd5ee","cdd5ee","cdd5ee","cdd5ee","130e13","202931","202931","202931","202931","202931","202931","202931","444444","444444","444444","444444","444444","444444","6a625a","6a625a","6a625a","6a625a","6a625a","6a625a","6a625a","444444","444444","130e13","cdd5ee","cdd5ee","cdd5ee","cdd5ee","cdd5ee","cdd5ee","cdd5ee","cdd5ee","cdd5ee","cdd5ee","cdd5ee","cdd5ee"]
]}